^C:\USERS\JESSE\DROPBOX\MCQUAI (4)\EDITING\MCQUAI.GUI\FORM1.RESX
^C:\USERS\JESSE\DROPBOX\MCQUAI (4)\EDITING\MCQUAI.GUI\PROPERTIESWINDOW.RESX
^C:\USERS\JESSE\DROPBOX\MCQUAI (4)\EDITING\MCQUAI.GUI\PROPERTIES\RESOURCES.RESX
C:\USERS\JESSE\DROPBOX\MCQUAI (4)\EDITING\MCQUAI.GUI\RESOURCES\ROTATE.PNG
^C:\USERS\JESSE\DROPBOX\MCQUAI (4)\EDITING\MCQUAI.GUI\SELECTIONWINDOW.RESX
^C:\USERS\JESSE\DROPBOX\MCQUAI (4)\EDITING\MCQUAI.GUI\RULESCHANGINGWINDOW.RESX
^C:\USERS\JESSE\DROPBOX\MCQUAI (4)\EDITING\MCQUAI.GUI\EDITROUTINEWINDOW.RESX
C:\WINDOWS\MICROSOFT.NET\FRAMEWORK64\V2.0.50727\MSCORWKS.DLL
C:\WINDOWS\MICROSOFT.NET\FRAMEWORK64\V4.0.30319\CLR.DLL
C:\PROGRAM FILES (X86)\MICROSOFT SDKS\WINDOWS\V7.0A\BIN\RESGEN.EXE.CONFIG
C:\PROGRAM FILES (X86)\MICROSOFT SDKS\WINDOWS\V7.0A\BIN\RESGEN.EXE
C:\WINDOWS\MICROSOFT.NET\FRAMEWORK64\V2.0.50727\CONFIG\MACHINE.CONFIG
C:\WINDOWS\MICROSOFT.NET\FRAMEWORK64\V2.0.50727\CONFIG\SECURITY.CONFIG
C:\WINDOWS\MICROSOFT.NET\FRAMEWORK64\V2.0.50727\CONFIG\SECURITY.CONFIG.CCH
C:\WINDOWS\MICROSOFT.NET\FRAMEWORK64\V2.0.50727\CONFIG\ENTERPRISESEC.CONFIG
C:\WINDOWS\MICROSOFT.NET\FRAMEWORK64\V2.0.50727\CONFIG\ENTERPRISESEC.CONFIG.CCH
C:\WINDOWS\ASSEMBLY\NATIVEIMAGES_V2.0.50727_64\INDEXC5B.DAT
C:\WINDOWS\SYSTEM32\L_INTL.NLS
C:\WINDOWS\ASSEMBLY\GAC_64\MSCORLIB\2.0.0.0__B77A5C561934E089\SORTTBLS.NLP
C:\WINDOWS\ASSEMBLY\GAC_64\MSCORLIB\2.0.0.0__B77A5C561934E089\SORTKEY.NLP
C:\WINDOWS\ASSEMBLY\PUBPOL12.DAT
C:\USERS\JESSE\DROPBOX\MCQUAI (4)\EDITING\MCQUAI.CLI\BIN\RELEASE\MCQUAI.EXE
C:\USERS\JESSE\DROPBOX\MCQUAI (4)\EDITING\MCQUAI\BIN\DEBUG\MCQUAI_.DLL
C:\PROGRAM FILES (X86)\REFERENCE ASSEMBLIES\MICROSOFT\FRAMEWORK\.NETFRAMEWORK\V3.5\PROFILE\CLIENT\MSCORLIB.DLL
C:\PROGRAM FILES (X86)\REFERENCE ASSEMBLIES\MICROSOFT\FRAMEWORK\.NETFRAMEWORK\V3.5\PROFILE\CLIENT\SYSTEM.CORE.DLL
C:\PROGRAM FILES (X86)\REFERENCE ASSEMBLIES\MICROSOFT\FRAMEWORK\.NETFRAMEWORK\V3.5\PROFILE\CLIENT\SYSTEM.DATA.DATASETEXTENSIONS.DLL
C:\PROGRAM FILES (X86)\REFERENCE ASSEMBLIES\MICROSOFT\FRAMEWORK\.NETFRAMEWORK\V3.5\PROFILE\CLIENT\SYSTEM.DATA.DLL
C:\PROGRAM FILES (X86)\REFERENCE ASSEMBLIES\MICROSOFT\FRAMEWORK\.NETFRAMEWORK\V3.5\PROFILE\CLIENT\SYSTEM.DEPLOYMENT.DLL
C:\PROGRAM FILES (X86)\REFERENCE ASSEMBLIES\MICROSOFT\FRAMEWORK\.NETFRAMEWORK\V3.5\PROFILE\CLIENT\SYSTEM.DLL
C:\PROGRAM FILES (X86)\REFERENCE ASSEMBLIES\MICROSOFT\FRAMEWORK\.NETFRAMEWORK\V3.5\PROFILE\CLIENT\SYSTEM.DRAWING.DLL
C:\PROGRAM FILES (X86)\REFERENCE ASSEMBLIES\MICROSOFT\FRAMEWORK\.NETFRAMEWORK\V3.5\PROFILE\CLIENT\SYSTEM.WINDOWS.FORMS.DLL
C:\PROGRAM FILES (X86)\REFERENCE ASSEMBLIES\MICROSOFT\FRAMEWORK\.NETFRAMEWORK\V3.5\PROFILE\CLIENT\SYSTEM.XML.DLL
C:\PROGRAM FILES (X86)\REFERENCE ASSEMBLIES\MICROSOFT\FRAMEWORK\.NETFRAMEWORK\V3.5\PROFILE\CLIENT\SYSTEM.XML.LINQ.DLL
^C:\USERS\JESSE\DROPBOX\MCQUAI (4)\EDITING\MCQUAI.GUI\GUIWINDOW.RESX
C:\WINDOWS\MICROSOFT.NET\FRAMEWORK64\V2.0.50727\MSCORWKS.DLL
C:\WINDOWS\MICROSOFT.NET\FRAMEWORK64\V4.0.30319\CLR.DLL
C:\PROGRAM FILES (X86)\MICROSOFT SDKS\WINDOWS\V7.0A\BIN\RESGEN.EXE.CONFIG
C:\PROGRAM FILES (X86)\MICROSOFT SDKS\WINDOWS\V7.0A\BIN\RESGEN.EXE
C:\WINDOWS\MICROSOFT.NET\FRAMEWORK64\V2.0.50727\CONFIG\MACHINE.CONFIG
C:\WINDOWS\MICROSOFT.NET\FRAMEWORK64\V2.0.50727\CONFIG\SECURITY.CONFIG
C:\WINDOWS\MICROSOFT.NET\FRAMEWORK64\V2.0.50727\CONFIG\SECURITY.CONFIG.CCH
C:\WINDOWS\MICROSOFT.NET\FRAMEWORK64\V2.0.50727\CONFIG\ENTERPRISESEC.CONFIG
C:\WINDOWS\MICROSOFT.NET\FRAMEWORK64\V2.0.50727\CONFIG\ENTERPRISESEC.CONFIG.CCH
C:\WINDOWS\ASSEMBLY\NATIVEIMAGES_V2.0.50727_64\INDEXC5B.DAT
C:\WINDOWS\SYSTEM32\L_INTL.NLS
C:\WINDOWS\ASSEMBLY\GAC_64\MSCORLIB\2.0.0.0__B77A5C561934E089\SORTTBLS.NLP
C:\WINDOWS\ASSEMBLY\GAC_64\MSCORLIB\2.0.0.0__B77A5C561934E089\SORTKEY.NLP
C:\WINDOWS\ASSEMBLY\PUBPOL12.DAT
C:\USERS\JESSE\DROPBOX\MCQUAI (4)\EDITING\MCQUAI.CLI\BIN\RELEASE\MCQUAI.EXE
C:\USERS\JESSE\DROPBOX\MCQUAI (4)\EDITING\MCQUAI\BIN\DEBUG\MCQUAI_.DLL
C:\PROGRAM FILES (X86)\REFERENCE ASSEMBLIES\MICROSOFT\FRAMEWORK\.NETFRAMEWORK\V3.5\PROFILE\CLIENT\MSCORLIB.DLL
C:\PROGRAM FILES (X86)\REFERENCE ASSEMBLIES\MICROSOFT\FRAMEWORK\.NETFRAMEWORK\V3.5\PROFILE\CLIENT\SYSTEM.CORE.DLL
C:\PROGRAM FILES (X86)\REFERENCE ASSEMBLIES\MICROSOFT\FRAMEWORK\.NETFRAMEWORK\V3.5\PROFILE\CLIENT\SYSTEM.DATA.DATASETEXTENSIONS.DLL
C:\PROGRAM FILES (X86)\REFERENCE ASSEMBLIES\MICROSOFT\FRAMEWORK\.NETFRAMEWORK\V3.5\PROFILE\CLIENT\SYSTEM.DATA.DLL
C:\PROGRAM FILES (X86)\REFERENCE ASSEMBLIES\MICROSOFT\FRAMEWORK\.NETFRAMEWORK\V3.5\PROFILE\CLIENT\SYSTEM.DEPLOYMENT.DLL
C:\PROGRAM FILES (X86)\REFERENCE ASSEMBLIES\MICROSOFT\FRAMEWORK\.NETFRAMEWORK\V3.5\PROFILE\CLIENT\SYSTEM.DLL
C:\PROGRAM FILES (X86)\REFERENCE ASSEMBLIES\MICROSOFT\FRAMEWORK\.NETFRAMEWORK\V3.5\PROFILE\CLIENT\SYSTEM.DRAWING.DLL
C:\PROGRAM FILES (X86)\REFERENCE ASSEMBLIES\MICROSOFT\FRAMEWORK\.NETFRAMEWORK\V3.5\PROFILE\CLIENT\SYSTEM.WINDOWS.FORMS.DLL
C:\PROGRAM FILES (X86)\REFERENCE ASSEMBLIES\MICROSOFT\FRAMEWORK\.NETFRAMEWORK\V3.5\PROFILE\CLIENT\SYSTEM.XML.DLL
C:\PROGRAM FILES (X86)\REFERENCE ASSEMBLIES\MICROSOFT\FRAMEWORK\.NETFRAMEWORK\V3.5\PROFILE\CLIENT\SYSTEM.XML.LINQ.DLL
