(17:31:48) Starting Server
(17:31:48) Properties loaded, and saved!
(17:31:48) You should enable "check-update" in server.properties
(17:31:49) Incorrect value given for tree, using default value.
(17:31:50) Level initialized
(17:31:50) Level "main" loaded.
(17:31:50) Creating listening socket on port 31415... 
(17:31:50) Checking if port is forwarded...
(17:31:52) MJS --> Event ServerStart was triggered with parameters: 
(17:31:52) Port 31415 is closed!
(17:31:52) Done.
(17:31:55) GAH! PHYSICS EXPLODING!
(17:31:55) Process Terminated
