(22:29:08) Properties loaded, and saved!
(22:29:08) You should enable "check-update" in server.properties
(22:29:09) Level initialized
(22:29:09) Level "main" loaded.
(22:29:09) flat
(22:29:09) Creating listening socket on port 31415...
(22:29:09) Checking if port is forwarded...
(22:29:27) Failed to check portforward.
(22:29:27) Check System Tab for more information.
(22:29:27) An Error occured! For more information, go to System Logs tab
(22:29:27) Done.
(22:29:27) An Error occured! For more information, go to System Logs tab
(22:29:27) An Error occured! For more information, go to System Logs tab
(22:29:27) An Error occured! For more information, go to System Logs tab
(22:29:29) Could not recieve serverlist from mcrevive.com
(22:29:47) Shutting down...
(22:29:47) Closing forwarded ports...
(22:29:47) Process Terminated
