(14:54:03) Properties loaded, and saved!
(14:54:03) You should enable "check-update" in server.properties
(14:54:04) Level initialized
(14:54:04) Level "main" loaded.
(14:54:04) flat
(14:54:04) Creating listening socket on port 31415...
(14:54:05) Checking if port is forwarded...
(14:54:10) Port 31415 is closed!
(14:54:10) Trying to forward ports...
(14:54:25) Portforward successful!
(14:54:25) Done.
(14:54:41) Shutting down...
(14:54:41) Closing forwarded ports...
(14:54:46) Process Terminated
