(15:43:42) Properties loaded, and saved!
(15:43:42) You should enable "check-update" in server.properties
(15:43:42) Level initialized
(15:43:43) Level "main" loaded.
(15:43:43) flat
(15:43:43) Creating listening socket on port 31415...
(15:43:43) Done.
(15:43:47) An Error occured! For more information, go to System Logs tab
(15:44:41) An Error occured! For more information, go to System Logs tab
(15:45:36) An Error occured! For more information, go to System Logs tab
(15:46:31) An Error occured! For more information, go to System Logs tab
(15:47:26) An Error occured! For more information, go to System Logs tab
(15:48:21) An Error occured! For more information, go to System Logs tab
(15:49:16) An Error occured! For more information, go to System Logs tab
(15:50:11) An Error occured! For more information, go to System Logs tab
(15:51:06) An Error occured! For more information, go to System Logs tab
(15:52:01) An Error occured! For more information, go to System Logs tab
(15:52:56) An Error occured! For more information, go to System Logs tab
(15:53:51) An Error occured! For more information, go to System Logs tab
(15:54:46) An Error occured! For more information, go to System Logs tab
(15:55:41) An Error occured! For more information, go to System Logs tab
(15:56:37) An Error occured! For more information, go to System Logs tab
(15:57:31) An Error occured! For more information, go to System Logs tab
(15:58:26) An Error occured! For more information, go to System Logs tab
(15:59:21) An Error occured! For more information, go to System Logs tab
(16:00:16) An Error occured! For more information, go to System Logs tab
(16:01:11) An Error occured! For more information, go to System Logs tab
(16:02:06) An Error occured! For more information, go to System Logs tab
(16:03:01) An Error occured! For more information, go to System Logs tab
(16:03:56) An Error occured! For more information, go to System Logs tab
(16:04:51) An Error occured! For more information, go to System Logs tab
(16:05:46) An Error occured! For more information, go to System Logs tab
(16:06:41) An Error occured! For more information, go to System Logs tab
(16:07:36) An Error occured! For more information, go to System Logs tab
(16:08:31) An Error occured! For more information, go to System Logs tab
(16:09:26) An Error occured! For more information, go to System Logs tab
(16:09:49) Shutting down...
(16:09:49) Process Terminated
(16:10:24) Properties loaded, and saved!
(16:10:24) You should enable "check-update" in server.properties
(16:10:25) Level initialized
(16:10:25) Level "main" loaded.
(16:10:25) flat
(16:10:25) Creating listening socket on port 31415...
(16:10:25) Done.
(16:11:02) An Error occured! For more information, go to System Logs tab
(16:11:19) Shutting down...
(16:11:19) Process Terminated
(16:11:32) Properties loaded, and saved!
(16:11:32) You should enable "check-update" in server.properties
(16:11:32) Level initialized
(16:11:32) Level "main" loaded.
(16:11:32) flat
(16:11:32) Creating listening socket on port 31415...
(16:11:32) Done.
(16:12:07) An Error occured! For more information, go to System Logs tab
(16:12:30) An Error occured! For more information, go to System Logs tab
(16:13:11) Shutting down...
(16:13:11) Process Terminated
(16:15:03) Properties loaded, and saved!
(16:15:03) You should enable "check-update" in server.properties
(16:15:03) Level initialized
(16:15:03) Level "main" loaded.
(16:15:03) flat
(16:15:03) Creating listening socket on port 31415...
(16:15:03) Done.
(16:15:07) An Error occured! For more information, go to System Logs tab
(16:15:22) 127.0.0.1 logging in as quaisaq.
(16:15:23) MJS --> Event PlayerJoin was triggered with parameters: player $player quaisaq
(16:15:24) Level initialized
(16:15:25) SAVED: Level "quaisaq". 0/1/20
(16:15:25) And backed up
(16:16:29) quaisaq uses /place 
(16:16:29) quaisaq uses /place 
(16:16:32) An Error occured! For more information, go to System Logs tab
(16:16:47) quaisaq uses /cuboid brick
(16:16:57) An Error occured! For more information, go to System Logs tab
(16:17:55) SAVED: Level "main". 1/1/20
(16:17:55) And backed up
(16:17:55) Backup 1192 saved for main
(16:17:58) An Error occured! For more information, go to System Logs tab
(16:18:22) quaisaq uses /place 
(16:18:26) quaisaq uses /place 
(16:18:28) quaisaq uses /place 
(16:18:29) quaisaq uses /cuboid 
(16:19:47) An Error occured! For more information, go to System Logs tab
(16:19:47) An Error occured! For more information, go to System Logs tab
(16:19:50) An Error occured! For more information, go to System Logs tab
(16:20:04) SAVED: Level "main". 1/1/20
(16:20:04) And backed up
(16:20:37) An Error occured! For more information, go to System Logs tab
(16:21:32) An Error occured! For more information, go to System Logs tab
(16:22:32) An Error occured! For more information, go to System Logs tab
(16:22:40) quaisaq uses /save 
(16:22:40) SAVED: Level "main". 1/1/20
(16:22:40) And backed up
(16:22:42) Shutting down...
(16:22:42) quaisaq disconnected.
(16:22:42) Process Terminated
(16:22:47) Properties loaded, and saved!
(16:22:47) You should enable "check-update" in server.properties
(16:22:47) Level initialized
(16:22:47) Level "main" loaded.
(16:22:47) flat
(16:22:47) Creating listening socket on port 31415...
(16:22:47) Done.
(16:22:51) An Error occured! For more information, go to System Logs tab
(16:23:01) 127.0.0.1 logging in as quaisaq.
(16:23:01) MJS --> Event PlayerJoin was triggered with parameters: player $player quaisaq
(16:23:02) Level initialized
(16:23:03) SAVED: Level "quaisaq". 0/1/20
(16:23:03) And backed up
(16:23:34) Shutting down...
(16:23:34) quaisaq disconnected.
(16:23:34) Process Terminated
(16:25:01) Properties loaded, and saved!
(16:25:01) You should enable "check-update" in server.properties
(16:25:02) Level initialized
(16:25:02) Level "main" loaded.
(16:25:02) flat
(16:25:02) Creating listening socket on port 31415...
(16:25:02) Done.
(16:25:06) An Error occured! For more information, go to System Logs tab
(16:25:07) 127.0.0.1 logging in as quaisaq.
(16:25:07) MJS --> Event PlayerJoin was triggered with parameters: player $player quaisaq
(16:25:08) Level initialized
(16:25:09) SAVED: Level "quaisaq". 0/1/20
(16:25:09) And backed up
(16:26:00) An Error occured! For more information, go to System Logs tab
(16:26:15) quaisaq disconnected.
(16:26:18) Shutting down...
(16:26:18) Process Terminated
(16:26:21) Properties loaded, and saved!
(16:26:21) You should enable "check-update" in server.properties
(16:26:21) Level initialized
(16:26:21) Level "main" loaded.
(16:26:21) flat
(16:26:21) Creating listening socket on port 31415...
(16:26:21) Done.
(16:26:25) An Error occured! For more information, go to System Logs tab
(16:26:32) 127.0.0.1 logging in as quaisaq.
(16:26:32) MJS --> Event PlayerJoin was triggered with parameters: player $player quaisaq
(16:26:33) Level initialized
(16:26:34) SAVED: Level "quaisaq". 0/1/20
(16:26:34) And backed up
(16:27:19) An Error occured! For more information, go to System Logs tab
(16:28:14) An Error occured! For more information, go to System Logs tab
(16:28:22) Shutting down...
(16:28:22) quaisaq disconnected.
(16:28:22) Process Terminated
(16:28:42) Properties loaded, and saved!
(16:28:42) You should enable "check-update" in server.properties
(16:28:42) Level initialized
(16:28:43) Level "main" loaded.
(16:28:43) flat
(16:28:43) Creating listening socket on port 31415...
(16:28:43) Done.
(16:28:47) An Error occured! For more information, go to System Logs tab
(16:29:41) An Error occured! For more information, go to System Logs tab
(16:29:45) Shutting down...
(16:29:45) Process Terminated
(16:29:48) Properties loaded, and saved!
(16:29:48) You should enable "check-update" in server.properties
(16:29:48) Level initialized
(16:29:48) Level "main" loaded.
(16:29:48) flat
(16:29:48) Creating listening socket on port 31415...
(16:29:48) Done.
(16:29:52) An Error occured! For more information, go to System Logs tab
(16:30:10) Shutting down...
(16:30:10) Process Terminated
(16:30:13) Properties loaded, and saved!
(16:30:13) You should enable "check-update" in server.properties
(16:30:13) Level initialized
(16:30:13) Level "main" loaded.
(16:30:13) flat
(16:30:13) Creating listening socket on port 31415...
(16:30:13) Done.
(16:31:00) Shutting down...
(16:31:00) Process Terminated
(16:31:02) Properties loaded, and saved!
(16:31:02) You should enable "check-update" in server.properties
(16:31:03) Level initialized
(16:31:03) Level "main" loaded.
(16:31:03) flat
(16:31:03) Creating listening socket on port 31415...
(16:31:03) Done.
(16:31:07) An Error occured! For more information, go to System Logs tab
(16:31:21) Shutting down...
(16:31:21) Process Terminated
(16:31:23) Properties loaded, and saved!
(16:31:23) You should enable "check-update" in server.properties
(16:31:23) Level initialized
(16:31:24) Level "main" loaded.
(16:31:24) flat
(16:31:24) Creating listening socket on port 31415...
(16:31:24) Done.
(16:31:29) An Error occured! For more information, go to System Logs tab
(16:32:06) Level initialized
(16:32:09) Level "elliptest" loaded.
(16:32:09) flat
(16:32:22) An Error occured! For more information, go to System Logs tab
(16:34:48) An Error occured! For more information, go to System Logs tab
(16:34:48) An Error occured! For more information, go to System Logs tab
(16:34:50) An Error occured! For more information, go to System Logs tab
(16:35:08) An Error occured! For more information, go to System Logs tab
(16:36:02) An Error occured! For more information, go to System Logs tab
(16:36:57) An Error occured! For more information, go to System Logs tab
(16:37:52) An Error occured! For more information, go to System Logs tab
(16:38:47) An Error occured! For more information, go to System Logs tab
(16:39:42) An Error occured! For more information, go to System Logs tab
(16:40:19) Properties loaded, and saved!
(16:40:19) You should enable "check-update" in server.properties
(16:40:20) Level initialized
(16:40:20) Level "main" loaded.
(16:40:20) flat
(16:40:20) Creating listening socket on port 31415...
(16:40:20) Done.
(16:40:24) An Error occured! For more information, go to System Logs tab
(16:41:18) An Error occured! For more information, go to System Logs tab
(16:42:12) Shutting down...
(16:42:12) Process Terminated
(16:42:14) Properties loaded, and saved!
(16:42:14) You should enable "check-update" in server.properties
(16:42:15) Level initialized
(16:42:15) Level "main" loaded.
(16:42:15) flat
(16:42:15) Creating listening socket on port 31415...
(16:42:15) Done.
(16:42:19) An Error occured! For more information, go to System Logs tab
(16:42:37) Shutting down...
(16:42:37) Process Terminated
(16:42:42) Properties loaded, and saved!
(16:42:42) You should enable "check-update" in server.properties
(16:42:43) Level initialized
(16:42:43) Level "main" loaded.
(16:42:43) flat
(16:42:43) Creating listening socket on port 31415...
(16:42:43) Done.
(16:42:47) An Error occured! For more information, go to System Logs tab
(16:43:01) Shutting down...
(16:43:01) Process Terminated
(16:43:04) Properties loaded, and saved!
(16:43:04) You should enable "check-update" in server.properties
(16:43:04) Level initialized
(16:43:04) Level "main" loaded.
(16:43:04) flat
(16:43:04) Creating listening socket on port 31415...
(16:43:04) Done.
(16:43:08) An Error occured! For more information, go to System Logs tab
(16:44:03) An Error occured! For more information, go to System Logs tab
(16:44:09) Shutting down...
(16:44:09) Process Terminated
(16:44:12) Properties loaded, and saved!
(16:44:12) You should enable "check-update" in server.properties
(16:44:12) Level initialized
(16:44:12) Level "main" loaded.
(16:44:12) flat
(16:44:12) Creating listening socket on port 31415...
(16:44:12) Done.
(16:44:17) An Error occured! For more information, go to System Logs tab
(16:45:11) An Error occured! For more information, go to System Logs tab
(16:46:06) An Error occured! For more information, go to System Logs tab
(16:47:01) An Error occured! For more information, go to System Logs tab
(16:47:56) An Error occured! For more information, go to System Logs tab
(16:48:13) Shutting down...
(16:48:13) Process Terminated
(16:48:15) Properties loaded, and saved!
(16:48:15) You should enable "check-update" in server.properties
(16:48:16) Level initialized
(16:48:16) Level "main" loaded.
(16:48:16) flat
(16:48:16) Creating listening socket on port 31415...
(16:48:16) Done.
(16:48:20) An Error occured! For more information, go to System Logs tab
(16:49:14) An Error occured! For more information, go to System Logs tab
(16:50:09) An Error occured! For more information, go to System Logs tab
(16:51:04) An Error occured! For more information, go to System Logs tab
(16:51:59) An Error occured! For more information, go to System Logs tab
(16:52:54) An Error occured! For more information, go to System Logs tab
(16:53:49) An Error occured! For more information, go to System Logs tab
(16:54:44) An Error occured! For more information, go to System Logs tab
(16:55:39) An Error occured! For more information, go to System Logs tab
(16:56:34) An Error occured! For more information, go to System Logs tab
(16:57:29) An Error occured! For more information, go to System Logs tab
(16:58:27) An Error occured! For more information, go to System Logs tab
(16:59:19) An Error occured! For more information, go to System Logs tab
(17:00:14) An Error occured! For more information, go to System Logs tab
(17:01:09) An Error occured! For more information, go to System Logs tab
(17:01:45) Shutting down...
(17:01:45) Process Terminated
(17:01:48) Properties loaded, and saved!
(17:01:48) You should enable "check-update" in server.properties
(17:01:49) Level initialized
(17:01:49) Level "main" loaded.
(17:01:49) flat
(17:01:49) Creating listening socket on port 31415...
(17:01:49) Done.
(17:01:53) An Error occured! For more information, go to System Logs tab
(17:03:08) An Error occured! For more information, go to System Logs tab
(17:03:22) Shutting down...
(17:03:22) Process Terminated
(17:03:24) Properties loaded, and saved!
(17:03:24) You should enable "check-update" in server.properties
(17:03:24) Level initialized
(17:03:24) Level "main" loaded.
(17:03:24) flat
(17:03:24) Creating listening socket on port 31415...
(17:03:24) Done.
(17:03:49) An Error occured! For more information, go to System Logs tab
(17:04:26) An Error occured! For more information, go to System Logs tab
(17:05:27) An Error occured! For more information, go to System Logs tab
(17:05:44) Shutting down...
(17:05:44) Process Terminated
(17:05:46) Properties loaded, and saved!
(17:05:46) You should enable "check-update" in server.properties
(17:05:46) Level initialized
(17:05:46) Level "main" loaded.
(17:05:46) flat
(17:05:47) Creating listening socket on port 31415...
(17:05:47) Done.
(17:05:51) An Error occured! For more information, go to System Logs tab
(17:06:41) Shutting down...
(17:06:41) Process Terminated
(17:06:44) Properties loaded, and saved!
(17:06:44) You should enable "check-update" in server.properties
(17:06:44) Level initialized
(17:06:44) Level "main" loaded.
(17:06:44) flat
(17:06:44) Creating listening socket on port 31415...
(17:06:44) Done.
(17:06:48) An Error occured! For more information, go to System Logs tab
(17:07:42) An Error occured! For more information, go to System Logs tab
(17:08:37) An Error occured! For more information, go to System Logs tab
(17:09:32) An Error occured! For more information, go to System Logs tab
(17:10:27) An Error occured! For more information, go to System Logs tab
(17:11:18) Shutting down...
(17:11:18) Process Terminated
(17:11:20) Properties loaded, and saved!
(17:11:20) You should enable "check-update" in server.properties
(17:11:21) Level initialized
(17:11:21) Level "main" loaded.
(17:11:21) flat
(17:11:21) Creating listening socket on port 31415...
(17:11:21) Done.
(17:11:25) An Error occured! For more information, go to System Logs tab
(17:12:19) An Error occured! For more information, go to System Logs tab
(17:13:14) An Error occured! For more information, go to System Logs tab
(17:13:15) Shutting down...
(17:13:15) Process Terminated
(17:13:17) Properties loaded, and saved!
(17:13:17) You should enable "check-update" in server.properties
(17:13:17) Level initialized
(17:13:17) Level "main" loaded.
(17:13:17) flat
(17:13:17) Creating listening socket on port 31415...
(17:13:17) Done.
(17:13:21) An Error occured! For more information, go to System Logs tab
(17:14:16) An Error occured! For more information, go to System Logs tab
(17:14:38) Shutting down...
(17:14:38) Process Terminated
(17:14:40) Properties loaded, and saved!
(17:14:40) You should enable "check-update" in server.properties
(17:14:40) Level initialized
(17:14:40) Level "main" loaded.
(17:14:40) flat
(17:14:40) Creating listening socket on port 31415...
(17:14:40) Done.
(17:14:44) An Error occured! For more information, go to System Logs tab
(17:15:39) An Error occured! For more information, go to System Logs tab
(17:16:34) An Error occured! For more information, go to System Logs tab
(17:17:29) An Error occured! For more information, go to System Logs tab
(17:17:45) Shutting down...
(17:17:45) Process Terminated
(17:17:46) Properties loaded, and saved!
(17:17:46) You should enable "check-update" in server.properties
(17:17:47) Level initialized
(17:17:47) Level "main" loaded.
(17:17:47) flat
(17:17:47) Creating listening socket on port 31415...
(17:17:47) Done.
(17:17:51) An Error occured! For more information, go to System Logs tab
(17:18:45) An Error occured! For more information, go to System Logs tab
(17:18:57) Shutting down...
(17:18:57) Process Terminated
(17:19:00) Properties loaded, and saved!
(17:19:00) You should enable "check-update" in server.properties
(17:19:00) Level initialized
(17:19:00) Level "main" loaded.
(17:19:00) flat
(17:19:00) Creating listening socket on port 31415...
(17:19:01) Done.
(17:19:04) An Error occured! For more information, go to System Logs tab
(17:19:59) An Error occured! For more information, go to System Logs tab
(17:20:54) An Error occured! For more information, go to System Logs tab
(17:21:49) An Error occured! For more information, go to System Logs tab
(17:22:44) An Error occured! For more information, go to System Logs tab
(17:23:18) Shutting down...
(17:23:18) Process Terminated
(17:23:20) Properties loaded, and saved!
(17:23:20) You should enable "check-update" in server.properties
(17:23:20) Level initialized
(17:23:20) Level "main" loaded.
(17:23:20) flat
(17:23:20) Creating listening socket on port 31415...
(17:23:20) Done.
(17:23:25) An Error occured! For more information, go to System Logs tab
(17:24:19) An Error occured! For more information, go to System Logs tab
(17:25:14) An Error occured! For more information, go to System Logs tab
(17:26:09) An Error occured! For more information, go to System Logs tab
(17:26:12) Shutting down...
(17:26:12) Process Terminated
(17:26:14) Properties loaded, and saved!
(17:26:14) You should enable "check-update" in server.properties
(17:26:15) Level initialized
(17:26:15) Level "main" loaded.
(17:26:15) flat
(17:26:15) Creating listening socket on port 31415...
(17:26:15) Done.
(17:26:19) An Error occured! For more information, go to System Logs tab
(17:26:33) Shutting down...
(17:26:33) Process Terminated
(17:32:16) Properties loaded, and saved!
(17:32:16) You should enable "check-update" in server.properties
(17:32:16) Level initialized
(17:32:16) Level "main" loaded.
(17:32:16) flat
(17:32:17) Creating listening socket on port 31415...
(17:32:17) Done.
(17:32:21) An Error occured! For more information, go to System Logs tab
(17:32:37) An Error occured! For more information, go to System Logs tab
(17:32:37) An Error occured! For more information, go to System Logs tab
(17:33:03) Shutting down...
(17:33:03) Process Terminated
