(10:15:39) Properties loaded, and saved!
(10:15:39) You should enable "check-update" in server.properties
(10:15:41) Level initialized
(10:15:41) Level "main" loaded.
(10:15:41) flat
(10:15:42) Creating listening socket on port 31415...
(10:15:43) An Error occured! For more information, go to System Logs tab
(10:15:43) An Error occured! For more information, go to System Logs tab
(10:15:44) An Error occured! For more information, go to System Logs tab
(10:15:44) An Error occured! For more information, go to System Logs tab
(10:15:46) Properties loaded, and saved!
(10:15:46) You should enable "check-update" in server.properties
(10:15:46) Level initialized
(10:15:47) Level "main" loaded.
(10:15:47) flat
(10:15:47) Creating listening socket on port 31415...
(10:15:47) An Error occured! For more information, go to System Logs tab
(10:15:47) Could not create socket connection.  Shutting down.
(10:15:48) Server was not able to recieve the URL
(10:15:55) Shutting down...
(10:15:55) Process Terminated
(10:19:38) Properties loaded, and saved!
(10:19:38) You should enable "check-update" in server.properties
(10:19:39) Level initialized
(10:19:39) Level "main" loaded.
(10:19:39) flat
(10:19:39) Creating listening socket on port 31415...
(10:19:39) An Error occured! For more information, go to System Logs tab
(10:19:39) Could not create socket connection.  Shutting down.
(10:19:40) Server was not able to recieve the URL
(10:19:44) Shutting down...
(10:19:44) Process Terminated
(10:27:58) Properties loaded, and saved!
(10:27:58) You should enable "check-update" in server.properties
(10:27:59) Level initialized
(10:27:59) Level "main" loaded.
(10:27:59) flat
(10:27:59) Creating listening socket on port 31415...
(10:27:59) An Error occured! For more information, go to System Logs tab
(10:27:59) Could not create socket connection.  Shutting down.
(10:27:59) https://minecraft.net/heartbeat.jsp?port=31415&max=20&name=%5BMCQuai%5D%20Testing%20Server&public=True&version=7&salt=db9ssxtRBR2ukMJr
(10:28:00) http://direct.worldofminecraft.com/hb.php?port=31415&max=20&name=%5BMCQuai%5D%20Testing%20Server&public=True&version=7&salt=A4SYuVMk0Yy8n4Sw
(10:28:00) Server was not able to recieve the URL
(10:28:00) http://mcrevive.net/hb/port=31415&max=20&name=%5BMCQuai%5D%20Testing%20Server&public=True&version=7&salt=A4SYuVMk0Yy8n4Sw
(10:28:02) Shutting down...
(10:28:02) Process Terminated
(10:50:18) Properties loaded, and saved!
(10:50:18) You should enable "check-update" in server.properties
(10:50:19) Level initialized
(10:50:19) Level "main" loaded.
(10:50:19) flat
(10:50:19) Creating listening socket on port 31415...
(10:50:19) An Error occured! For more information, go to System Logs tab
(10:50:19) Could not create socket connection.  Shutting down.
(10:50:20) e92f7381e4488f541da1162a5f7cc078
(10:50:20) Server was not able to recieve the URL
(10:50:25) Shutting down...
(10:50:25) Process Terminated
(10:51:37) Properties loaded, and saved!
(10:51:37) You should enable "check-update" in server.properties
(10:51:38) Level initialized
(10:51:38) Level "main" loaded.
(10:51:38) flat
(10:51:38) Creating listening socket on port 31415...
(10:51:38) An Error occured! For more information, go to System Logs tab
(10:51:38) Could not create socket connection.  Shutting down.
(10:51:39) e92f7381e4488f541da1162a5f7cc078
(10:51:39) Server was not able to recieve the URL
(10:51:44) Shutting down...
(10:51:44) Process Terminated
(10:55:36) Properties loaded, and saved!
(10:55:40) You should enable "check-update" in server.properties
(16:52:19) Properties loaded, and saved!
(16:52:19) You should enable "check-update" in server.properties
(16:52:20) Level initialized
(16:52:20) Level "main" loaded.
(16:52:20) flat
(16:52:20) Creating listening socket on port 31415...
(16:52:20) Done.
(16:52:21) c82a33aa5f8d8173bb17d846f6471984
(16:52:21) Server was not able to recieve the URL
(16:52:35) Shutting down...
(16:52:35) Process Terminated
(16:52:56) Properties loaded, and saved!
(16:52:56) You should enable "check-update" in server.properties
(16:52:57) Level initialized
(16:52:57) Level "main" loaded.
(16:52:57) flat
(16:52:57) Creating listening socket on port 31415...
(16:52:57) Done.
(16:52:58) c82a33aa5f8d8173bb17d846f6471984
(16:52:58) Server was not able to recieve the URL
(16:53:03) Shutting down...
(16:53:03) Process Terminated
(16:54:35) Properties loaded, and saved!
(16:54:59) You should enable "check-update" in server.properties
(16:55:47) Level initialized
(16:56:21) Level "main" loaded.
(16:56:21) flat
(16:56:34) Creating listening socket on port 31415...
(16:56:40) Done.
(16:58:08) c82a33aa5f8d8173bb17d846f6471984
(16:58:24) Server was not able to recieve the URL
(16:58:56) c82a33aa5f8d8173bb17d846f6471984
(16:58:57) Server was not able to recieve the URL
(16:59:46) c82a33aa5f8d8173bb17d846f6471984
(16:59:46) Server was not able to recieve the URL
(17:00:40) c82a33aa5f8d8173bb17d846f6471984
(17:00:41) Server was not able to recieve the URL
(17:01:41) c82a33aa5f8d8173bb17d846f6471984
(17:01:46) Server was not able to recieve the URL
(17:04:01) c82a33aa5f8d8173bb17d846f6471984
(17:04:01) Server was not able to recieve the URL
(17:04:42) Properties loaded, and saved!
(17:04:42) You should enable "check-update" in server.properties
(17:04:43) Level initialized
(17:04:43) Level "main" loaded.
(17:04:43) flat
(17:04:43) Creating listening socket on port 31415...
(17:04:43) Done.
(17:04:44) c82a33aa5f8d8173bb17d846f6471984
(17:04:44) Server was not able to recieve the URL
(17:04:59) Shutting down...
(17:04:59) Process Terminated
(17:05:45) Properties loaded, and saved!
(17:05:45) You should enable "check-update" in server.properties
(17:05:46) Level initialized
(17:05:46) Level "main" loaded.
(17:05:46) flat
(17:05:46) Creating listening socket on port 31415...
(17:05:46) Done.
(17:05:47) c82a33aa5f8d8173bb17d846f6471984
(17:05:47) Server was not able to recieve the URL
(17:06:01) Shutting down...
(17:06:01) Process Terminated
(17:06:41) Properties loaded, and saved!
(17:06:41) You should enable "check-update" in server.properties
(17:06:42) Level initialized
(17:06:42) Level "main" loaded.
(17:06:42) flat
(17:06:42) Creating listening socket on port 31415...
(17:06:42) Done.
(17:06:43) Server was not able to recieve the URL
(17:06:58) Shutting down...
(17:06:58) Process Terminated
(17:07:41) Properties loaded, and saved!
(17:07:41) You should enable "check-update" in server.properties
(17:07:41) Level initialized
(17:07:42) Level "main" loaded.
(17:07:42) flat
(17:07:42) Creating listening socket on port 31415...
(17:07:42) Done.
(17:07:43) Server was not able to recieve the URL - WOM
(17:08:37) Server was not able to recieve the URL - WOM
(17:09:02) SAVED: owners.txt
(17:09:02) SAVED: admins.txt
(17:09:33) Server was not able to recieve the URL - WOM
(17:09:34) SAVED: owners.txt
(17:09:34) SAVED: admins.txt
(17:09:39) SAVED: admins.txt
(17:09:43) SAVED: admins.txt
(17:10:27) Server was not able to recieve the URL - WOM
(17:11:22) Server was not able to recieve the URL - WOM
(17:11:47) Shutting down...
(17:11:47) Process Terminated
