(16:05:04) Properties loaded, and saved!
(16:05:04) You should enable "check-update" in server.properties
(16:05:04) Level initialized
(16:05:04) Level "main" loaded.
(16:05:04) empty
(16:05:05) Creating listening socket on port 25565...
(16:05:05) Done.
(16:05:05) Shutting down...
(16:05:05) Process Terminated
(17:48:52) Properties loaded, and saved!
(17:48:52) You should enable "check-update" in server.properties
(17:48:52) Level initialized
(17:48:52) Level "main" loaded.
(17:48:52) empty
(17:48:52) Creating listening socket on port 25565...
(17:48:52) Done.
(17:48:54) Connecting to IRC
(17:48:54) Connected to IRC
(17:48:55) Joining channel
(17:48:55) Shutting down...
(17:48:55) Process Terminated
