(02:39:07) Properties loaded, and saved!
(02:39:07) You should enable "check-update" in server.properties
(02:39:08) Level initialized
(02:39:08) Level "main" loaded.
(02:39:08) flat
(02:39:08) Creating listening socket on port 31415...
(02:39:08) Done.
(02:39:10) An Error occured! For more information, go to System Logs tab
(02:39:11) An Error occured! For more information, go to System Logs tab
(02:39:11) An Error occured! For more information, go to System Logs tab
(02:39:24) An Error occured! For more information, go to System Logs tab
(02:40:06) An Error occured! For more information, go to System Logs tab
(02:41:01) An Error occured! For more information, go to System Logs tab
(02:41:56) An Error occured! For more information, go to System Logs tab
(02:42:06) Shutting down...
(02:42:06) Process Terminated
(02:42:12) Properties loaded, and saved!
(02:42:12) You should enable "check-update" in server.properties
(02:42:13) Level initialized
(02:42:13) Level "main" loaded.
(02:42:13) flat
(02:42:13) Creating listening socket on port 31415...
(02:42:13) Done.
(02:42:16) An Error occured! For more information, go to System Logs tab
(02:43:11) An Error occured! For more information, go to System Logs tab
(02:44:06) An Error occured! For more information, go to System Logs tab
(02:44:14) Shutting down...
(02:44:14) Process Terminated
(02:44:17) Properties loaded, and saved!
(02:44:17) You should enable "check-update" in server.properties
(02:44:17) Level initialized
(02:44:17) Level "main" loaded.
(02:44:17) flat
(02:44:17) Creating listening socket on port 31415...
(02:44:17) Done.
(02:44:20) An Error occured! For more information, go to System Logs tab
(02:44:21) An Error occured! For more information, go to System Logs tab
(02:44:21) An Error occured! For more information, go to System Logs tab
(02:44:26) Shutting down...
(02:44:26) Process Terminated
(02:44:49) Properties loaded, and saved!
(02:44:49) You should enable "check-update" in server.properties
(02:44:50) Level initialized
(02:44:50) Level "main" loaded.
(02:44:50) flat
(02:44:50) Creating listening socket on port 31415...
(02:44:50) Done.
(02:44:53) An Error occured! For more information, go to System Logs tab
(02:44:53) An Error occured! For more information, go to System Logs tab
(02:44:53) An Error occured! For more information, go to System Logs tab
(02:44:55) Shutting down...
(02:44:55) Process Terminated
(02:47:30) Properties loaded, and saved!
(02:47:30) You should enable "check-update" in server.properties
(02:47:30) Level initialized
(02:47:30) Level "main" loaded.
(02:47:30) flat
(02:47:30) Creating listening socket on port 31415...
(02:47:30) Done.
(02:47:34) An Error occured! For more information, go to System Logs tab
(02:47:34) An Error occured! For more information, go to System Logs tab
(02:47:34) An Error occured! For more information, go to System Logs tab
(02:47:35) Shutting down...
(02:47:35) Process Terminated
(02:48:20) Properties loaded, and saved!
(02:48:20) You should enable "check-update" in server.properties
(02:48:21) Level initialized
(02:48:21) Level "main" loaded.
(02:48:21) flat
(02:48:21) Creating listening socket on port 31415...
(02:48:21) Done.
(02:48:24) An Error occured! For more information, go to System Logs tab
(02:48:26) An Error occured! For more information, go to System Logs tab
(02:48:26) An Error occured! For more information, go to System Logs tab
(02:48:27) Shutting down...
(02:48:27) Process Terminated
(02:49:21) Properties loaded, and saved!
(02:49:21) You should enable "check-update" in server.properties
(02:49:21) Level initialized
(02:49:21) Level "main" loaded.
(02:49:21) flat
(02:49:22) Creating listening socket on port 31415...
(02:49:22) Done.
(02:49:24) An Error occured! For more information, go to System Logs tab
(02:49:25) An Error occured! For more information, go to System Logs tab
(02:49:25) An Error occured! For more information, go to System Logs tab
(02:49:27) Shutting down...
(02:49:27) Process Terminated
(02:50:09) Properties loaded, and saved!
(02:50:09) You should enable "check-update" in server.properties
(02:50:09) Level initialized
(02:50:09) Level "main" loaded.
(02:50:09) flat
(02:50:09) Creating listening socket on port 31415...
(02:50:09) Done.
(02:50:12) An Error occured! For more information, go to System Logs tab
(02:50:12) An Error occured! For more information, go to System Logs tab
(02:50:13) An Error occured! For more information, go to System Logs tab
(02:50:25) Shutting down...
(02:50:25) Process Terminated
(02:50:29) Properties loaded, and saved!
(02:50:29) You should enable "check-update" in server.properties
(02:50:29) Level initialized
(02:50:29) Level "main" loaded.
(02:50:29) flat
(02:50:29) Creating listening socket on port 31415...
(02:50:29) Done.
(02:50:33) An Error occured! For more information, go to System Logs tab
(02:50:33) An Error occured! For more information, go to System Logs tab
(02:50:33) An Error occured! For more information, go to System Logs tab
(02:51:01) An Error occured! For more information, go to System Logs tab
(02:51:27) An Error occured! For more information, go to System Logs tab
(02:51:54) Shutting down...
(02:51:54) Process Terminated
(02:52:45) Properties loaded, and saved!
(02:52:45) You should enable "check-update" in server.properties
(02:52:46) Level initialized
(02:52:46) Level "main" loaded.
(02:52:46) flat
(02:52:46) Creating listening socket on port 31415...
(02:52:46) Done.
(02:52:49) An Error occured! For more information, go to System Logs tab
(02:52:56) An Error occured! For more information, go to System Logs tab
(02:52:56) An Error occured! For more information, go to System Logs tab
(02:53:41) Shutting down...
(02:53:41) Process Terminated
(02:53:44) Properties loaded, and saved!
(02:53:44) You should enable "check-update" in server.properties
(02:53:45) Level initialized
(02:53:45) Level "main" loaded.
(02:53:45) flat
(02:53:45) Creating listening socket on port 31415...
(02:53:45) Done.
(02:53:48) An Error occured! For more information, go to System Logs tab
(02:53:51) An Error occured! For more information, go to System Logs tab
(02:53:51) An Error occured! For more information, go to System Logs tab
(02:54:01) Properties loaded, and saved!
(02:54:01) You should enable "check-update" in server.properties
(02:54:02) Level initialized
(02:54:02) Level "main" loaded.
(02:54:02) flat
(02:54:02) Creating listening socket on port 31415...
(02:54:02) Done.
(02:54:05) An Error occured! For more information, go to System Logs tab
(02:55:00) An Error occured! For more information, go to System Logs tab
(02:55:39) Shutting down...
(02:55:39) Process Terminated
(02:55:43) Properties loaded, and saved!
(02:55:43) You should enable "check-update" in server.properties
(02:55:43) Level initialized
(02:55:43) Level "main" loaded.
(02:55:43) flat
(02:55:43) Creating listening socket on port 31415...
(02:55:43) Done.
(02:55:47) An Error occured! For more information, go to System Logs tab
(02:55:48) An Error occured! For more information, go to System Logs tab
(02:55:48) An Error occured! For more information, go to System Logs tab
(02:56:41) An Error occured! For more information, go to System Logs tab
(02:57:36) An Error occured! For more information, go to System Logs tab
(02:58:04) Properties loaded, and saved!
(02:58:04) You should enable "check-update" in server.properties
(02:58:05) Level initialized
(02:58:05) Level "main" loaded.
(02:58:05) flat
(02:58:05) Creating listening socket on port 31415...
(02:58:05) Done.
(02:58:08) An Error occured! For more information, go to System Logs tab
(02:58:28) Shutting down...
(02:58:28) Process Terminated
(02:58:30) Properties loaded, and saved!
(02:58:30) You should enable "check-update" in server.properties
(02:58:30) Level initialized
(02:58:30) Level "main" loaded.
(02:58:30) flat
(02:58:30) Creating listening socket on port 31415...
(02:58:30) Done.
(02:58:34) An Error occured! For more information, go to System Logs tab
(02:59:28) An Error occured! For more information, go to System Logs tab
(03:00:23) An Error occured! For more information, go to System Logs tab
(03:00:34) Shutting down...
(03:00:34) Process Terminated
(03:00:37) Properties loaded, and saved!
(03:00:37) You should enable "check-update" in server.properties
(03:00:37) Level initialized
(03:00:37) Level "main" loaded.
(03:00:37) flat
(03:00:37) Creating listening socket on port 31415...
(03:00:37) Done.
(03:00:39) Shutting down...
(03:00:39) Process Terminated
(03:01:14) Properties loaded, and saved!
(03:01:14) You should enable "check-update" in server.properties
(03:01:14) Level initialized
(03:01:14) Level "main" loaded.
(03:01:14) flat
(03:01:14) Creating listening socket on port 31415...
(03:01:14) Done.
(03:01:18) An Error occured! For more information, go to System Logs tab
(03:02:12) An Error occured! For more information, go to System Logs tab
(03:03:07) An Error occured! For more information, go to System Logs tab
(03:04:05) An Error occured! For more information, go to System Logs tab
(03:04:35) Shutting down...
(03:04:35) Process Terminated
(03:04:50) Properties loaded, and saved!
(03:04:50) You should enable "check-update" in server.properties
(03:04:51) Level initialized
(03:04:51) Level "main" loaded.
(03:04:51) flat
(03:04:51) Creating listening socket on port 31415...
(03:04:51) Done.
(03:04:54) An Error occured! For more information, go to System Logs tab
(03:05:49) An Error occured! For more information, go to System Logs tab
(03:06:44) An Error occured! For more information, go to System Logs tab
(03:07:42) An Error occured! For more information, go to System Logs tab
(03:08:34) An Error occured! For more information, go to System Logs tab
(03:09:00) Shutting down...
(03:09:00) Process Terminated
(03:09:01) Properties loaded, and saved!
(03:09:01) You should enable "check-update" in server.properties
(03:09:01) Level initialized
(03:09:01) Level "main" loaded.
(03:09:01) flat
(03:09:01) Creating listening socket on port 31415...
(03:09:01) Done.
(03:09:05) An Error occured! For more information, go to System Logs tab
(03:09:17) Shutting down...
(03:09:17) Process Terminated
(03:09:46) Properties loaded, and saved!
(03:09:46) You should enable "check-update" in server.properties
(03:09:46) Level initialized
(03:09:46) Level "main" loaded.
(03:09:46) flat
(03:09:46) Creating listening socket on port 31415...
(03:09:46) Done.
(03:09:50) An Error occured! For more information, go to System Logs tab
(03:10:25) Shutting down...
(03:10:25) Process Terminated
(03:10:27) Properties loaded, and saved!
(03:10:27) You should enable "check-update" in server.properties
(03:10:27) Level initialized
(03:10:27) Level "main" loaded.
(03:10:27) flat
(03:10:28) Creating listening socket on port 31415...
(03:10:28) Done.
(03:10:31) An Error occured! For more information, go to System Logs tab
(03:11:25) An Error occured! For more information, go to System Logs tab
(03:11:45) Shutting down...
(03:11:45) Process Terminated
(03:11:47) Properties loaded, and saved!
(03:11:47) You should enable "check-update" in server.properties
(03:11:48) Level initialized
(03:11:48) Level "main" loaded.
(03:11:48) flat
(03:11:48) Creating listening socket on port 31415...
(03:11:48) Done.
(03:11:51) An Error occured! For more information, go to System Logs tab
(03:12:08) Shutting down...
(03:12:08) Process Terminated
(03:12:11) Properties loaded, and saved!
(03:12:11) You should enable "check-update" in server.properties
(03:12:12) Level initialized
(03:12:12) Level "main" loaded.
(03:12:12) flat
(03:12:12) Creating listening socket on port 31415...
(03:12:12) Done.
(03:12:15) An Error occured! For more information, go to System Logs tab
(03:13:10) An Error occured! For more information, go to System Logs tab
(03:14:05) An Error occured! For more information, go to System Logs tab
(03:15:00) An Error occured! For more information, go to System Logs tab
(03:15:55) An Error occured! For more information, go to System Logs tab
(03:16:50) An Error occured! For more information, go to System Logs tab
(03:17:45) An Error occured! For more information, go to System Logs tab
(03:18:39) Shutting down...
(03:18:39) Process Terminated
(03:25:27) Properties loaded, and saved!
(03:25:27) You should enable "check-update" in server.properties
(03:25:27) Level initialized
(03:25:27) Level "main" loaded.
(03:25:27) flat
(03:25:27) Creating listening socket on port 31415...
(03:25:27) Done.
(03:25:31) An Error occured! For more information, go to System Logs tab
(03:26:25) An Error occured! For more information, go to System Logs tab
(03:27:20) An Error occured! For more information, go to System Logs tab
(03:28:15) An Error occured! For more information, go to System Logs tab
(03:28:50) Shutting down...
(03:28:50) Process Terminated
(03:28:51) Properties loaded, and saved!
(03:28:51) You should enable "check-update" in server.properties
(03:28:52) Level initialized
(03:28:52) Level "main" loaded.
(03:28:52) flat
(03:28:52) Creating listening socket on port 31415...
(03:28:52) Done.
(03:28:55) An Error occured! For more information, go to System Logs tab
(03:29:50) An Error occured! For more information, go to System Logs tab
(03:29:52) Shutting down...
(03:29:52) Process Terminated
(03:29:54) Properties loaded, and saved!
(03:29:54) You should enable "check-update" in server.properties
(03:29:54) Level initialized
(03:29:54) Level "main" loaded.
(03:29:54) flat
(03:29:54) Creating listening socket on port 31415...
(03:29:54) Done.
(03:29:58) An Error occured! For more information, go to System Logs tab
(03:30:23) Shutting down...
(03:30:23) Process Terminated
(03:30:24) Properties loaded, and saved!
(03:30:24) You should enable "check-update" in server.properties
(03:30:24) Level initialized
(03:30:24) Level "main" loaded.
(03:30:24) flat
(03:30:24) Creating listening socket on port 31415...
(03:30:24) Done.
(03:30:28) An Error occured! For more information, go to System Logs tab
(03:30:50) Shutting down...
(03:30:50) Process Terminated
(03:30:51) Properties loaded, and saved!
(03:30:51) You should enable "check-update" in server.properties
(03:30:52) Level initialized
(03:30:52) Level "main" loaded.
(03:30:52) flat
(03:30:52) Creating listening socket on port 31415...
(03:30:52) Done.
(03:30:55) An Error occured! For more information, go to System Logs tab
(03:31:13) Shutting down...
(03:31:13) Process Terminated
(03:31:25) Properties loaded, and saved!
(03:31:25) You should enable "check-update" in server.properties
(03:31:25) Level initialized
(03:31:25) Level "main" loaded.
(03:31:25) flat
(03:31:25) Creating listening socket on port 31415...
(03:31:25) Done.
(03:31:29) An Error occured! For more information, go to System Logs tab
(03:31:38) Level initialized
(03:31:38) SAVED: Level "map_Testing". 0/0/20
(03:31:38) And backed up
(03:31:54) Level initialized
(03:31:54) Level "map_testing" loaded.
(03:31:54) island
(03:32:23) An Error occured! For more information, go to System Logs tab
(03:32:44) 127.0.0.1 logging in as quaisaq.
(03:32:45) MJS --> Event PlayerJoin was triggered with parameters: player $player quaisaq
(03:32:46) Level initialized
(03:32:46) SAVED: Level "quaisaq". 0/1/20
(03:32:46) And backed up
(03:32:53) quaisaq uses /goto map_Testing
(03:32:58) quaisaq disconnected.
(03:33:02) 127.0.0.1 logging in as quaisaq.
(03:33:02) MJS --> Event PlayerJoin was triggered with parameters: player $player quaisaq
(03:33:02) Level initialized
(03:33:03) SAVED: Level "quaisaq". 0/1/20
(03:33:03) And backed up
(03:33:16) quaisaq uses /newlvl map_testing2 128 128 128 island
(03:33:16) Attempting map gen
(03:33:16) Irrerations = 256
(03:33:16) Applying average filtering
(03:33:16) Planning trees
(03:33:17) Level initialized
(03:33:17) SAVED: Level "map_testing2". 0/1/20
(03:33:17) And backed up
(03:33:18) An Error occured! For more information, go to System Logs tab
(03:33:21) quaisaq uses /goto map_testing2
(03:33:21) Level initialized
(03:33:21) Level "map_testing2" loaded.
(03:33:21) island
(03:33:53) Shutting down...
(03:33:53) quaisaq disconnected.
(03:33:53) Process Terminated
(03:45:29) Properties loaded, and saved!
(03:45:29) You should enable "check-update" in server.properties
(03:45:29) Level initialized
(03:45:29) Level "main" loaded.
(03:45:29) flat
(03:45:29) Creating listening socket on port 31415...
(03:45:29) Done.
(03:45:33) An Error occured! For more information, go to System Logs tab
(03:46:27) An Error occured! For more information, go to System Logs tab
(03:47:22) An Error occured! For more information, go to System Logs tab
(03:48:17) An Error occured! For more information, go to System Logs tab
(03:49:12) An Error occured! For more information, go to System Logs tab
(03:50:07) An Error occured! For more information, go to System Logs tab
(03:51:02) An Error occured! For more information, go to System Logs tab
(03:51:19) Shutting down...
(03:51:19) Process Terminated
(03:51:20) Properties loaded, and saved!
(03:51:20) You should enable "check-update" in server.properties
(03:51:21) Level initialized
(03:51:21) Level "main" loaded.
(03:51:21) flat
(03:51:21) Creating listening socket on port 31415...
(03:51:21) Done.
(03:51:24) An Error occured! For more information, go to System Logs tab
(03:51:54) Shutting down...
(03:51:54) Process Terminated
(03:51:56) Properties loaded, and saved!
(03:51:56) You should enable "check-update" in server.properties
(03:51:56) Level initialized
(03:51:56) Level "main" loaded.
(03:51:56) flat
(03:51:56) Creating listening socket on port 31415...
(03:51:56) Done.
(03:51:59) An Error occured! For more information, go to System Logs tab
(03:52:10) Shutting down...
(03:52:10) Process Terminated
(03:52:13) Properties loaded, and saved!
(03:52:13) You should enable "check-update" in server.properties
(03:52:14) Level initialized
(03:52:14) Level "main" loaded.
(03:52:14) flat
(03:52:14) Creating listening socket on port 31415...
(03:52:14) Done.
(03:52:17) An Error occured! For more information, go to System Logs tab
(03:52:21) Shutting down...
(03:52:21) Process Terminated
(03:52:36) Properties loaded, and saved!
(03:52:36) You should enable "check-update" in server.properties
(03:52:36) Level initialized
(03:52:36) Level "main" loaded.
(03:52:36) flat
(03:52:36) Creating listening socket on port 31415...
(03:52:36) Done.
(03:52:39) An Error occured! For more information, go to System Logs tab
(03:52:55) Level initialized
(03:52:55) Level "map_testing2" loaded.
(03:52:55) island
(03:53:34) An Error occured! For more information, go to System Logs tab
(03:53:37) Shutting down...
(03:53:37) Process Terminated
(03:53:39) Properties loaded, and saved!
(03:53:39) You should enable "check-update" in server.properties
(03:53:39) Level initialized
(03:53:39) Level "main" loaded.
(03:53:39) flat
(03:53:39) Creating listening socket on port 31415...
(03:53:39) Done.
(03:53:43) An Error occured! For more information, go to System Logs tab
(03:53:49) Level initialized
(03:53:49) Level "map_testing2" loaded.
(03:53:49) island
(03:54:37) An Error occured! For more information, go to System Logs tab
(03:55:32) An Error occured! For more information, go to System Logs tab
(03:55:49) Shutting down...
(03:55:49) Process Terminated
(03:55:56) Properties loaded, and saved!
(03:55:56) You should enable "check-update" in server.properties
(03:55:57) Level initialized
(03:55:57) Level "main" loaded.
(03:55:57) flat
(03:55:57) Creating listening socket on port 31415...
(03:55:57) Done.
(03:56:00) An Error occured! For more information, go to System Logs tab
(03:56:57) An Error occured! For more information, go to System Logs tab
(03:57:09) Shutting down...
(03:57:09) Process Terminated
