(01:26:47) Properties loaded, and saved!
(01:26:47) You should enable "check-update" in server.properties
(01:26:47) Level initialized
(01:26:47) Level "main" loaded.
(01:26:47) empty
(01:26:48) Creating listening socket on port 25565...
(01:26:48) Checking if port is forwarded...
(01:26:51) Shutting down...
(01:26:51) Closing forwarded ports...
(01:26:51) Process Terminated
