(14:33:36) Properties loaded, and saved!
(14:33:36) You should enable "check-update" in server.properties
(14:33:36) Level initialized
(14:33:36) Level "main" loaded.
(14:33:36) Creating listening socket on port 31415... 
(14:33:36) Checking if port is forwarded...
(14:33:39) MJS --> Event ServerStart was triggered with parameters: 
(14:33:40) Port 31415 is closed!
(14:33:40) Done.
(14:33:40) Connecting to IRC
(14:33:41) Connected to IRC
(14:33:41) Joining channel
(14:33:46) MCQuai has joined the IRC
(14:35:43) GAH! PHYSICS EXPLODING!
(14:45:54) Properties loaded, and saved!
(14:45:54) You should enable "check-update" in server.properties
(14:45:55) Level initialized
(14:45:55) Level "main" loaded.
(14:45:55) Creating listening socket on port 31415... 
(14:45:55) Checking if port is forwarded...
(14:45:56) MJS --> Event ServerStart was triggered with parameters: 
(14:45:59) Port 31415 is closed!
(14:45:59) Done.
(14:45:59) Connecting to IRC
(14:45:59) Connected to IRC
(14:45:59) Joining channel
(14:46:07) MCQuai has joined the IRC
(14:46:43) 127.0.0.1 logging in as quaisaq.
(14:46:44) MJS --> Event PlayerJoin was triggered with parameters: player $player quaisaq
(14:46:45) Level initialized
(14:46:45) MJS --> Event MapGenerate was triggered with parameters: string $name quaisaq
(14:46:45) SAVED: Level "quaisaq". 0/1/20
(14:46:45) And backed up
(14:48:29) SAVED: Level "main". 1/1/20
(14:48:29) And backed up
(14:48:29) Backup 1192 saved for main
(14:51:06) Properties loaded, and saved!
(14:51:07) Commands Reloaded!
(14:51:08) Rank Reloaded!
(14:51:09) Force-killing all 0 running MJS scripts...
(14:51:09) Re-triggering ServerStart event...
(14:51:09) MJS --> Event ServerStart was triggered with parameters: 
(14:51:09) MJS reloaded.
(14:52:21) You shouldn't do that...
(14:52:34) SAVED: owners.txt
(14:52:34) BANNED: quaisaq
(14:52:42) UNBANNED: quaisaq
(14:52:49) quaisaq kicked (You were kicked by [console]!).
(14:52:57) 127.0.0.1 logging in as quaisaq.
(14:52:58) MJS --> Event PlayerJoin was triggered with parameters: player $player quaisaq
(14:53:05) SAVED: guests.txt
(14:53:05) BANNED: quaisaq
(14:53:07) UNBANNED: quaisaq
(14:53:18) quaisaq kicked (You got served!).
(14:53:18) BANNED: quaisaq
(14:53:46) You cannot edit a developers rank!
(14:53:53) You cannot edit a developers rank!
(14:54:16) GAH! PHYSICS EXPLODING!
(14:54:16) Process Terminated
(14:55:39) Properties loaded, and saved!
(14:55:39) You should enable "check-update" in server.properties
(14:55:39) Level initialized
(14:55:39) Level "main" loaded.
(14:55:39) Creating listening socket on port 31415... 
(14:55:39) Checking if port is forwarded...
(14:55:42) MJS --> Event ServerStart was triggered with parameters: 
(14:55:43) Port 31415 is closed!
(14:55:43) Done.
(14:55:43) Connecting to IRC
(14:55:43) Connected to IRC
(14:55:43) Joining channel
(14:55:49) MCQuai has joined the IRC
(14:57:09) Process Terminated
(15:13:46) Properties loaded, and saved!
(15:13:47) You should enable "check-update" in server.properties
(15:13:47) Level initialized
(15:13:47) Level "main" loaded.
(15:13:47) Creating listening socket on port 31415... 
(15:13:47) Checking if port is forwarded...
(15:13:50) MJS --> Event ServerStart was triggered with parameters: 
(15:13:51) Port 31415 is closed!
(15:13:51) Done.
(15:13:51) Connecting to IRC
(15:13:52) Connected to IRC
(15:13:52) Joining channel
(15:13:54) Valid types: island, mountains, desert, forest, ocean, flat, pixel, box
(15:14:01) MCQuai has joined the IRC
(15:16:46) GAH! PHYSICS EXPLODING!
(15:16:46) Process Terminated
(15:16:49) Properties loaded, and saved!
(15:16:49) You should enable "check-update" in server.properties
(15:16:50) Level initialized
(15:16:50) Level "main" loaded.
(15:16:50) Creating listening socket on port 31415... 
(15:16:50) Checking if port is forwarded...
(15:16:52) MJS --> Event ServerStart was triggered with parameters: 
(15:16:53) Port 31415 is closed!
(15:16:53) Done.
(15:16:54) Connecting to IRC
(15:16:54) Connected to IRC
(15:16:54) Joining channel
(15:16:56) type
(15:16:56) Valid types: island, mountains, desert, forest, ocean, flat, pixel, box
(15:16:59) MCQuai has joined the IRC
(15:17:08) GAH! PHYSICS EXPLODING!
(15:17:08) Process Terminated
(15:17:15) Properties loaded, and saved!
(15:17:15) You should enable "check-update" in server.properties
(15:17:16) Level initialized
(15:17:16) Level "main" loaded.
(15:17:16) Creating listening socket on port 31415... 
(15:17:16) Checking if port is forwarded...
(15:17:19) MJS --> Event ServerStart was triggered with parameters: 
(15:17:20) Port 31415 is closed!
(15:17:20) Done.
(15:17:20) Connecting to IRC
(15:17:20) Flat
(15:17:20) Valid types: island, mountains, desert, forest, ocean, flat, pixel, box
(15:17:20) Connected to IRC
(15:17:20) Joining channel
(15:17:25) MCQuai has joined the IRC
(15:17:29) GAH! PHYSICS EXPLODING!
(15:58:37) Properties loaded, and saved!
(15:58:37) You should enable "check-update" in server.properties
(15:58:38) Level initialized
(15:58:38) Level "main" loaded.
(15:58:38) Creating listening socket on port 31415... 
(15:58:38) Checking if port is forwarded...
(15:58:39) MJS --> Event ServerStart was triggered with parameters: 
(15:58:39) Port 31415 is closed!
(15:58:39) Done.
(15:58:39) Connecting to IRC
(15:58:40) Connected to IRC
(15:58:40) Joining channel
(15:58:41) MCQuai has joined the IRC
(15:59:01) 127.0.0.1 logging in as quaisaq.
(15:59:02) MJS --> Event PlayerJoin was triggered with parameters: player $player quaisaq
(15:59:17) quaisaq disconnected.
(15:59:20) 127.0.0.1 logging in as quaisaq.
(15:59:21) MJS --> Event PlayerJoin was triggered with parameters: player $player quaisaq
(15:59:28) quaisaq disconnected.
(15:59:31) 127.0.0.1 logging in as quaisaq.
(15:59:31) MJS --> Event PlayerJoin was triggered with parameters: player $player quaisaq
(15:59:38) quaisaq disconnected.
(15:59:42) 127.0.0.1 logging in as quaisaq.
(15:59:42) MJS --> Event PlayerJoin was triggered with parameters: player $player quaisaq
(15:59:47) quaisaq disconnected.
(15:59:50) 127.0.0.1 logging in as quaisaq.
(15:59:50) MJS --> Event PlayerJoin was triggered with parameters: player $player quaisaq
(16:00:13) quaisaq uses /newlvl 1 16 32 48
(16:00:17) quaisaq uses /newlvl 1 16 32 48 flat
(16:00:17) Level initialized
(16:00:17) SAVED: Level "1". 0/1/20
(16:00:17) And backed up
(16:00:19) quaisaq uses /goto 1
(16:00:19) Level initialized
(16:00:19) Level "1" loaded.
(16:00:23) quaisaq uses /goto 1
(16:00:23) Level initialized
(16:00:23) Level "1" loaded.
(16:00:39) quaisaq uses /goto 1
(16:00:39) Level initialized
(16:00:39) Level "1" loaded.
(16:00:42) quaisaq uses /goto 2
(16:00:52) quaisaq uses /sendmap quaisaq 1
(16:00:52) Level initialized
(16:00:52) Level "1" loaded.
(16:01:13) Level initialized
(16:01:13) Level "1" loaded.
(16:01:18) quaisaq uses /goto 1
(16:01:27) quaisaq uses /deletelvl 1
(16:01:27) 1 was unloaded.
(16:01:39) quaisaq uses /newlvl 2 64 80 96
(16:01:40) quaisaq uses /newlvl 2 64 80 96 flat
(16:01:40) Level initialized
(16:01:40) SAVED: Level "2". 0/1/20
(16:01:40) And backed up
(16:01:41) quaisaq uses /goto 2
(16:01:41) Level initialized
(16:01:41) Level "2" loaded.
(16:01:48) Level initialized
(16:01:48) Level "2" loaded.
(16:01:51) quaisaq uses /goto 2
(16:02:35) quaisaq uses /newlvl 3 96 112 128
(16:02:37) quaisaq uses /newlvl 3 96 112 128 flat
(16:02:37) Level initialized
(16:02:37) SAVED: Level "3". 0/1/20
(16:02:37) And backed up
(16:02:39) quaisaq uses /goto 3
(16:02:39) Level initialized
(16:02:39) Level "3" loaded.
(16:02:42) quaisaq uses /load 3
(16:02:42) Level initialized
(16:02:42) Level "3" loaded.
(16:02:51) Level initialized
(16:02:51) Level "3" loaded.
(16:02:53) quaisaq uses /goto 3
(16:03:11) quaisaq uses /goto 2
(16:03:48) quaisaq uses /newlvl t1 96 96 96 flat
(16:03:48) Level initialized
(16:03:48) SAVED: Level "t1". 0/1/20
(16:03:48) And backed up
(16:03:51) quaisaq uses /goto t1
(16:03:51) Level initialized
(16:03:51) Level "t1" loaded.
(16:03:55) quaisaq uses /goto t1
(16:03:55) Level initialized
(16:03:55) Level "t1" loaded.
(16:04:02) Level initialized
(16:04:02) Level "t1" loaded.
(16:04:05) quaisaq uses /goto t1
(16:04:16) quaisaq uses /goto 3
(16:04:53) quaisaq uses /deletelvl 1
(16:04:53) t1 was unloaded.
(16:04:55) quaisaq uses /deletelvl 2
(16:04:55) 2 was unloaded.
(16:04:57) quaisaq uses /deletelvl 3
(16:04:57) 3 was unloaded.
(16:05:00) quaisaq uses /deletelvl t1
(16:05:17) quaisaq uses /newlvl test2 96 112 128
(16:05:19) quaisaq uses /newlvl test2 96 112 128 flat
(16:05:19) Level initialized
(16:05:19) SAVED: Level "test2". 0/1/20
(16:05:19) And backed up
(16:05:22) quaisaq uses /goto test2
(16:05:22) Level initialized
(16:05:22) Level "test2" loaded.
(16:05:26) quaisaq uses /load test2
(16:05:26) Level initialized
(16:05:26) Level "test2" loaded.
(16:05:42) Level initialized
(16:05:42) Level "test2" loaded.
(16:05:44) quaisaq uses /goto test2
(16:05:59) quaisaq uses /newlvl test3 112 112 112
(16:06:05) quaisaq uses /newlvl test3 112 112 112 island
(16:06:05) Attempting map gen
(16:06:05) Irrerations = 224
(16:06:05) Applying average filtering
(16:06:05) Planning trees
(16:06:06) Level initialized
(16:06:06) SAVED: Level "test3". 0/1/20
(16:06:06) And backed up
(16:06:08) quaisaq uses /goto test3
(16:06:08) Level initialized
(16:06:08) Level "test3" loaded.
(16:06:14) Level initialized
(16:06:14) Level "test3" loaded.
(16:06:17) quaisaq uses /goto test3
(16:06:47) quaisaq uses /newlvl test4 112 128 128 flat
(16:06:47) Level initialized
(16:06:48) SAVED: Level "test4". 0/1/20
(16:06:48) And backed up
(16:06:51) quaisaq uses /goto test4
(16:06:51) Level initialized
(16:06:51) Level "test4" loaded.
(16:06:58) Level initialized
(16:06:58) Level "test4" loaded.
(16:07:00) quaisaq uses /goto test4
(16:07:28) quaisaq uses /newlvl test5 128 128 128 flat
(16:07:28) Level initialized
(16:07:28) SAVED: Level "test5". 0/1/20
(16:07:28) And backed up
(16:07:36) Level initialized
(16:07:36) Level "test5" loaded.
(16:07:37) quaisaq uses /goto test5
(16:07:44) quaisaq uses /deletelvl test2
(16:07:44) test2 was unloaded.
(16:07:46) quaisaq uses /deletelvl test3
(16:07:46) test3 was unloaded.
(16:07:47) quaisaq uses /deletelvl test4
(16:07:47) test4 was unloaded.
(16:07:48) quaisaq uses /deletelvl test6
(16:07:49) quaisaq uses /deletelvl test5
(16:07:50) test5 was unloaded.
(16:08:04) quaisaq uses /newlvl test1 128 112 128
(16:08:06) quaisaq uses /newlvl test1 128 112 128 flat
(16:08:06) Level initialized
(16:08:06) SAVED: Level "test1". 0/1/20
(16:08:06) And backed up
(16:08:09) quaisaq uses /goto test1
(16:08:09) Level initialized
(16:08:09) Level "test1" loaded.
(16:08:12) quaisaq disconnected.
(16:08:16) 127.0.0.1 logging in as quaisaq.
(16:08:16) MJS --> Event PlayerJoin was triggered with parameters: player $player quaisaq
(16:08:20) quaisaq uses /goto test1
(16:08:20) Level initialized
(16:08:20) Level "test1" loaded.
(16:08:33) quaisaq uses /goto test1
(16:08:33) Level initialized
(16:08:33) Level "test1" loaded.
(16:08:38) Level initialized
(16:08:38) Level "test1" loaded.
(16:08:41) quaisaq uses /goto test1
(16:08:47) quaisaq uses /place 
(16:08:51) quaisaq disconnected.
(16:08:51) test1 was unloaded.
(16:08:55) 127.0.0.1 logging in as quaisaq.
(16:08:55) MJS --> Event PlayerJoin was triggered with parameters: player $player quaisaq
(16:09:00) Level initialized
(16:09:00) Level "test1" loaded.
(16:09:04) quaisaq uses /goto test1
(16:09:09) quaisaq uses /place 
(16:09:22) quaisaq disconnected.
(16:09:22) test1 was unloaded.
(16:09:43) 127.0.0.1 logging in as quaisaq.
(16:09:43) MJS --> Event PlayerJoin was triggered with parameters: player $player quaisaq
(16:09:59) quaisaq uses /newlvl test2 128 96 96 flat
(16:10:00) Level initialized
(16:10:00) SAVED: Level "test2". 0/1/20
(16:10:00) And backed up
(16:10:01) quaisaq uses /goto test2
(16:10:01) Level initialized
(16:10:01) Level "test2" loaded.
(16:10:06) Level initialized
(16:10:07) Level "test2" loaded.
(16:10:09) quaisaq uses /goto test2
(16:11:20) quaisaq uses /about 
(16:11:34) quaisaq uses /place 
(16:11:40) quaisaq uses /whois 
(16:11:51) quaisaq uses /unban quaisaq
(16:11:51) SAVED: banned.txt
(16:13:40) SAVED: Level "test2". 1/1/20
(16:13:40) And backed up
(16:13:56) quaisaq disconnected.
(16:13:56) SAVED: Level "test2". 1/0/20
(16:13:56) And backed up
(16:13:56) test2 was unloaded.
(16:13:57) GAH! PHYSICS EXPLODING!
(16:14:12) Properties loaded, and saved!
(16:14:12) You should enable "check-update" in server.properties
(16:14:13) Level initialized
(16:14:13) Level "main" loaded.
(16:14:13) Creating listening socket on port 31415... 
(16:14:13) Checking if port is forwarded...
(16:14:14) Port 31415 is closed!
(16:14:14) Done.
(16:14:14) MJS --> Event ServerStart was triggered with parameters: 
(16:14:14) Connecting to IRC
(16:14:14) Connected to IRC
(16:14:14) Joining channel
(16:14:15) MCQuai has joined the IRC
(16:14:18) 127.0.0.1 logging in as quaisaq.
(16:14:19) MJS --> Event PlayerJoin was triggered with parameters: player $player quaisaq
(16:14:31) quaisaq uses /newlvl test4 144 144 144 flat
(16:14:31) Level initialized
(16:14:31) SAVED: Level "test4". 0/1/20
(16:14:31) And backed up
(16:14:32) quaisaq uses /goto test4
(16:14:32) Level initialized
(16:14:32) Level "test4" loaded.
(16:16:24) quaisaq uses /newlvl test5 160 160 160 flat
(16:16:24) Level initialized
(16:16:24) SAVED: Level "test5". 0/1/20
(16:16:24) And backed up
(16:16:26) quaisaq uses /goto test5
(16:16:26) Level initialized
(16:16:26) Level "test5" loaded.
(16:16:50) quaisaq uses /newlvl test6 176 176 176 flat
(16:16:50) Level initialized
(16:16:50) SAVED: Level "test6". 0/1/20
(16:16:50) And backed up
(16:16:51) quaisaq uses /goto test6
(16:16:51) Level initialized
(16:16:52) Level "test6" loaded.
(16:17:28) quaisaq uses /newlvl test7 192 192 192 flat
(16:17:28) Level initialized
(16:17:28) SAVED: Level "test7". 0/1/20
(16:17:28) And backed up
(16:17:29) quaisaq uses /goto test7
(16:17:29) Level initialized
(16:17:30) Level "test7" loaded.
(16:18:20) quaisaq uses /newlvl test8 208 208 208 flat
(16:18:21) Level initialized
(16:18:21) SAVED: Level "test8". 0/1/20
(16:18:21) And backed up
(16:18:23) quaisaq uses /goto test8
(16:18:23) Level initialized
(16:18:23) Level "test8" loaded.
(16:19:09) quaisaq uses /newlvl test9 224 224 224 flat
(16:19:09) Level initialized
(16:19:10) SAVED: Level "test9". 0/1/20
(16:19:10) And backed up
(16:19:11) quaisaq uses /goto test9
(16:19:11) Level initialized
(16:19:11) Level "test9" loaded.
(16:19:59) quaisaq uses /newlvl test10 240 240 240 flat
(16:20:00) Level initialized
(16:20:01) quaisaq uses /goto test10
(16:20:01) An Error occured! For more information, go to System Logs tab
(16:20:02) SAVED: Level "test10". 0/1/20
(16:20:02) And backed up
(16:20:03) quaisaq uses /goto test10
(16:20:03) Level initialized
(16:20:04) Level "test10" loaded.
(16:20:54) quaisaq uses /newlvl test11 256 256 256 flat
(16:20:55) Level initialized
(16:20:56) quaisaq uses /goto test1
(16:20:57) SAVED: Level "test11". 0/1/20
(16:20:57) And backed up
(16:20:59) quaisaq uses /goto test11
(16:20:59) Level initialized
(16:21:00) Level "test11" loaded.
(16:21:05) quaisaq uses /deletelvl test1
(16:21:06) quaisaq uses /deletelvl test2
(16:21:09) quaisaq uses /deletelvl test3
(16:21:11) quaisaq uses /deletelvl test4
(16:21:11) test4 was unloaded.
(16:21:12) quaisaq uses /deletelvl test5
(16:21:12) test5 was unloaded.
(16:21:13) quaisaq uses /deletelvl test6
(16:21:13) test6 was unloaded.
(16:21:15) quaisaq uses /deletelvl test7
(16:21:15) test7 was unloaded.
(16:21:17) quaisaq uses /deletelvl test8
(16:21:17) test8 was unloaded.
(16:21:18) quaisaq uses /deletelvl test9
(16:21:18) test9 was unloaded.
(16:21:20) quaisaq uses /deletelvl test10
(16:21:20) test10 was unloaded.
(16:21:32) quaisaq uses /newlvl test12 272 272 272 flat
(16:21:33) Level initialized
(16:21:34) SAVED: Level "test12". 0/1/20
(16:21:34) And backed up
(16:21:36) quaisaq uses /goto test12
(16:21:36) Level initialized
(16:21:37) Level "test12" loaded.
(16:21:59) quaisaq uses /newlvl test13 336 336 336 flat
(16:22:01) Level initialized
(16:22:02) SAVED: Level "test13". 0/1/20
(16:22:02) And backed up
(16:22:03) quaisaq uses /goto test13
(16:22:03) Level initialized
(16:22:04) Level "test13" loaded.
(16:22:27) 127.0.0.1 logging in as quaisaq.
(16:22:36) quaisaq disconnected.
(16:22:36) test13 was unloaded.
(16:22:41) 127.0.0.1 logging in as quaisaq.
(16:22:42) MJS --> Event PlayerJoin was triggered with parameters: player $player quaisaq
(16:22:56) quaisaq uses /newlvl test14 368 368 368 flat
(16:22:58) Level initialized
(16:23:00) SAVED: Level "test14". 0/1/20
(16:23:00) And backed up
(16:23:00) quaisaq uses /goto test14
(16:23:00) Level initialized
(16:23:02) Level "test14" loaded.
(16:23:11) quaisaq disconnected.
(16:23:12) test14 was unloaded.
(16:23:19) 127.0.0.1 logging in as quaisaq.
(16:23:19) MJS --> Event PlayerJoin was triggered with parameters: player $player quaisaq
(16:23:23) quaisaq uses /goto test14
(16:23:23) Level initialized
(16:23:24) Level "test14" loaded.
(16:23:41) quaisaq disconnected.
(16:23:41) test14 was unloaded.
(16:23:46) 127.0.0.1 logging in as quaisaq.
(16:23:46) MJS --> Event PlayerJoin was triggered with parameters: player $player quaisaq
(16:23:51) quaisaq uses /goto test14
(16:23:52) Level initialized
(16:23:53) Level "test14" loaded.
(16:24:27) quaisaq uses /newlvl test15 386 386 386 flat
(16:24:30) Level initialized
(16:24:33) SAVED: Level "test15". 0/1/20
(16:24:33) And backed up
(16:24:34) quaisaq uses /deletelvl test15
(16:24:48) quaisaq uses /newlvl test15 384 384 384 flat
(16:24:52) Level initialized
(16:24:57) SAVED: Level "test15". 0/1/20
(16:24:57) And backed up
(16:24:58) quaisaq uses /goto test15
(16:24:58) Level initialized
(16:25:01) Level "test15" loaded.
(16:26:29) quaisaq uses /newlvl test16 400 400 400 flat
(16:26:34) Level initialized
(16:26:40) SAVED: Level "test16". 0/1/20
(16:26:40) And backed up
(16:26:41) quaisaq uses /goto test16
(16:26:41) Level initialized
(16:26:44) Level "test16" loaded.
(16:27:26) quaisaq disconnected.
(16:27:26) test16 was unloaded.
(16:27:53) 127.0.0.1 logging in as quaisaq.
(16:27:53) MJS --> Event PlayerJoin was triggered with parameters: player $player quaisaq
(16:28:03) quaisaq uses /newlvl test17 640 64 640 flat
(16:28:04) Level initialized
(16:28:06) SAVED: Level "test17". 0/1/20
(16:28:06) And backed up
(16:28:06) quaisaq uses /goto test17
(16:28:06) Level initialized
(16:28:07) Level "test17" loaded.
(16:28:29) quaisaq disconnected.
(16:28:29) test17 was unloaded.
(16:47:17) GAH! PHYSICS EXPLODING!
(17:32:14) Properties loaded, and saved!
(17:32:14) You should enable "check-update" in server.properties
(17:32:15) Level initialized
(17:32:15) Level "main" loaded.
(17:32:15) Creating listening socket on port 31415... 
(17:32:15) Checking if port is forwarded...
(17:32:16) Port 31415 is closed!
(17:32:16) Done.
(17:32:16) MJS --> Event ServerStart was triggered with parameters: 
(17:32:16) Connecting to IRC
(17:32:16) Connected to IRC
(17:32:16) Joining channel
(17:32:17) MCQuai has joined the IRC
(17:32:48) GAH! PHYSICS EXPLODING!
(17:34:16) Properties loaded, and saved!
(17:34:16) You should enable "check-update" in server.properties
(17:34:17) Level initialized
(17:34:17) Level "main" loaded.
(17:34:17) Creating listening socket on port 31415... 
(17:34:17) Checking if port is forwarded...
(17:34:18) Port 31415 is closed!
(17:34:18) Done.
(17:34:19) MJS --> Event ServerStart was triggered with parameters: 
(17:34:19) Connecting to IRC
(17:34:19) Connected to IRC
(17:34:19) Joining channel
(17:34:20) MCQuai has joined the IRC
(17:34:38) GAH! PHYSICS EXPLODING!
(17:34:52) Properties loaded, and saved!
(17:34:52) You should enable "check-update" in server.properties
(17:34:52) Level initialized
(17:34:52) Level "main" loaded.
(17:34:52) Creating listening socket on port 31415... 
(17:34:52) Checking if port is forwarded...
(17:34:53) Port 31415 is closed!
(17:34:54) Done.
(17:34:55) MJS --> Event ServerStart was triggered with parameters: 
(17:34:55) Connecting to IRC
(17:34:55) Connected to IRC
(17:34:55) Joining channel
(17:34:56) MCQuai has joined the IRC
(17:35:47) Level initialized
(17:35:47) Level "pix" loaded.
(17:39:10) GAH! PHYSICS EXPLODING!
(17:43:41) Properties loaded, and saved!
(17:43:41) You should enable "check-update" in server.properties
(17:43:42) Properties loaded, and saved!
(17:43:42) You should enable "check-update" in server.properties
(17:43:42) Level initialized
(17:43:42) Level "main" loaded.
(17:43:42) Creating listening socket on port 31415... 
(17:43:42) Checking if port is forwarded...
(17:43:42) Level initialized
(17:43:42) Level "main" loaded.
(17:43:42) Creating listening socket on port 31415... 
(17:43:42) An Error occured! For more information, go to System Logs tab
(17:43:42) Could not create socket connection.  Shutting down.
(17:43:43) MJS --> Event ServerStart was triggered with parameters: 
(17:43:43) Port 31415 is closed!
(17:43:43) Done.
(17:43:43) Connecting to IRC
(17:43:43) Connected to IRC
(17:43:43) Joining channel
(17:43:44) Process Terminated
(17:43:48) MCQuai has joined the IRC
(17:44:00) GAH! PHYSICS EXPLODING!
(17:44:00) Process Terminated
(18:31:52) Properties loaded, and saved!
(18:31:52) You should enable "check-update" in server.properties
(18:31:53) Level initialized
(18:31:53) Level "main" loaded.
(18:31:53) Creating listening socket on port 31415... 
(18:31:53) Checking if port is forwarded...
(18:31:54) MJS --> Event ServerStart was triggered with parameters: 
(18:31:54) Port 31415 is closed!
(18:31:54) Done.
(18:31:54) Connecting to IRC
(18:31:55) Connected to IRC
(18:31:55) Joining channel
(18:31:55) MCQuai has joined the IRC
(18:32:17) GAH! PHYSICS EXPLODING!
(18:32:26) Properties loaded, and saved!
(18:32:26) You should enable "check-update" in server.properties
(18:32:27) Level initialized
(18:32:27) Level "main" loaded.
(18:32:27) Creating listening socket on port 31415... 
(18:32:27) Checking if port is forwarded...
(18:32:28) Port 31415 is closed!
(18:32:28) Done.
(18:32:28) MJS --> Event ServerStart was triggered with parameters: 
(18:32:28) Connecting to IRC
(18:32:28) Connected to IRC
(18:32:28) Joining channel
(18:32:29) MCQuai has joined the IRC
(18:33:01) GAH! PHYSICS EXPLODING!
(18:33:14) Properties loaded, and saved!
(18:33:14) You should enable "check-update" in server.properties
(18:33:15) Level initialized
(18:33:15) Level "main" loaded.
(18:33:15) Creating listening socket on port 31415... 
(18:33:15) Checking if port is forwarded...
(18:33:16) Port 31415 is closed!
(18:33:16) Done.
(18:33:16) MJS --> Event ServerStart was triggered with parameters: 
(18:33:16) Connecting to IRC
(18:33:16) Connected to IRC
(18:33:16) Joining channel
(18:33:17) MCQuai has joined the IRC
(18:33:36) GAH! PHYSICS EXPLODING!
(18:34:28) Properties loaded, and saved!
(18:34:28) You should enable "check-update" in server.properties
(18:34:28) Level initialized
(18:34:28) Level "main" loaded.
(18:34:28) Creating listening socket on port 31415... 
(18:34:28) Checking if port is forwarded...
(18:34:29) Port 31415 is closed!
(18:34:29) Done.
(18:34:30) MJS --> Event ServerStart was triggered with parameters: 
(18:34:30) Connecting to IRC
(18:34:30) Connected to IRC
(18:34:30) Joining channel
(18:34:30) MCQuai has joined the IRC
(18:34:35) 1 1
(18:34:40) 1 1
(18:34:45) 1 1
(18:34:50) 1 1
(18:34:50) 127.0.0.1 logging in as quaisaq.
(18:34:50) MJS --> Event PlayerJoin was triggered with parameters: player $player quaisaq
(18:34:55) 492 18266
(18:35:00) 21 561
(18:35:05) 21 561
(18:35:10) 21 561
(18:35:11) quaisaq disconnected.
(18:35:15) 11 270
(18:35:20) 1 1
(18:35:23) 1 1
(18:35:25) 1 1
(18:35:30) 1 1
(18:35:31) 1 1
(18:35:35) 1 1
(18:35:38) GAH! PHYSICS EXPLODING!
(18:35:38) Process Terminated
(18:40:10) Properties loaded, and saved!
(18:40:10) You should enable "check-update" in server.properties
(18:40:10) Level initialized
(18:40:10) Level "main" loaded.
(18:40:10) Creating listening socket on port 31415... 
(18:40:10) Checking if port is forwarded...
(18:40:12) MJS --> Event ServerStart was triggered with parameters: 
(18:40:12) Port 31415 is closed!
(18:40:12) Done.
(18:40:12) Connecting to IRC
(18:40:12) Connected to IRC
(18:40:12) Joining channel
(18:40:13) MCQuai has joined the IRC
(18:40:23) GAH! PHYSICS EXPLODING!
(18:40:23) Process Terminated
(18:41:51) Properties loaded, and saved!
(18:41:51) You should enable "check-update" in server.properties
(18:41:51) Level initialized
(18:41:51) Level "main" loaded.
(18:41:51) Creating listening socket on port 31415... 
(18:41:51) Checking if port is forwarded...
(18:41:53) Port 31415 is closed!
(18:41:53) Done.
(18:41:53) MJS --> Event ServerStart was triggered with parameters: 
(18:41:53) Connecting to IRC
(18:41:53) Connected to IRC
(18:41:53) Joining channel
(18:41:53) MCQuai has joined the IRC
(18:42:16) GAH! PHYSICS EXPLODING!
(18:42:16) Process Terminated
(18:42:41) Properties loaded, and saved!
(18:42:41) You should enable "check-update" in server.properties
(18:42:41) Level initialized
(18:42:41) Level "main" loaded.
(18:42:41) Creating listening socket on port 31415... 
(18:42:42) Checking if port is forwarded...
(18:42:43) Port 31415 is closed!
(18:42:43) Done.
(18:42:43) MJS --> Event ServerStart was triggered with parameters: 
(18:42:43) Connecting to IRC
(18:42:43) Connected to IRC
(18:42:43) Joining channel
(18:42:44) MCQuai has joined the IRC
(18:42:48) 1 1
(18:42:49) 1 1
(18:42:53) 1 1
(18:42:58) 1 1
(18:43:03) 1 1
(18:43:05) 1 1
(18:43:08) 1 1
(18:43:13) 1 1
(18:43:18) 1 1
(18:43:21) 1 1
(18:43:23) 1 1
(18:43:24) GAH! PHYSICS EXPLODING!
(18:46:57) Properties loaded, and saved!
(18:46:57) You should enable "check-update" in server.properties
(18:46:57) Level initialized
(18:46:57) Level "main" loaded.
(18:46:57) Creating listening socket on port 31415... 
(18:46:57) Checking if port is forwarded...
(18:46:58) Port 31415 is closed!
(18:46:58) Done.
(18:46:59) MJS --> Event ServerStart was triggered with parameters: 
(18:46:59) Connecting to IRC
(18:46:59) Connected to IRC
(18:46:59) Joining channel
(18:46:59) MCQuai has joined the IRC
(18:47:04) 1 1
(18:47:09) 1 1
(18:47:11) 1 1
(18:47:14) 1 1
(18:47:19) 1 1
(18:47:20) GAH! PHYSICS EXPLODING!
(18:47:20) Process Terminated
(18:47:52) Properties loaded, and saved!
(18:47:52) You should enable "check-update" in server.properties
(18:47:52) Level initialized
(18:47:53) Level "main" loaded.
(18:47:53) Creating listening socket on port 31415... 
(18:47:53) Checking if port is forwarded...
(18:47:53) 1 1
(18:47:54) MJS --> Event ServerStart was triggered with parameters: 
(18:47:54) Port 31415 is closed!
(18:47:54) Done.
(18:47:54) Connecting to IRC
(18:47:55) Connected to IRC
(18:47:55) Joining channel
(18:47:55) MCQuai has joined the IRC
(18:47:59) 1 1
(18:47:59) 227 227 - 225 227
(18:47:59) 227 227 - 227 225
(18:48:04) 1 1
(18:48:04) 227 227 - 227 227
(18:48:04) 227 227 - 225 227
(18:48:04) 227 227 - 227 225
(18:48:09) 1 1
(18:48:09) 227 227 - 227 227
(18:48:09) 227 227 - 227 227
(18:48:09) 227 227 - 225 227
(18:48:09) 227 227 - 227 225
(18:48:14) 1 1
(18:48:14) 227 227 - 227 227
(18:48:14) 227 227 - 227 227
(18:48:14) 227 227 - 227 227
(18:48:14) 227 227 - 225 227
(18:48:14) 227 227 - 227 225
(18:48:19) 1 1
(18:48:24) 1 1
(18:48:29) 1 1
(18:48:34) 1 1
(18:48:37) GAH! PHYSICS EXPLODING!
(18:49:23) Properties loaded, and saved!
(18:49:23) You should enable "check-update" in server.properties
(18:49:24) 1 1
(18:49:24) Level initialized
(18:49:24) Level "main" loaded.
(18:49:24) Creating listening socket on port 31415... 
(18:49:24) Checking if port is forwarded...
(18:49:25) Port 31415 is closed!
(18:49:25) Done.
(18:49:25) MJS --> Event ServerStart was triggered with parameters: 
(18:49:25) Connecting to IRC
(18:49:25) Connected to IRC
(18:49:25) Joining channel
(18:49:26) MCQuai has joined the IRC
(18:49:30) 1 1
(18:49:30) 227 227 - 225 227
(18:49:30) 227 227 - 227 225
(18:49:35) 1 1
(18:49:35) 227 227 - 227 227
(18:49:35) 227 227 - 225 227
(18:49:35) 227 227 - 227 225
(18:49:40) 1 1
(18:49:40) 227 227 - 227 227
(18:49:40) 227 227 - 227 227
(18:49:40) 227 227 - 225 227
(18:49:40) 227 227 - 227 225
(18:49:45) 1 1
(18:49:45) 227 227 - 227 227
(18:49:45) 227 227 - 227 227
(18:49:45) 227 227 - 227 227
(18:49:45) 227 227 - 225 227
(18:49:45) 227 227 - 227 225
(18:49:50) 127.0.0.1 logging in as quaisaq.
(18:49:50) MJS --> Event PlayerJoin was triggered with parameters: player $player quaisaq
(18:49:50) 17725 132
(18:49:50) 227 224 - 227 -177
(18:49:50) 227 227 - 227 227
(18:49:50) 227 227 - 227 227
(18:49:50) 227 227 - 227 227
(18:49:50) 227 227 - 225 227
(18:49:50) 227 227 - 227 225
(18:49:55) 626 821
(18:49:55) 224 209 - -177 213
(18:49:55) 227 224 - 227 -177
(18:49:55) 227 227 - 227 227
(18:49:55) 227 227 - 227 227
(18:49:55) 227 227 - 227 227
(18:49:55) 227 227 - 225 227
(18:49:55) 227 227 - 227 225
(18:50:00) 561 21
(18:50:00) 209 227 - 213 215
(18:50:00) 224 209 - -177 213
(18:50:00) 227 224 - 227 -177
(18:50:00) 227 227 - 227 227
(18:50:00) 227 227 - 227 227
(18:50:00) 227 227 - 227 227
(18:50:00) 227 227 - 225 227
(18:50:00) 227 227 - 227 225
(18:50:05) 561 21
(18:50:10) 561 21
(18:50:15) 561 21
(18:50:20) 561 21
(18:50:25) 568 21
(18:50:30) 582 21
(18:50:32) 169 11
(18:50:32) 227 227 - 214 224
(18:50:32) 227 227 - 215 214
(18:50:32) 227 227 - 215 215
(18:50:32) 227 227 - 215 215
(18:50:32) 227 227 - 215 215
(18:50:32) 227 227 - 215 215
(18:50:32) 227 227 - 215 215
(18:50:32) 209 227 - 213 215
(18:50:32) 224 209 - -177 213
(18:50:32) 227 224 - 227 -177
(18:50:32) 227 227 - 227 227
(18:50:32) 227 227 - 227 227
(18:50:32) 227 227 - 227 227
(18:50:32) 227 227 - 225 227
(18:50:32) 227 227 - 227 225
(18:50:35) 393 11
(18:50:35) 227 227 - 224 219
(18:50:35) 227 227 - 214 224
(18:50:35) 227 227 - 215 214
(18:50:35) 227 227 - 215 215
(18:50:35) 227 227 - 215 215
(18:50:35) 227 227 - 215 215
(18:50:35) 227 227 - 215 215
(18:50:35) 227 227 - 215 215
(18:50:35) 209 227 - 213 215
(18:50:35) 224 209 - -177 213
(18:50:35) 227 224 - 227 -177
(18:50:36) 227 227 - 227 227
(18:50:36) 227 227 - 227 227
(18:50:36) 227 227 - 227 227
(18:50:36) 227 227 - 225 227
(18:50:36) 227 227 - 227 225
(18:50:40) quaisaq disconnected.
(18:50:40) GAH! PHYSICS EXPLODING!
(18:51:52) Properties loaded, and saved!
(18:51:52) You should enable "check-update" in server.properties
(18:51:53) Level initialized
(18:51:53) Level "main" loaded.
(18:51:53) Creating listening socket on port 31415... 
(18:51:53) Checking if port is forwarded...
(18:51:54) MJS --> Event ServerStart was triggered with parameters: 
(18:51:54) Port 31415 is closed!
(18:51:54) Done.
(18:51:54) Connecting to IRC
(18:51:55) Connected to IRC
(18:51:55) Joining channel
(18:51:55) MCQuai has joined the IRC
(18:51:56) 1 10000
(18:51:59) 1 10000
(18:52:04) 1 10000
(18:52:06) 1 10000
(18:52:09) 1 10000
(18:52:14) 1 10000
(18:52:19) 127.0.0.1 logging in as quaisaq.
(18:52:19) MJS --> Event PlayerJoin was triggered with parameters: player $player quaisaq
(18:52:19) 17753 10000
(18:52:24) 626 10000
(18:52:26) 197 10000
(18:52:29) quaisaq disconnected.
(18:52:29) GAH! PHYSICS EXPLODING!
(18:53:16) Properties loaded, and saved!
(18:53:16) You should enable "check-update" in server.properties
(18:53:16) Level initialized
(18:53:16) Level "main" loaded.
(18:53:16) Creating listening socket on port 31415... 
(18:53:16) Checking if port is forwarded...
(18:53:17) 1 10000
(18:53:18) Port 31415 is closed!
(18:53:18) Done.
(18:53:18) MJS --> Event ServerStart was triggered with parameters: 
(18:53:18) Connecting to IRC
(18:53:18) Connected to IRC
(18:53:18) Joining channel
(18:53:19) MCQuai has joined the IRC
(18:53:23) 1 10000
(18:53:27) 127.0.0.1 logging in as quaisaq.
(18:53:27) MJS --> Event PlayerJoin was triggered with parameters: player $player quaisaq
(18:53:28) 17874 10000
(18:53:33) 561 10000
(18:53:38) 533 10000
(18:53:38) 29 10000
(18:53:43) 561 10000
(18:53:44) quaisaq disconnected.
(18:53:44) GAH! PHYSICS EXPLODING!
(18:54:07) Properties loaded, and saved!
(18:54:07) You should enable "check-update" in server.properties
(18:54:08) Level initialized
(18:54:08) Level "main" loaded.
(18:54:08) Creating listening socket on port 31415... 
(18:54:08) Checking if port is forwarded...
(18:54:09) MJS --> Event ServerStart was triggered with parameters: 
(18:54:10) Port 31415 is closed!
(18:54:10) Done.
(18:54:10) Connecting to IRC
(18:54:10) Connected to IRC
(18:54:10) Joining channel
(18:54:10) MCQuai has joined the IRC
(18:54:15) 1 10000
(18:54:18) 127.0.0.1 logging in as quaisaq.
(18:54:19) MJS --> Event PlayerJoin was triggered with parameters: player $player quaisaq
(18:54:20) 17846 10000
(18:54:25) 561 10000
(18:54:26) quaisaq disconnected.
(18:54:28) GAH! PHYSICS EXPLODING!
(18:54:28) Process Terminated
(18:54:58) Properties loaded, and saved!
(18:54:58) You should enable "check-update" in server.properties
(18:54:58) Level initialized
(18:54:58) Level "main" loaded.
(18:54:58) Creating listening socket on port 31415... 
(18:54:58) Checking if port is forwarded...
(18:54:59) Port 31415 is closed!
(18:54:59) Done.
(18:55:00) MJS --> Event ServerStart was triggered with parameters: 
(18:55:00) Connecting to IRC
(18:55:00) Connected to IRC
(18:55:00) Joining channel
(18:55:00) MCQuai has joined the IRC
(18:55:02) 1 10000
(18:55:05) 1 10000
(18:55:06) 127.0.0.1 logging in as quaisaq.
(18:55:07) MJS --> Event PlayerJoin was triggered with parameters: player $player quaisaq
(18:55:10) 18126 10000
(18:55:10) WOOO
(18:55:15) 561 20000
(18:55:20) 561 20000
(18:55:25) 561 20000
(18:55:26) quaisaq disconnected.
(18:55:26) GAH! PHYSICS EXPLODING!
(18:55:26) Process Terminated
(18:57:12) Properties loaded, and saved!
(18:57:12) You should enable "check-update" in server.properties
(18:57:13) Level initialized
(18:57:13) Level "main" loaded.
(18:57:13) Creating listening socket on port 31415... 
(18:57:13) Checking if port is forwarded...
(18:57:14) Port 31415 is closed!
(18:57:14) Done.
(18:57:14) MJS --> Event ServerStart was triggered with parameters: 
(18:57:14) Connecting to IRC
(18:57:14) Connected to IRC
(18:57:14) Joining channel
(18:57:15) MCQuai has joined the IRC
(18:57:19) 1 10000
(18:57:24) 1 10000
(18:57:25) 127.0.0.1 logging in as quaisaq.
(18:57:25) 17624 10000
(18:57:25) WOOO
(18:57:25) An Error occured! For more information, go to System Logs tab
(18:57:26) MJS --> Event PlayerJoin was triggered with parameters: player $player quaisaq
(18:57:26) quaisaq kicked (Server restarted! Rejoin!).
(18:57:26) An Error occured! For more information, go to System Logs tab
(18:57:29) 324 20000
(18:57:34) 1 20000
(18:57:39) 1 20000
(18:57:44) 1 20000
(18:57:49) 1 20000
(18:57:54) 1 20000
(18:57:59) 1 20000
(18:58:04) 1 20000
(18:58:09) 1 20000
(18:58:14) 1 20000
(18:58:19) 1 20000
(18:58:24) 1 20000
(18:58:29) 1 20000
(18:58:34) 1 20000
(18:58:39) 1 20000
(18:58:40) GAH! PHYSICS EXPLODING!
(18:58:54) Properties loaded, and saved!
(18:58:54) You should enable "check-update" in server.properties
(18:58:54) Level initialized
(18:58:54) Level "main" loaded.
(18:58:54) Creating listening socket on port 31415... 
(18:58:54) Checking if port is forwarded...
(18:58:55) Port 31415 is closed!
(18:58:55) Done.
(18:58:56) MJS --> Event ServerStart was triggered with parameters: 
(18:58:56) Connecting to IRC
(18:58:56) Connected to IRC
(18:58:56) Joining channel
(18:58:56) MCQuai has joined the IRC
(18:59:19) 127.0.0.1 logging in as quaisaq.
(18:59:20) MJS --> Event PlayerJoin was triggered with parameters: player $player quaisaq
(19:01:21) quaisaq disconnected.
(19:01:21) GAH! PHYSICS EXPLODING!
(19:01:21) Process Terminated
(19:02:52) Properties loaded, and saved!
(19:02:52) You should enable "check-update" in server.properties
(19:02:53) Level initialized
(19:02:53) Level "main" loaded.
(19:02:53) Creating listening socket on port 31415... 
(19:02:53) Checking if port is forwarded...
(19:02:54) Port 31415 is closed!
(19:02:54) Done.
(19:02:54) MJS --> Event ServerStart was triggered with parameters: 
(19:02:54) Connecting to IRC
(19:02:55) Connected to IRC
(19:02:55) Joining channel
(19:02:55) MCQuai has joined the IRC
(19:02:56) 127.0.0.1 logging in as quaisaq.
(19:02:57) MJS --> Event PlayerJoin was triggered with parameters: player $player quaisaq
(19:03:00) quaisaq uses /restore 
(19:03:00) An Error occured! For more information, go to System Logs tab
(19:48:27) quaisaq disconnected.
(19:48:30) GAH! PHYSICS EXPLODING!
(19:48:30) Process Terminated
(20:23:52) Properties loaded, and saved!
(20:23:52) You should enable "check-update" in server.properties
(20:23:53) Level initialized
(20:23:53) Level "main" loaded.
(20:23:53) Creating listening socket on port 31415... 
(20:23:53) Checking if port is forwarded...
(20:23:54) Port 31415 is closed!
(20:23:54) Done.
(20:23:54) MJS --> Event ServerStart was triggered with parameters: 
(20:23:54) Connecting to IRC
(20:23:55) Connected to IRC
(20:23:55) Joining channel
(20:23:55) MCQuai has joined the IRC
(20:23:56) 127.0.0.1 logging in as quaisaq.
(20:23:56) MJS --> Event PlayerJoin was triggered with parameters: player $player quaisaq
(20:24:08) quaisaq uses /restore 
(20:24:08) levels/backup/main\1
(20:24:08) An Error occured! For more information, go to System Logs tab
(20:24:14) quaisaq disconnected.
(20:24:17) GAH! PHYSICS EXPLODING!
(20:27:32) Properties loaded, and saved!
(20:27:32) You should enable "check-update" in server.properties
(20:27:33) Level initialized
(20:27:33) Level "main" loaded.
(20:27:33) Creating listening socket on port 31415... 
(20:27:33) Checking if port is forwarded...
(20:27:34) Port 31415 is closed!
(20:27:34) Done.
(20:27:34) MJS --> Event ServerStart was triggered with parameters: 
(20:27:34) Connecting to IRC
(20:27:35) Connected to IRC
(20:27:35) Joining channel
(20:27:36) 127.0.0.1 logging in as quaisaq.
(20:27:36) MCQuai has joined the IRC
(20:27:36) MJS --> Event PlayerJoin was triggered with parameters: player $player quaisaq
(20:30:03) quaisaq uses /restore 
(20:30:03) levels/backup/main\1
(20:30:03) An Error occured! For more information, go to System Logs tab
(20:31:09) quaisaq disconnected.
(20:31:09) GAH! PHYSICS EXPLODING!
(20:31:09) Process Terminated
(20:31:13) Properties loaded, and saved!
(20:31:13) You should enable "check-update" in server.properties
(20:31:13) Level initialized
(20:31:14) Level "main" loaded.
(20:31:14) Creating listening socket on port 31415... 
(20:31:14) Checking if port is forwarded...
(20:31:15) Port 31415 is closed!
(20:31:15) Done.
(20:31:15) MJS --> Event ServerStart was triggered with parameters: 
(20:31:16) Connecting to IRC
(20:31:16) Connected to IRC
(20:31:16) Joining channel
(20:31:18) MCQuai has joined the IRC
(20:31:19) 127.0.0.1 logging in as quaisaq.
(20:31:19) MJS --> Event PlayerJoin was triggered with parameters: player $player quaisaq
(20:31:24) quaisaq uses /restore 
(20:31:24) An Error occured! For more information, go to System Logs tab
(20:32:42) quaisaq disconnected.
(20:32:42) GAH! PHYSICS EXPLODING!
(20:32:42) Process Terminated
(20:32:46) Properties loaded, and saved!
(20:32:46) You should enable "check-update" in server.properties
(20:32:47) Level initialized
(20:32:47) Level "main" loaded.
(20:32:47) Creating listening socket on port 31415... 
(20:32:47) Checking if port is forwarded...
(20:32:49) Port 31415 is closed!
(20:32:49) Done.
(20:32:49) MJS --> Event ServerStart was triggered with parameters: 
(20:32:49) Connecting to IRC
(20:32:50) Connected to IRC
(20:32:50) Joining channel
(20:32:51) MCQuai has joined the IRC
(20:32:52) 127.0.0.1 logging in as quaisaq.
(20:32:52) MJS --> Event PlayerJoin was triggered with parameters: player $player quaisaq
(20:32:54) quaisaq uses /restore 
(20:32:54) levels/backup/main\1
(20:32:54) An Error occured! For more information, go to System Logs tab
(20:34:33) quaisaq disconnected.
(20:34:33) GAH! PHYSICS EXPLODING!
(20:34:33) Process Terminated
(20:34:39) Properties loaded, and saved!
(20:34:39) You should enable "check-update" in server.properties
(20:34:41) Level initialized
(20:34:41) Level "main" loaded.
(20:34:41) Creating listening socket on port 31415... 
(20:34:41) Checking if port is forwarded...
(20:34:43) Port 31415 is closed!
(20:34:43) Done.
(20:34:43) MJS --> Event ServerStart was triggered with parameters: 
(20:34:43) Connecting to IRC
(20:34:43) Connected to IRC
(20:34:44) Joining channel
(20:34:45) 127.0.0.1 logging in as quaisaq.
(20:34:45) MCQuai has joined the IRC
(20:34:45) MJS --> Event PlayerJoin was triggered with parameters: player $player quaisaq
(20:34:53) quaisaq uses /restore 
(20:34:53) s/backup/main\1
(20:34:53) An Error occured! For more information, go to System Logs tab
(20:35:58) quaisaq disconnected.
(20:35:58) GAH! PHYSICS EXPLODING!
(20:36:06) Properties loaded, and saved!
(20:36:06) You should enable "check-update" in server.properties
(20:36:08) Level initialized
(20:36:08) Level "main" loaded.
(20:36:08) Creating listening socket on port 31415... 
(20:36:08) Checking if port is forwarded...
(20:36:10) Port 31415 is closed!
(20:36:10) Done.
(20:36:10) MJS --> Event ServerStart was triggered with parameters: 
(20:36:10) Connecting to IRC
(20:36:11) Connected to IRC
(20:36:11) Joining channel
(20:36:12) 127.0.0.1 logging in as quaisaq.
(20:36:12) MCQuai has joined the IRC
(20:36:13) MJS --> Event PlayerJoin was triggered with parameters: player $player quaisaq
(20:36:14) quaisaq uses /restore 
(20:36:14) \1
(20:36:14) An Error occured! For more information, go to System Logs tab
(20:37:07) quaisaq disconnected.
(20:37:08) GAH! PHYSICS EXPLODING!
(20:37:27) Properties loaded, and saved!
(20:37:27) You should enable "check-update" in server.properties
(20:37:28) Level initialized
(20:37:28) Level "main" loaded.
(20:37:28) Creating listening socket on port 31415... 
(20:37:28) Checking if port is forwarded...
(20:37:29) Port 31415 is closed!
(20:37:29) Done.
(20:37:29) MJS --> Event ServerStart was triggered with parameters: 
(20:37:29) Connecting to IRC
(20:37:30) Connected to IRC
(20:37:30) Joining channel
(20:37:31) MCQuai has joined the IRC
(20:37:31) 127.0.0.1 logging in as quaisaq.
(20:37:32) MJS --> Event PlayerJoin was triggered with parameters: player $player quaisaq
(20:37:35) quaisaq uses /resotre 
(20:37:35) An Error occured! For more information, go to System Logs tab
(20:38:12) quaisaq disconnected.
(20:38:12) GAH! PHYSICS EXPLODING!
(20:38:18) Properties loaded, and saved!
(20:38:18) You should enable "check-update" in server.properties
(20:38:19) Level initialized
(20:38:19) Level "main" loaded.
(20:38:19) Creating listening socket on port 31415... 
(20:38:19) Checking if port is forwarded...
(20:38:20) Port 31415 is closed!
(20:38:20) Done.
(20:38:21) 127.0.0.1 logging in as quaisaq.
(20:38:21) MJS --> Event ServerStart was triggered with parameters: 
(20:38:22) Connecting to IRC
(20:38:22) MJS --> Event PlayerJoin was triggered with parameters: player $player quaisaq
(20:38:22) Connected to IRC
(20:38:22) Joining channel
(20:38:24) MCQuai has joined the IRC
(20:38:26) quaisaq uses /resore 
(20:38:26) 21
(20:38:26) An Error occured! For more information, go to System Logs tab
(20:38:36) quaisaq disconnected.
(20:38:36) GAH! PHYSICS EXPLODING!
(20:40:28) Properties loaded, and saved!
(20:40:28) You should enable "check-update" in server.properties
(20:40:29) Level initialized
(20:40:29) Level "main" loaded.
(20:40:29) Creating listening socket on port 31415... 
(20:40:29) Checking if port is forwarded...
(20:40:30) Port 31415 is closed!
(20:40:30) Done.
(20:40:30) MJS --> Event ServerStart was triggered with parameters: 
(20:40:31) Connecting to IRC
(20:40:31) Connected to IRC
(20:40:31) Joining channel
(20:40:31) 127.0.0.1 logging in as quaisaq.
(20:40:32) MJS --> Event PlayerJoin was triggered with parameters: player $player quaisaq
(20:40:32) MCQuai has joined the IRC
(20:40:36) quaisaq uses /restore 
(20:40:41) quaisaq disconnected.
(20:40:45) GAH! PHYSICS EXPLODING!
(20:40:52) Properties loaded, and saved!
(20:40:52) You should enable "check-update" in server.properties
(20:40:53) Level initialized
(20:40:53) Level "main" loaded.
(20:40:53) Creating listening socket on port 31415... 
(20:40:53) Checking if port is forwarded...
(20:40:54) Process Terminated
(20:41:02) Properties loaded, and saved!
(20:41:02) You should enable "check-update" in server.properties
(20:41:03) Level initialized
(20:41:03) Level "main" loaded.
(20:41:03) Creating listening socket on port 31415... 
(20:41:03) Checking if port is forwarded...
(20:41:04) Port 31415 is closed!
(20:41:04) Done.
(20:41:05) MJS --> Event ServerStart was triggered with parameters: 
(20:41:05) Connecting to IRC
(20:41:06) Connected to IRC
(20:41:06) Joining channel
(20:41:07) MCQuai has joined the IRC
(20:41:08) 127.0.0.1 logging in as quaisaq.
(20:41:09) MJS --> Event PlayerJoin was triggered with parameters: player $player quaisaq
(20:41:10) quaisaq uses /restore 
(20:41:17) quaisaq disconnected.
(20:41:17) GAH! PHYSICS EXPLODING!
(20:41:17) Process Terminated
(20:43:11) Properties loaded, and saved!
(20:43:11) You should enable "check-update" in server.properties
(20:43:12) Level initialized
(20:43:12) Level "main" loaded.
(20:43:12) Creating listening socket on port 31415... 
(20:43:12) Checking if port is forwarded...
(20:43:13) Port 31415 is closed!
(20:43:13) Done.
(20:43:13) MJS --> Event ServerStart was triggered with parameters: 
(20:43:14) Connecting to IRC
(20:43:14) Connected to IRC
(20:43:14) Joining channel
(20:43:16) 127.0.0.1 logging in as quaisaq.
(20:43:16) MCQuai has joined the IRC
(20:43:17) MJS --> Event PlayerJoin was triggered with parameters: player $player quaisaq
(20:43:27) quaisaq disconnected.
(20:43:30) 127.0.0.1 logging in as quaisaq.
(20:43:30) MJS --> Event PlayerJoin was triggered with parameters: player $player quaisaq
(20:43:56) quaisaq disconnected.
(20:43:58) GAH! PHYSICS EXPLODING!
(20:44:38) Properties loaded, and saved!
(20:44:38) You should enable "check-update" in server.properties
(20:44:38) Level initialized
(20:44:39) Level "main" loaded.
(20:44:39) Creating listening socket on port 31415... 
(20:44:39) Checking if port is forwarded...
(20:44:40) Port 31415 is closed!
(20:44:40) Done.
(20:44:40) MJS --> Event ServerStart was triggered with parameters: 
(20:44:40) Connecting to IRC
(20:44:40) Connected to IRC
(20:44:40) Joining channel
(20:44:41) GAH! PHYSICS EXPLODING!
(20:44:41) Process Terminated
(20:46:53) Properties loaded, and saved!
(20:46:53) You should enable "check-update" in server.properties
(20:46:54) Level initialized
(20:46:54) Level "main" loaded.
(20:46:54) Creating listening socket on port 31415... 
(20:46:54) Checking if port is forwarded...
(20:46:55) Port 31415 is closed!
(20:46:55) Done.
(20:46:55) MJS --> Event ServerStart was triggered with parameters: 
(20:46:55) Connecting to IRC
(20:46:56) Connected to IRC
(20:46:56) Joining channel
(20:46:57) MCQuai has joined the IRC
(20:47:11) 127.0.0.1 logging in as quaisaq.
(20:47:11) MJS --> Event PlayerJoin was triggered with parameters: player $player quaisaq
(20:48:10) quaisaq disconnected.
(20:48:11) GAH! PHYSICS EXPLODING!
(20:52:56) Properties loaded, and saved!
(20:52:56) You should enable "check-update" in server.properties
(20:52:57) Level initialized
(20:52:57) Level "main" loaded.
(20:52:57) Creating listening socket on port 31415... 
(20:52:57) Checking if port is forwarded...
(20:52:58) MJS --> Event ServerStart was triggered with parameters: 
(20:52:58) Port 31415 is closed!
(20:52:58) Done.
(20:52:58) Connecting to IRC
(20:52:58) Connected to IRC
(20:52:58) Joining channel
(20:52:59) MCQuai has joined the IRC
(20:53:06) GAH! PHYSICS EXPLODING!
(20:53:06) Process Terminated
(20:53:20) Properties loaded, and saved!
(20:53:21) You should enable "check-update" in server.properties
(20:53:21) Level initialized
(20:53:21) Level "main" loaded.
(20:53:21) Creating listening socket on port 31415... 
(20:53:21) Checking if port is forwarded...
(20:53:22) Port 31415 is closed!
(20:53:22) Done.
(20:53:23) MJS --> Event ServerStart was triggered with parameters: 
(20:53:23) Connecting to IRC
(20:53:23) Connected to IRC
(20:53:23) Joining channel
(20:53:24) MCQuai has joined the IRC
(20:53:42) 127.0.0.1 logging in as quaisaq.
(20:53:43) MJS --> Event PlayerJoin was triggered with parameters: player $player quaisaq
(20:54:21) quaisaq disconnected.
(20:54:23) GAH! PHYSICS EXPLODING!
(20:54:23) Process Terminated
(20:56:09) Properties loaded, and saved!
(20:56:09) You should enable "check-update" in server.properties
(20:56:10) Level initialized
(20:56:10) Level "main" loaded.
(20:56:10) Creating listening socket on port 31415... 
(20:56:10) Checking if port is forwarded...
(20:56:11) Port 31415 is closed!
(20:56:11) Done.
(20:56:11) MJS --> Event ServerStart was triggered with parameters: 
(20:56:11) Connecting to IRC
(20:56:11) Connected to IRC
(20:56:11) Joining channel
(20:56:12) MCQuai has joined the IRC
(20:56:20) GAH! PHYSICS EXPLODING!
(20:56:20) Process Terminated
(21:01:34) Properties loaded, and saved!
(21:01:34) You should enable "check-update" in server.properties
(21:01:35) Level initialized
(21:01:35) Level "main" loaded.
(21:01:35) Creating listening socket on port 31415... 
(21:01:35) Checking if port is forwarded...
(21:01:36) An Error occured! For more information, go to System Logs tab
(21:01:36) MJS --> Event ServerStart was triggered with parameters: 
(21:01:37) Port 31415 is closed!
(21:01:37) Done.
(21:01:37) Connecting to IRC
(21:01:37) Connected to IRC
(21:01:37) Joining channel
(21:01:37) MCQuai has joined the IRC
(21:03:43) Properties loaded, and saved!
(21:03:43) You should enable "check-update" in server.properties
(21:03:44) Level initialized
(21:03:44) Level "main" loaded.
(21:03:44) Creating listening socket on port 31415... 
(21:03:44) Checking if port is forwarded...
(21:03:45) Port 31415 is closed!
(21:03:45) Done.
(21:03:45) MJS --> Event ServerStart was triggered with parameters: 
(21:03:46) Connecting to IRC
(21:03:46) Connected to IRC
(21:03:46) Joining channel
(21:03:46) MCQuai has joined the IRC
(21:04:04) GAH! PHYSICS EXPLODING!
(21:04:46) Properties loaded, and saved!
(21:04:46) You should enable "check-update" in server.properties
(21:04:47) Level initialized
(21:04:47) Level "main" loaded.
(21:04:47) Creating listening socket on port 31415... 
(21:04:47) Checking if port is forwarded...
(21:04:48) Port 31415 is closed!
(21:04:48) Done.
(21:04:48) MJS --> Event ServerStart was triggered with parameters: 
(21:04:48) Connecting to IRC
(21:04:48) Connected to IRC
(21:04:48) Joining channel
(21:04:49) MCQuai has joined the IRC
(21:04:49) GAH! PHYSICS EXPLODING!
(21:04:49) Process Terminated
(21:04:55) Properties loaded, and saved!
(21:04:55) You should enable "check-update" in server.properties
(21:04:56) Level initialized
(21:04:56) Level "main" loaded.
(21:04:56) Creating listening socket on port 31415... 
(21:04:56) Checking if port is forwarded...
(21:04:57) Port 31415 is closed!
(21:04:57) Done.
(21:04:57) MJS --> Event ServerStart was triggered with parameters: 
(21:04:57) Connecting to IRC
(21:04:58) Connected to IRC
(21:04:58) Joining channel
(21:04:58) MCQuai has joined the IRC
(21:04:59) 127.0.0.1 logging in as quaisaq.
(21:04:59) MJS --> Event PlayerJoin was triggered with parameters: player $player quaisaq
(21:05:07) quaisaq disconnected.
(21:06:24) Properties loaded, and saved!
(21:06:24) You should enable "check-update" in server.properties
(21:06:24) Level initialized
(21:06:24) Level "main" loaded.
(21:06:24) Creating listening socket on port 31415... 
(21:06:24) Checking if port is forwarded...
(21:06:25) Port 31415 is closed!
(21:06:25) Done.
(21:06:26) MJS --> Event ServerStart was triggered with parameters: 
(21:06:26) Connecting to IRC
(21:06:26) Connected to IRC
(21:06:26) Joining channel
(21:06:27) MCQuai has joined the IRC
(21:06:54) GAH! PHYSICS EXPLODING!
(21:07:11) Properties loaded, and saved!
(21:07:11) You should enable "check-update" in server.properties
(21:07:12) Level initialized
(21:07:12) Level "main" loaded.
(21:07:12) Creating listening socket on port 31415... 
(21:07:12) Checking if port is forwarded...
(21:07:13) Port 31415 is closed!
(21:07:13) Done.
(21:07:13) MJS --> Event ServerStart was triggered with parameters: 
(21:07:13) Connecting to IRC
(21:07:13) Connected to IRC
(21:07:13) Joining channel
(21:07:14) 127.0.0.1 logging in as quaisaq.
(21:07:14) MCQuai has joined the IRC
(21:07:14) MJS --> Event PlayerJoin was triggered with parameters: player $player quaisaq
(21:07:19) quaisaq disconnected.
(21:08:16) GAH! PHYSICS EXPLODING!
(21:08:16) Process Terminated
(21:08:39) Properties loaded, and saved!
(21:08:39) You should enable "check-update" in server.properties
(21:08:40) Level initialized
(21:08:40) Level "main" loaded.
(21:08:40) Creating listening socket on port 31415... 
(21:08:40) Checking if port is forwarded...
(21:08:41) Port 31415 is closed!
(21:08:41) Done.
(21:08:42) MJS --> Event ServerStart was triggered with parameters: 
(21:08:42) Connecting to IRC
(21:08:42) Connected to IRC
(21:08:42) Joining channel
(21:08:43) MCQuai has joined the IRC
(21:09:01) 127.0.0.1 logging in as quaisaq.
(21:09:02) MJS --> Event PlayerJoin was triggered with parameters: player $player quaisaq
(21:09:04) quaisaq disconnected.
(21:09:57) GAH! PHYSICS EXPLODING!
(21:09:57) Process Terminated
(21:10:36) Properties loaded, and saved!
(21:10:36) You should enable "check-update" in server.properties
(21:10:37) Level initialized
(21:10:37) Level "main" loaded.
(21:10:37) Creating listening socket on port 31415... 
(21:10:37) Checking if port is forwarded...
(21:10:38) Port 31415 is closed!
(21:10:38) Done.
(21:10:40) MJS --> Event ServerStart was triggered with parameters: 
(21:10:40) Connecting to IRC
(21:10:40) Connected to IRC
(21:10:40) Joining channel
(21:10:40) MCQuai has joined the IRC
(21:10:41) GAH! PHYSICS EXPLODING!
(21:10:57) Properties loaded, and saved!
(21:10:57) You should enable "check-update" in server.properties
(21:10:57) Level initialized
(21:10:57) Level "main" loaded.
(21:10:57) Creating listening socket on port 31415... 
(21:10:57) Checking if port is forwarded...
(21:10:58) Port 31415 is closed!
(21:10:58) Done.
(21:11:00) MJS --> Event ServerStart was triggered with parameters: 
(21:11:00) Connecting to IRC
(21:11:00) Connected to IRC
(21:11:00) Joining channel
(21:11:01) MCQuai has joined the IRC
(21:11:18) 127.0.0.1 logging in as quaisaq.
(21:11:18) MJS --> Event PlayerJoin was triggered with parameters: player $player quaisaq
(21:11:19) quaisaq disconnected.
(21:11:28) GAH! PHYSICS EXPLODING!
(21:46:19) Properties loaded, and saved!
(21:46:19) You should enable "check-update" in server.properties
(21:46:20) Level initialized
(21:46:20) Level "main" loaded.
(21:46:20) Creating listening socket on port 31415... 
(21:46:20) Checking if port is forwarded...
(21:46:22) MJS --> Event ServerStart was triggered with parameters: 
(21:46:24) Port 31415 is closed!
(21:46:24) Done.
(21:46:25) Connecting to IRC
(21:46:25) Process Terminated
