(14:02:04) Properties loaded, and saved!
(14:02:04) You should enable "check-update" in server.properties
(14:02:04) Incorrect value given for tnt, using default value.
(14:02:04) Level initialized
(14:02:05) Level "main" loaded.
(14:02:05) Creating listening socket on port 31415... 
(14:02:05) Checking if port is forwarded...
(14:02:06) It seems that minecraft.net is offline.
(14:02:06) Because of this, your server is not accessible,
(14:02:06) untill minecraft.net is back online.
(14:02:06) Though, WoM users are still able to connect.
(14:02:06) It seems that minecraft.net is offline.
(14:02:06) Because of this, your server is not accessible,
(14:02:06) untill minecraft.net is back online.
(14:02:06) Though, WoM users are still able to connect.
(14:02:06) It seems that minecraft.net is offline.
(14:02:06) Because of this, your server is not accessible,
(14:02:06) untill minecraft.net is back online.
(14:02:06) Though, WoM users are still able to connect.
(14:02:06) An Error occured! For more information, go to System Logs tab
(14:02:06) It seems that minecraft.net is offline.
(14:02:06) Because of this, your server is not accessible,
(14:02:06) untill minecraft.net is back online.
(14:02:06) Though, WoM users are still able to connect.
(14:02:07) It seems that minecraft.net is offline.
(14:02:07) Because of this, your server is not accessible,
(14:02:07) untill minecraft.net is back online.
(14:02:07) Though, WoM users are still able to connect.
(14:02:07) It seems that minecraft.net is offline.
(14:02:07) Because of this, your server is not accessible,
(14:02:07) untill minecraft.net is back online.
(14:02:07) Though, WoM users are still able to connect.
(14:02:07) An Error occured! For more information, go to System Logs tab
(14:02:07) It seems that minecraft.net is offline.
(14:02:07) Because of this, your server is not accessible,
(14:02:07) untill minecraft.net is back online.
(14:02:07) Though, WoM users are still able to connect.
(14:02:07) It seems that minecraft.net is offline.
(14:02:07) Because of this, your server is not accessible,
(14:02:07) untill minecraft.net is back online.
(14:02:07) Though, WoM users are still able to connect.
(14:02:07) It seems that minecraft.net is offline.
(14:02:07) Because of this, your server is not accessible,
(14:02:07) untill minecraft.net is back online.
(14:02:07) Though, WoM users are still able to connect.
(14:02:07) An Error occured! For more information, go to System Logs tab
(14:02:07) MJS --> Event ServerStart was triggered with parameters: 
(14:02:08) Port 31415 is closed!
(14:02:09) Done.
(14:03:00) It seems that minecraft.net is offline.
(14:03:01) Because of this, your server is not accessible,
(14:03:01) untill minecraft.net is back online.
(14:03:01) Though, WoM users are still able to connect.
(14:03:02) It seems that minecraft.net is offline.
(14:03:02) Because of this, your server is not accessible,
(14:03:02) untill minecraft.net is back online.
(14:03:02) Though, WoM users are still able to connect.
(14:03:02) It seems that minecraft.net is offline.
(14:03:02) Because of this, your server is not accessible,
(14:03:02) untill minecraft.net is back online.
(14:03:02) Though, WoM users are still able to connect.
(14:03:02) An Error occured! For more information, go to System Logs tab
(14:03:02) It seems that minecraft.net is offline.
(14:03:02) Because of this, your server is not accessible,
(14:03:02) untill minecraft.net is back online.
(14:03:02) Though, WoM users are still able to connect.
(14:03:02) It seems that minecraft.net is offline.
(14:03:02) Because of this, your server is not accessible,
(14:03:02) untill minecraft.net is back online.
(14:03:02) Though, WoM users are still able to connect.
(14:03:03) It seems that minecraft.net is offline.
(14:03:03) Because of this, your server is not accessible,
(14:03:03) untill minecraft.net is back online.
(14:03:03) Though, WoM users are still able to connect.
(14:03:03) An Error occured! For more information, go to System Logs tab
(14:03:03) It seems that minecraft.net is offline.
(14:03:03) Because of this, your server is not accessible,
(14:03:03) untill minecraft.net is back online.
(14:03:03) Though, WoM users are still able to connect.
(14:03:03) It seems that minecraft.net is offline.
(14:03:03) Because of this, your server is not accessible,
(14:03:03) untill minecraft.net is back online.
(14:03:03) Though, WoM users are still able to connect.
(14:03:03) It seems that minecraft.net is offline.
(14:03:03) Because of this, your server is not accessible,
(14:03:03) untill minecraft.net is back online.
(14:03:03) Though, WoM users are still able to connect.
(14:03:03) An Error occured! For more information, go to System Logs tab
(14:03:10) GAH! PHYSICS EXPLODING!
(14:05:21) Properties loaded, and saved!
(14:05:21) You should enable "check-update" in server.properties
(14:05:22) Incorrect value given for tnt, using default value.
(14:05:22) Level initialized
(14:05:22) Level "main" loaded.
(14:05:22) Creating listening socket on port 31415... 
(14:05:22) Checking if port is forwarded...
(14:05:23) It seems that minecraft.net is offline.
(14:05:23) Because of this, your server is not accessible,
(14:05:23) untill minecraft.net is back online.
(14:05:23) Though, WoM users are still able to connect.
(14:05:23) It seems that minecraft.net is offline.
(14:05:23) Because of this, your server is not accessible,
(14:05:23) untill minecraft.net is back online.
(14:05:23) Though, WoM users are still able to connect.
(14:05:23) It seems that minecraft.net is offline.
(14:05:23) Because of this, your server is not accessible,
(14:05:23) untill minecraft.net is back online.
(14:05:23) Though, WoM users are still able to connect.
(14:05:23) An Error occured! For more information, go to System Logs tab
(14:05:24) It seems that minecraft.net is offline.
(14:05:24) Because of this, your server is not accessible,
(14:05:24) untill minecraft.net is back online.
(14:05:24) Though, WoM users are still able to connect.
(14:05:24) It seems that minecraft.net is offline.
(14:05:24) Because of this, your server is not accessible,
(14:05:24) untill minecraft.net is back online.
(14:05:24) Though, WoM users are still able to connect.
(14:05:24) It seems that minecraft.net is offline.
(14:05:24) Because of this, your server is not accessible,
(14:05:24) untill minecraft.net is back online.
(14:05:24) Though, WoM users are still able to connect.
(14:05:24) An Error occured! For more information, go to System Logs tab
(14:05:24) It seems that minecraft.net is offline.
(14:05:24) Because of this, your server is not accessible,
(14:05:24) untill minecraft.net is back online.
(14:05:24) Though, WoM users are still able to connect.
(14:05:24) It seems that minecraft.net is offline.
(14:05:24) Because of this, your server is not accessible,
(14:05:24) untill minecraft.net is back online.
(14:05:24) Though, WoM users are still able to connect.
(14:05:24) It seems that minecraft.net is offline.
(14:05:24) Because of this, your server is not accessible,
(14:05:24) untill minecraft.net is back online.
(14:05:24) Though, WoM users are still able to connect.
(14:05:24) An Error occured! For more information, go to System Logs tab
(14:05:25) MJS --> Event ServerStart was triggered with parameters: 
(14:05:26) Port 31415 is closed!
(14:05:26) Done.
(14:05:28) GAH! PHYSICS EXPLODING!
(14:23:37) Properties loaded, and saved!
(14:23:37) You should enable "check-update" in server.properties
(14:23:37) Incorrect value given for tnt, using default value.
(14:23:37) Level initialized
(14:23:38) Level "main" loaded.
(14:23:38) Creating listening socket on port 31415... 
(14:23:38) Checking if port is forwarded...
(14:23:38) It seems that minecraft.net is offline.
(14:23:38) Because of this, your server is not accessible,
(14:23:38) untill minecraft.net is back online.
(14:23:38) Though, WoM users are still able to connect.
(14:23:39) It seems that minecraft.net is offline.
(14:23:39) Because of this, your server is not accessible,
(14:23:39) untill minecraft.net is back online.
(14:23:39) Though, WoM users are still able to connect.
(14:23:39) It seems that minecraft.net is offline.
(14:23:39) Because of this, your server is not accessible,
(14:23:39) untill minecraft.net is back online.
(14:23:39) Though, WoM users are still able to connect.
(14:23:40) MJS --> Event ServerStart was triggered with parameters: 
(14:23:41) Port 31415 is closed!
(14:23:41) Done.
(14:23:43) GAH! PHYSICS EXPLODING!
(14:23:43) Process Terminated
(14:23:45) Properties loaded, and saved!
(14:23:45) You should enable "check-update" in server.properties
(14:23:46) Incorrect value given for tnt, using default value.
(14:23:46) Level initialized
(14:23:46) Level "main" loaded.
(14:23:46) Creating listening socket on port 31415... 
(14:23:46) Checking if port is forwarded...
(14:23:47) It seems that minecraft.net is offline.
(14:23:47) Because of this, your server is not accessible,
(14:23:47) untill minecraft.net is back online.
(14:23:47) Though, WoM users are still able to connect.
(14:23:47) It seems that minecraft.net is offline.
(14:23:47) Because of this, your server is not accessible,
(14:23:47) untill minecraft.net is back online.
(14:23:47) Though, WoM users are still able to connect.
(14:23:47) It seems that minecraft.net is offline.
(14:23:47) Because of this, your server is not accessible,
(14:23:47) untill minecraft.net is back online.
(14:23:47) Though, WoM users are still able to connect.
(14:23:49) MJS --> Event ServerStart was triggered with parameters: 
(14:23:50) Port 31415 is closed!
(14:23:50) Done.
(14:24:42) It seems that minecraft.net is offline.
(14:24:42) Because of this, your server is not accessible,
(14:24:42) untill minecraft.net is back online.
(14:24:42) Though, WoM users are still able to connect.
(14:24:42) It seems that minecraft.net is offline.
(14:24:42) Because of this, your server is not accessible,
(14:24:42) untill minecraft.net is back online.
(14:24:42) Though, WoM users are still able to connect.
(14:24:42) It seems that minecraft.net is offline.
(14:24:42) Because of this, your server is not accessible,
(14:24:42) untill minecraft.net is back online.
(14:24:42) Though, WoM users are still able to connect.
(14:24:49) Process Terminated
(14:29:19) Properties loaded, and saved!
(14:29:19) You should enable "check-update" in server.properties
(14:29:19) Incorrect value given for tnt, using default value.
(14:29:20) Level initialized
(14:29:20) Level "main" loaded.
(14:29:20) Creating listening socket on port 31415... 
(14:29:20) Checking if port is forwarded...
(14:29:21) It seems that minecraft.net is offline.
(14:29:21) Because of this, your server is not accessible,
(14:29:21) untill minecraft.net is back online.
(14:29:21) Though, WoM users are still able to connect.
(14:29:21) It seems that minecraft.net is offline.
(14:29:21) Because of this, your server is not accessible,
(14:29:21) untill minecraft.net is back online.
(14:29:21) Though, WoM users are still able to connect.
(14:29:21) It seems that minecraft.net is offline.
(14:29:21) Because of this, your server is not accessible,
(14:29:21) untill minecraft.net is back online.
(14:29:21) Though, WoM users are still able to connect.
(14:29:23) MJS --> Event ServerStart was triggered with parameters: 
(14:29:23) Port 31415 is closed!
(14:29:23) Done.
(14:30:15) It seems that minecraft.net is offline.
(14:30:15) Because of this, your server is not accessible,
(14:30:15) untill minecraft.net is back online.
(14:30:15) Though, WoM users are still able to connect.
(14:30:16) It seems that minecraft.net is offline.
(14:30:16) Because of this, your server is not accessible,
(14:30:16) untill minecraft.net is back online.
(14:30:16) Though, WoM users are still able to connect.
(14:30:16) It seems that minecraft.net is offline.
(14:30:16) Because of this, your server is not accessible,
(14:30:16) untill minecraft.net is back online.
(14:30:16) Though, WoM users are still able to connect.
(14:31:10) It seems that minecraft.net is offline.
(14:31:10) Because of this, your server is not accessible,
(14:31:10) untill minecraft.net is back online.
(14:31:10) Though, WoM users are still able to connect.
(14:31:11) It seems that minecraft.net is offline.
(14:31:11) Because of this, your server is not accessible,
(14:31:11) untill minecraft.net is back online.
(14:31:11) Though, WoM users are still able to connect.
(14:31:12) It seems that minecraft.net is offline.
(14:31:12) Because of this, your server is not accessible,
(14:31:12) untill minecraft.net is back online.
(14:31:12) Though, WoM users are still able to connect.
(14:32:05) It seems that minecraft.net is offline.
(14:32:05) Because of this, your server is not accessible,
(14:32:05) untill minecraft.net is back online.
(14:32:05) Though, WoM users are still able to connect.
(14:32:06) It seems that minecraft.net is offline.
(14:32:06) Because of this, your server is not accessible,
(14:32:06) untill minecraft.net is back online.
(14:32:06) Though, WoM users are still able to connect.
(14:32:06) It seems that minecraft.net is offline.
(14:32:06) Because of this, your server is not accessible,
(14:32:06) untill minecraft.net is back online.
(14:32:06) Though, WoM users are still able to connect.
(14:32:24) GAH! PHYSICS EXPLODING!
(14:32:24) Process Terminated
