(08:22:24) Properties loaded, and saved!
(08:22:24) You should enable "check-update" in server.properties
(08:22:25) Level initialized
(08:22:25) Level "main" loaded.
(08:22:25) flat
(08:22:25) Creating listening socket on port 25565...
(08:22:25) Checking if port is forwarded...
(08:22:33) Port 25565 is closed!
(08:22:33) Trying to forward ports...
(08:22:33) Portforwarding failed.
(08:22:33) Make sure that UPnP is enabled in your router.
(08:22:33) Done.
(08:22:33) Shutting down...
(08:22:33) Closing forwarded ports...
(08:22:33) Process Terminated
