(21:36:07) Starting Server
(21:36:07) Properties loaded, and saved!
(21:36:07) You should enable "check-update" in server.properties
(21:36:08) Level initialized
(21:36:08) Level "main" loaded.
(21:36:08) Creating listening socket on port 31415... 
(21:36:08) Checking if port is forwarded...
(21:36:10) MJS --> Event ServerStart was triggered with parameters: 
(21:36:28) An Error occured! For more information go to System Logs tab
(21:36:29) An Error occured! For more information go to System Logs tab
(21:36:32) An Error occured! For more information go to System Logs tab
(21:36:32) An Error occured! For more information go to System Logs tab
(21:36:33) An Error occured! For more information go to System Logs tab
(21:36:33) An Error occured! For more information go to System Logs tab
(21:36:34) An Error occured! For more information go to System Logs tab
(21:36:34) Starting Server
(21:36:34) Properties loaded, and saved!
(21:36:35) You should enable "check-update" in server.properties
(21:36:35) Level initialized
(21:36:35) Level "main" loaded.
(21:36:35) Creating listening socket on port 31415... 
(21:36:35) Checking if port is forwarded...
(21:36:37) MJS --> Event ServerStart was triggered with parameters: 
(21:37:00) Port 31415 is closed!
(21:37:00) done
(21:37:05) GAH! PHYSICS EXPLODING!
(21:53:51) Starting Server
(21:53:51) Properties loaded, and saved!
(21:53:51) You should enable "check-update" in server.properties
(21:53:52) Level initialized
(21:53:52) Level "main" loaded.
(21:53:52) Creating listening socket on port 31415... 
(21:53:52) Checking if port is forwarded...
(21:53:53) Failed to load something.
(21:53:53) MJS --> Event ServerStart was triggered with parameters: 
(21:53:55) Port 31415 is closed!
(21:53:55) done
(21:53:59) An Error occured! For more information go to System Logs tab
(21:53:59) An Error occured! For more information go to System Logs tab
(21:54:00) An Error occured! For more information go to System Logs tab
(21:54:00) An Error occured! For more information go to System Logs tab
(21:54:01) An Error occured! For more information go to System Logs tab
(21:54:02) An Error occured! For more information go to System Logs tab
(21:54:02) An Error occured! For more information go to System Logs tab
(21:54:03) An Error occured! For more information go to System Logs tab
(21:54:05) Starting Server
(21:54:05) Properties loaded, and saved!
(21:54:05) You should enable "check-update" in server.properties
(21:54:05) Level initialized
(21:54:05) Level "main" loaded.
(21:54:05) Creating listening socket on port 31415... 
(21:54:06) Checking if port is forwarded...
(21:54:07) MJS --> Event ServerStart was triggered with parameters: 
(21:54:10) Port 31415 is closed!
(21:54:10) done
(21:54:16) GAH! PHYSICS EXPLODING!
(21:56:05) Starting Server
(21:56:05) Properties loaded, and saved!
(21:56:05) You should enable "check-update" in server.properties
(21:56:06) Level initialized
(21:56:06) Level "main" loaded.
(21:56:06) Creating listening socket on port 31415... 
(21:56:06) Checking if port is forwarded...
(21:56:07) MJS --> Event ServerStart was triggered with parameters: 
(21:56:10) Port 31415 is closed!
(21:56:10) done
(21:56:18) Failed to load something.
(21:56:24) GAH! PHYSICS EXPLODING!
(21:56:54) Starting Server
(21:56:54) Properties loaded, and saved!
(21:56:54) You should enable "check-update" in server.properties
(21:56:54) Level initialized
(21:56:54) Level "main" loaded.
(21:56:55) Creating listening socket on port 31415... 
(21:56:55) Checking if port is forwarded...
(21:56:56) MJS --> Event ServerStart was triggered with parameters: 
(21:56:58) Port 31415 is closed!
(21:56:58) done
(21:57:22) GAH! PHYSICS EXPLODING!
(21:58:58) Starting Server
(21:58:58) Properties loaded, and saved!
(21:58:58) You should enable "check-update" in server.properties
(21:58:59) Level initialized
(21:58:59) Level "main" loaded.
(21:58:59) Creating listening socket on port 31415... 
(21:58:59) Checking if port is forwarded...
(21:59:00) MJS --> Event ServerStart was triggered with parameters: 
(21:59:02) Port 31415 is closed!
(21:59:02) done
(21:59:51) GAH! PHYSICS EXPLODING!
(22:00:49) Starting Server
(22:00:49) Properties loaded, and saved!
(22:00:49) You should enable "check-update" in server.properties
(22:00:50) Level initialized
(22:00:50) Level "main" loaded.
(22:00:50) Creating listening socket on port 31415... 
(22:00:50) Checking if port is forwarded...
(22:00:52) MJS --> Event ServerStart was triggered with parameters: 
(22:00:54) Port 31415 is closed!
(22:00:54) done
(22:01:17) Properties saved, and loaded!
(22:01:22) GAH! PHYSICS EXPLODING!
(22:01:44) Starting Server
(22:01:44) Properties loaded, and saved!
(22:01:44) You should enable "check-update" in server.properties
(22:01:45) Level initialized
(22:01:45) Level "main" loaded.
(22:01:45) Creating listening socket on port 31415... 
(22:01:45) Checking if port is forwarded...
(22:01:46) MJS --> Event ServerStart was triggered with parameters: 
(22:01:50) Properties saved, and loaded!
(22:01:52) Port 31415 is closed!
(22:01:52) done
(22:02:37) Properties saved, and loaded!
(22:02:42) Properties saved, and loaded!
(22:05:05) GAH! PHYSICS EXPLODING!
(22:16:48) Starting Server
(22:16:48) Properties loaded, and saved!
(22:16:48) You should enable "check-update" in server.properties
(22:16:49) Level initialized
(22:16:49) Level "main" loaded.
(22:16:49) Creating listening socket on port 31415... 
(22:16:49) Checking if port is forwarded...
(22:16:51) MJS --> Event ServerStart was triggered with parameters: 
(22:16:53) Port 31415 is closed!
(22:16:53) done
(22:17:12) Properties saved, and loaded!
(22:17:20) Properties saved, and loaded!
(22:17:33) Properties saved, and loaded!
(22:17:54) GAH! PHYSICS EXPLODING!
(22:21:13) Starting Server
(22:21:13) Properties loaded, and saved!
(22:21:13) You should enable "check-update" in server.properties
(22:21:14) Level initialized
(22:21:14) Level "main" loaded.
(22:21:14) Creating listening socket on port 31415... 
(22:21:14) Checking if port is forwarded...
(22:21:15) MJS --> Event ServerStart was triggered with parameters: 
(22:21:24) An Error occured! For more information go to System Logs tab
(22:21:24) An Error occured! For more information go to System Logs tab
(22:21:30) Starting Server
(22:21:30) Properties loaded, and saved!
(22:21:30) You should enable "check-update" in server.properties
(22:21:30) Level initialized
(22:21:31) Level "main" loaded.
(22:21:31) Creating listening socket on port 31415... 
(22:21:31) Checking if port is forwarded...
(22:21:32) MJS --> Event ServerStart was triggered with parameters: 
(22:21:46) Port 31415 is closed!
(22:21:46) done
(22:22:09) GAH! PHYSICS EXPLODING!
(22:23:12) Starting Server
(22:23:12) Properties loaded, and saved!
(22:23:12) You should enable "check-update" in server.properties
(22:23:13) Level initialized
(22:23:13) Level "main" loaded.
(22:23:13) Creating listening socket on port 31415... 
(22:23:13) Checking if port is forwarded...
(22:23:14) MJS --> Event ServerStart was triggered with parameters: 
(22:23:26) GAH! PHYSICS EXPLODING!
