(16:33:02) Properties loaded, and saved!
(16:33:02) You should enable "check-update" in server.properties
(16:33:03) Level initialized
(16:33:03) Level "main" loaded.
(16:33:03) Creating listening socket on port 31415... 
(16:33:03) Checking if port is forwarded...
(16:33:05) MJS --> Event ServerStart was triggered with parameters: 
(16:33:07) 127.0.0.1 logging in as quaisaq.
(16:33:08) MJS --> Event PlayerJoin was triggered with parameters: player $player quaisaq
(16:33:16) Failed to check portforward.
(16:33:16) Check System Tab for more information.
(16:33:16) An Error occured! For more information, go to System Logs tab
(16:33:16) Done.
(16:33:23) 127.0.0.1 logging in as quaispet.
(16:33:25) MJS --> Event PlayerJoin was triggered with parameters: player $player quaispet
(16:33:31) quaispet uses /goto pix
(16:33:31) Level initialized
(16:33:32) Level "pix" loaded.
(16:33:46) quaisaq disconnected.
(16:33:47) quaispet disconnected.
(16:33:47) pix was unloaded.
(16:33:47) GAH! PHYSICS EXPLODING!
(16:34:11) Properties loaded, and saved!
(16:34:11) You should enable "check-update" in server.properties
(16:34:12) Level initialized
(16:34:12) Level "main" loaded.
(16:34:12) Creating listening socket on port 31415... 
(16:34:12) Checking if port is forwarded...
(16:34:14) MJS --> Event ServerStart was triggered with parameters: 
(16:34:15) 127.0.0.1 logging in as quaispet.
(16:34:16) MJS --> Event PlayerJoin was triggered with parameters: player $player quaispet
(16:34:16) Port 31415 is closed!
(16:34:16) Done.
(16:34:32) 127.0.0.1 logging in as quaisaq.
(16:34:32) MJS --> Event PlayerJoin was triggered with parameters: player $player quaisaq
(16:34:44) quaisaq uses /sendmap 
(16:34:50) quaisaq uses /sendmap quaispet
(16:34:59) quaisaq uses /sendmap quaispet pix
(16:34:59) Level initialized
(16:35:00) Level "pix" loaded.
(16:35:13) quaisaq uses /sendmap quaispet
(16:36:01) quaisaq disconnected.
(16:36:03) quaispet disconnected.
(16:36:04) GAH! PHYSICS EXPLODING!
(16:36:04) Process Terminated
(16:48:11) Properties loaded, and saved!
(16:48:11) You should enable "check-update" in server.properties
(16:48:11) Level initialized
(16:48:11) Level "main" loaded.
(16:48:12) Creating listening socket on port 31415... 
(16:48:12) Checking if port is forwarded...
(16:48:13) MJS --> Event ServerStart was triggered with parameters: 
(16:48:15) You cannot unload the main level.
(16:48:16) Port 31415 is closed!
(16:48:16) Done.
(16:48:18) SAVED: Level "main". 0/0/20
(16:48:18) And backed up
(16:48:21) main visit permission changed to guest.
(16:48:24) main visit permission changed to banned.
(16:48:30) 127.0.0.1 logging in as quaisaq.
(16:48:30) MJS --> Event PlayerJoin was triggered with parameters: player $player quaisaq
(16:48:49) quaisaq kicked (You were kicked by God!).
(16:48:55) 127.0.0.1 logging in as quaisaq.
(16:48:55) MJS --> Event PlayerJoin was triggered with parameters: player $player quaisaq
(16:50:53) Properties loaded, and saved!
(16:50:53) You should enable "check-update" in server.properties
(16:50:54) Level initialized
(16:50:54) Level "main" loaded.
(16:50:54) Creating listening socket on port 31415... 
(16:50:54) Checking if port is forwarded...
(16:50:56) MJS --> Event ServerStart was triggered with parameters: 
(16:50:59) Port 31415 is closed!
(16:50:59) Done.
(16:55:16) Properties loaded, and saved!
(16:55:16) You should enable "check-update" in server.properties
(16:55:17) Level initialized
(16:55:17) Level "main" loaded.
(16:55:17) Creating listening socket on port 31415... 
(16:55:17) Checking if port is forwarded...
(16:55:18) MJS --> Event ServerStart was triggered with parameters: 
(16:55:21) Failed to load something.
(16:55:21) Port 31415 is closed!
(16:55:21) Done.
(16:55:25) GAH! PHYSICS EXPLODING!
(16:55:25) Process Terminated
(16:57:30) Properties loaded, and saved!
(16:57:30) You should enable "check-update" in server.properties
(16:57:31) Level initialized
(16:57:31) Level "main" loaded.
(16:57:31) Creating listening socket on port 31415... 
(16:57:31) Checking if port is forwarded...
(16:57:32) Failed to load something.
(16:57:32) MJS --> Event ServerStart was triggered with parameters: 
(16:57:34) Port 31415 is closed!
(16:57:34) Done.
(16:57:36) An Error occured! For more information, go to System Logs tab
(16:57:37) An Error occured! For more information, go to System Logs tab
(16:58:01) GAH! PHYSICS EXPLODING!
(16:58:01) Process Terminated
(16:58:15) Properties loaded, and saved!
(16:58:15) You should enable "check-update" in server.properties
(16:58:16) Level initialized
(16:58:16) Level "main" loaded.
(16:58:16) Creating listening socket on port 31415... 
(16:58:16) Checking if port is forwarded...
(16:58:17) MJS --> Event ServerStart was triggered with parameters: 
(16:58:19) 127.0.0.1 logging in as quaisaq.
(16:58:19) Port 31415 is closed!
(16:58:19) Done.
(16:58:21) MJS --> Event PlayerJoin was triggered with parameters: player $player quaisaq
(16:58:28) Sent &6quaisaq&e to main
(16:58:40) quaisaq disconnected.
(16:58:43) GAH! PHYSICS EXPLODING!
(16:58:43) Process Terminated
(17:00:13) Properties loaded, and saved!
(17:00:13) You should enable "check-update" in server.properties
(17:00:14) Level initialized
(17:00:14) Level "main" loaded.
(17:00:14) Creating listening socket on port 31415... 
(17:00:14) Checking if port is forwarded...
(17:00:15) MJS --> Event ServerStart was triggered with parameters: 
(17:00:17) 127.0.0.1 logging in as quaisaq.
(17:00:17) MJS --> Event PlayerJoin was triggered with parameters: player $player quaisaq
(17:00:19) Port 31415 is closed!
(17:00:19) Done.
(17:00:37) quaisaq uses /load pix
(17:00:37) Level initialized
(17:00:37) Level "pix" loaded.
(17:00:46) Sent quaisaq to pix
(17:00:51) Sent quaisaq to main
(17:00:57) pix was unloaded.
(17:01:09) quaisaq disconnected.
(17:01:09) GAH! PHYSICS EXPLODING!
(17:01:09) Process Terminated
(17:37:45) Properties loaded, and saved!
(17:37:45) You should enable "check-update" in server.properties
(17:37:46) Level initialized
(17:37:46) Level "main" loaded.
(17:37:46) Creating listening socket on port 31415... 
(17:37:46) Checking if port is forwarded...
(17:37:48) MJS --> Event ServerStart was triggered with parameters: 
(17:37:49) 127.0.0.1 logging in as quaisaq.
(17:37:49) MJS --> Event PlayerJoin was triggered with parameters: player $player quaisaq
(17:37:50) Port 31415 is closed!
(17:37:50) Done.
(17:37:54) quaisaq uses /botadd lol
(17:37:59) quaisaq uses /botdel lol
(17:38:12) quaisaq uses /botset hunt
(17:38:20) quaisaq uses /botset lol hunt
(17:38:26) quaisaq uses /butset lol
(17:38:33) quaisaq uses /botremove lol
(17:38:36) quaisaq disconnected.
(17:38:40) 127.0.0.1 logging in as quaisaq.
(17:38:41) MJS --> Event PlayerJoin was triggered with parameters: player $player quaisaq
(17:38:49) 127.0.0.1 logging in as quaisaq.
(17:39:50) 127.0.0.1 logging in as quaispet.
(17:39:52) MJS --> Event PlayerJoin was triggered with parameters: player $player quaispet
(17:42:46) quaispet disconnected.
(17:42:53) 127.0.0.1 logging in as quaispet.
(17:42:53) MJS --> Event PlayerJoin was triggered with parameters: player $player quaispet
(17:43:00) quaisaq uses /kick 
(17:43:05) quaisaq uses /kick quaispet
(17:43:13) quaispet kicked (You were kicked by God!).
(17:43:18) quaisaq disconnected.
(17:43:18) GAH! PHYSICS EXPLODING!
(19:03:55) Properties loaded, and saved!
(19:03:55) You should enable "check-update" in server.properties
(19:03:56) Level initialized
(19:03:56) Level "main" loaded.
(19:03:56) Creating listening socket on port 31415... 
(19:03:56) Checking if port is forwarded...
(19:03:57) MJS --> Event ServerStart was triggered with parameters: 
(19:03:58) 127.0.0.1 logging in as quaispet.
(19:03:59) MJS --> Event PlayerJoin was triggered with parameters: player $player quaispet
(19:04:00) Port 31415 is closed!
(19:04:00) Done.
(19:04:06) quaispet uses /draw ellipse
(19:04:33) quaispet disconnected.
(19:04:35) GAH! PHYSICS EXPLODING!
(19:05:02) Properties loaded, and saved!
(19:05:02) You should enable "check-update" in server.properties
(19:05:02) Level initialized
(19:05:03) Level "main" loaded.
(19:05:03) Creating listening socket on port 31415... 
(19:05:03) Checking if port is forwarded...
(19:05:04) MJS --> Event ServerStart was triggered with parameters: 
(19:05:05) 127.0.0.1 logging in as quaispet.
(19:05:06) MJS --> Event PlayerJoin was triggered with parameters: player $player quaispet
(19:05:06) Port 31415 is closed!
(19:05:06) Done.
(19:05:08) quaispet disconnected.
(19:05:08) GAH! PHYSICS EXPLODING!
(19:05:08) Process Terminated
(19:05:37) Properties loaded, and saved!
(19:05:37) You should enable "check-update" in server.properties
(19:05:37) Level initialized
(19:05:38) Level "main" loaded.
(19:05:38) Creating listening socket on port 31415... 
(19:05:38) Checking if port is forwarded...
(19:05:39) MJS --> Event ServerStart was triggered with parameters: 
(19:05:41) Port 31415 is closed!
(19:05:41) Done.
(19:05:42) 127.0.0.1 logging in as quaispet.
(19:05:42) MJS --> Event PlayerJoin was triggered with parameters: player $player quaispet
(19:05:45) quaispet uses /draw ellipse
(19:05:50) quaispet has triggered a block change error
(19:05:50) An Error occured! For more information, go to System Logs tab
(19:08:41) quaispet disconnected.
(19:08:43) GAH! PHYSICS EXPLODING!
(19:08:43) Process Terminated
(19:13:10) Properties loaded, and saved!
(19:13:10) You should enable "check-update" in server.properties
(19:13:11) Level initialized
(19:13:11) Level "main" loaded.
(19:13:11) Creating listening socket on port 31415... 
(19:13:11) Checking if port is forwarded...
(19:13:12) MJS --> Event ServerStart was triggered with parameters: 
(19:13:14) 127.0.0.1 logging in as quaispet.
(19:13:14) MJS --> Event PlayerJoin was triggered with parameters: player $player quaispet
(19:13:15) Port 31415 is closed!
(19:13:15) Done.
(19:13:23) quaispet uses /draw ellipse
(19:13:30) quaispet disconnected.
(19:14:22) GAH! PHYSICS EXPLODING!
(19:14:22) Process Terminated
(19:17:54) Properties loaded, and saved!
(19:17:54) You should enable "check-update" in server.properties
(19:17:54) Level initialized
(19:17:54) Level "main" loaded.
(19:17:54) Creating listening socket on port 31415... 
(19:17:54) Checking if port is forwarded...
(19:17:56) MJS --> Event ServerStart was triggered with parameters: 
(19:17:57) 127.0.0.1 logging in as quaispet.
(19:17:57) MJS --> Event PlayerJoin was triggered with parameters: player $player quaispet
(19:17:58) Port 31415 is closed!
(19:17:58) Done.
(19:18:04) quaispet uses /draw ellipse
(19:18:26) quaispet disconnected.
(19:19:00) GAH! PHYSICS EXPLODING!
(19:19:01) Process Terminated
(19:19:03) Properties loaded, and saved!
(19:19:03) You should enable "check-update" in server.properties
(19:19:04) Level initialized
(19:19:04) Level "main" loaded.
(19:19:04) Creating listening socket on port 31415... 
(19:19:04) Checking if port is forwarded...
(19:19:06) MJS --> Event ServerStart was triggered with parameters: 
(19:19:06) 127.0.0.1 logging in as quaispet.
(19:19:07) MJS --> Event PlayerJoin was triggered with parameters: player $player quaispet
(19:19:08) Port 31415 is closed!
(19:19:08) Done.
(19:19:10) quaispet uses /draw ellipse
(19:19:16) quaispet disconnected.
(19:19:18) GAH! PHYSICS EXPLODING!
(19:19:32) Properties loaded, and saved!
(19:19:32) You should enable "check-update" in server.properties
(19:19:32) Level initialized
(19:19:33) Level "main" loaded.
(19:19:33) Creating listening socket on port 31415... 
(19:19:33) Checking if port is forwarded...
(19:19:34) MJS --> Event ServerStart was triggered with parameters: 
(19:19:36) 127.0.0.1 logging in as quaispet.
(19:19:36) Port 31415 is closed!
(19:19:36) Done.
(19:19:36) MJS --> Event PlayerJoin was triggered with parameters: player $player quaispet
(19:19:40) quaispet uses /draw ellipse
(19:19:49) quaispet disconnected.
(19:19:50) GAH! PHYSICS EXPLODING!
(19:19:50) Process Terminated
(19:20:11) Properties loaded, and saved!
(19:20:11) You should enable "check-update" in server.properties
(19:20:12) Level initialized
(19:20:12) Level "main" loaded.
(19:20:12) Creating listening socket on port 31415... 
(19:20:12) Checking if port is forwarded...
(19:20:13) MJS --> Event ServerStart was triggered with parameters: 
(19:20:14) 127.0.0.1 logging in as quaispet.
(19:20:15) MJS --> Event PlayerJoin was triggered with parameters: player $player quaispet
(19:20:15) Port 31415 is closed!
(19:20:15) Done.
(19:20:23) quaispet uses /draw ellipse
(19:20:28) quaispet disconnected.
(19:20:29) GAH! PHYSICS EXPLODING!
(19:21:57) Properties loaded, and saved!
(19:21:57) You should enable "check-update" in server.properties
(19:21:57) Level initialized
(19:21:58) Level "main" loaded.
(19:21:58) Creating listening socket on port 31415... 
(19:21:58) Checking if port is forwarded...
(19:21:59) MJS --> Event ServerStart was triggered with parameters: 
(19:22:00) 127.0.0.1 logging in as quaispet.
(19:22:00) MJS --> Event PlayerJoin was triggered with parameters: player $player quaispet
(19:22:01) Port 31415 is closed!
(19:22:02) Done.
(19:22:05) quaispet uses /draw ellipse
(19:22:31) quaispet disconnected.
(19:22:33) GAH! PHYSICS EXPLODING!
(19:22:41) Properties loaded, and saved!
(19:22:41) You should enable "check-update" in server.properties
(19:22:42) Level initialized
(19:22:42) Level "main" loaded.
(19:22:42) Creating listening socket on port 31415... 
(19:22:42) Checking if port is forwarded...
(19:22:43) MJS --> Event ServerStart was triggered with parameters: 
(19:22:44) 127.0.0.1 logging in as quaispet.
(19:22:45) MJS --> Event PlayerJoin was triggered with parameters: player $player quaispet
(19:22:46) Port 31415 is closed!
(19:22:46) Done.
(19:22:49) quaispet uses /draw ellipse
(19:23:06) quaispet disconnected.
(19:23:07) GAH! PHYSICS EXPLODING!
(19:23:14) Properties loaded, and saved!
(19:23:14) You should enable "check-update" in server.properties
(19:23:15) Level initialized
(19:23:15) Level "main" loaded.
(19:23:15) Creating listening socket on port 31415... 
(19:23:15) Checking if port is forwarded...
(19:23:16) MJS --> Event ServerStart was triggered with parameters: 
(19:23:18) 127.0.0.1 logging in as quaispet.
(19:23:18) MJS --> Event PlayerJoin was triggered with parameters: player $player quaispet
(19:23:18) Port 31415 is closed!
(19:23:18) Done.
(19:23:23) quaispet uses /draw ellipse
(19:23:37) quaispet disconnected.
(19:23:38) GAH! PHYSICS EXPLODING!
(19:23:45) Properties loaded, and saved!
(19:23:45) You should enable "check-update" in server.properties
(19:23:46) Level initialized
(19:23:46) Level "main" loaded.
(19:23:46) Creating listening socket on port 31415... 
(19:23:46) Checking if port is forwarded...
(19:23:47) MJS --> Event ServerStart was triggered with parameters: 
(19:23:48) 127.0.0.1 logging in as quaispet.
(19:23:49) MJS --> Event PlayerJoin was triggered with parameters: player $player quaispet
(19:23:49) Port 31415 is closed!
(19:23:49) Done.
(19:24:03) quaispet uses /draw ellipse
(19:24:15) quaispet disconnected.
(19:24:17) GAH! PHYSICS EXPLODING!
(19:24:17) Process Terminated
(19:24:49) Properties loaded, and saved!
(19:24:49) You should enable "check-update" in server.properties
(19:24:50) Level initialized
(19:24:50) Level "main" loaded.
(19:24:50) Creating listening socket on port 31415... 
(19:24:50) Checking if port is forwarded...
(19:24:52) MJS --> Event ServerStart was triggered with parameters: 
(19:24:52) 127.0.0.1 logging in as quaispet.
(19:24:53) MJS --> Event PlayerJoin was triggered with parameters: player $player quaispet
(19:24:54) Port 31415 is closed!
(19:24:54) Done.
(19:24:58) quaispet uses /draw ellipse
(19:25:03) quaispet disconnected.
(19:25:05) GAH! PHYSICS EXPLODING!
(19:25:05) Process Terminated
(19:25:14) Properties loaded, and saved!
(19:25:14) You should enable "check-update" in server.properties
(19:25:15) Level initialized
(19:25:15) Level "main" loaded.
(19:25:15) Creating listening socket on port 31415... 
(19:25:15) Checking if port is forwarded...
(19:25:16) MJS --> Event ServerStart was triggered with parameters: 
(19:25:18) 127.0.0.1 logging in as quaispet.
(19:25:19) MJS --> Event PlayerJoin was triggered with parameters: player $player quaispet
(19:25:19) Port 31415 is closed!
(19:25:19) Done.
(19:25:24) quaispet uses /draw ellipse
(19:25:40) quaispet uses /draw ellipse
(19:26:07) quaispet disconnected.
(19:26:09) GAH! PHYSICS EXPLODING!
(19:28:23) Properties loaded, and saved!
(19:28:23) You should enable "check-update" in server.properties
(19:28:23) Level initialized
(19:28:24) Level "main" loaded.
(19:28:24) Creating listening socket on port 31415... 
(19:28:24) Checking if port is forwarded...
(19:28:25) MJS --> Event ServerStart was triggered with parameters: 
(19:28:26) 127.0.0.1 logging in as quaispet.
(19:28:27) MJS --> Event PlayerJoin was triggered with parameters: player $player quaispet
(19:28:27) Port 31415 is closed!
(19:28:27) Done.
(19:28:32) quaispet uses /draw ellipse
(19:28:54) quaispet uses /draw ellipse
(19:29:13) quaispet uses /spheroid circle
(19:29:20) quaispet uses /spheroid circle stone
(19:29:24) quaispet uses /spheroid vertical
(19:29:29) quaispet uses /spheroid stone circle
(19:29:54) quaispet disconnected.
(19:29:56) GAH! PHYSICS EXPLODING!
(19:29:56) Process Terminated
(19:30:05) Properties loaded, and saved!
(19:30:05) You should enable "check-update" in server.properties
(19:30:06) Level initialized
(19:30:06) Level "main" loaded.
(19:30:06) Creating listening socket on port 31415... 
(19:30:06) Checking if port is forwarded...
(19:30:07) MJS --> Event ServerStart was triggered with parameters: 
(19:30:08) 127.0.0.1 logging in as quaispet.
(19:30:09) MJS --> Event PlayerJoin was triggered with parameters: player $player quaispet
(19:30:10) Port 31415 is closed!
(19:30:10) Done.
(19:30:12) quaispet uses /draw ellipse
(19:30:32) quaispet disconnected.
(19:30:33) GAH! PHYSICS EXPLODING!
(19:30:33) Process Terminated
(19:30:39) Properties loaded, and saved!
(19:30:39) You should enable "check-update" in server.properties
(19:30:40) Level initialized
(19:30:40) Level "main" loaded.
(19:30:40) Creating listening socket on port 31415... 
(19:30:40) Checking if port is forwarded...
(19:30:42) MJS --> Event ServerStart was triggered with parameters: 
(19:30:43) 127.0.0.1 logging in as quaispet.
(19:30:43) MJS --> Event PlayerJoin was triggered with parameters: player $player quaispet
(19:30:44) Port 31415 is closed!
(19:30:44) Done.
(19:30:48) quaispet uses /draw ellipse
(19:31:21) quaispet uses /draw ellipse
(19:31:30) quaispet disconnected.
(19:31:31) GAH! PHYSICS EXPLODING!
(19:31:31) Process Terminated
(19:31:53) Properties loaded, and saved!
(19:31:53) You should enable "check-update" in server.properties
(19:31:53) Level initialized
(19:31:54) Level "main" loaded.
(19:31:54) Creating listening socket on port 31415... 
(19:31:54) Checking if port is forwarded...
(19:31:55) MJS --> Event ServerStart was triggered with parameters: 
(19:31:56) 127.0.0.1 logging in as quaispet.
(19:31:57) MJS --> Event PlayerJoin was triggered with parameters: player $player quaispet
(19:31:57) Port 31415 is closed!
(19:31:57) Done.
(19:32:03) quaispet uses /draw ellipse
(19:32:09) quaispet uses /draw ellipse
(19:32:18) quaispet disconnected.
(19:32:19) GAH! PHYSICS EXPLODING!
(19:32:19) Process Terminated
(19:32:28) Properties loaded, and saved!
(19:32:28) You should enable "check-update" in server.properties
(19:32:29) Level initialized
(19:32:29) Level "main" loaded.
(19:32:29) Creating listening socket on port 31415... 
(19:32:29) Checking if port is forwarded...
(19:32:30) MJS --> Event ServerStart was triggered with parameters: 
(19:32:32) 127.0.0.1 logging in as quaispet.
(19:32:32) MJS --> Event PlayerJoin was triggered with parameters: player $player quaispet
(19:32:33) Port 31415 is closed!
(19:32:33) Done.
(19:32:35) quaispet uses /draw ellipse
(19:32:48) quaispet uses /draw ellipse
(19:33:13) quaispet disconnected.
(19:33:15) GAH! PHYSICS EXPLODING!
(19:33:15) Process Terminated
(19:33:47) Properties loaded, and saved!
(19:33:47) You should enable "check-update" in server.properties
(19:33:48) Level initialized
(19:33:48) Level "main" loaded.
(19:33:48) Creating listening socket on port 31415... 
(19:33:48) Checking if port is forwarded...
(19:33:50) MJS --> Event ServerStart was triggered with parameters: 
(19:33:52) GAH! PHYSICS EXPLODING!
(19:33:52) Process Terminated
(19:34:19) Properties loaded, and saved!
(19:34:19) You should enable "check-update" in server.properties
(19:34:20) Level initialized
(19:34:20) Level "main" loaded.
(19:34:20) Creating listening socket on port 31415... 
(19:34:20) Checking if port is forwarded...
(19:34:21) MJS --> Event ServerStart was triggered with parameters: 
(19:34:23) 127.0.0.1 logging in as quaispet.
(19:34:24) Port 31415 is closed!
(19:34:24) Done.
(19:34:24) MJS --> Event PlayerJoin was triggered with parameters: player $player quaispet
(19:34:28) quaispet uses /draw ellipse
(19:34:37) quaispet disconnected.
(19:34:38) GAH! PHYSICS EXPLODING!
(19:34:38) Process Terminated
(19:36:12) Properties loaded, and saved!
(19:36:12) You should enable "check-update" in server.properties
(19:36:13) Level initialized
(19:36:13) Level "main" loaded.
(19:36:13) Creating listening socket on port 31415... 
(19:36:13) Checking if port is forwarded...
(19:36:15) MJS --> Event ServerStart was triggered with parameters: 
(19:36:16) 127.0.0.1 logging in as quaispet.
(19:36:16) MJS --> Event PlayerJoin was triggered with parameters: player $player quaispet
(19:36:18) Port 31415 is closed!
(19:36:18) Done.
(19:36:20) quaispet uses /draw ellipse
(19:36:30) quaispet disconnected.
(19:36:33) GAH! PHYSICS EXPLODING!
(19:36:33) Process Terminated
(19:42:42) Properties loaded, and saved!
(19:42:42) You should enable "check-update" in server.properties
(19:42:42) Level initialized
(19:42:43) Level "main" loaded.
(19:42:43) Creating listening socket on port 31415... 
(19:42:43) Checking if port is forwarded...
(19:42:44) MJS --> Event ServerStart was triggered with parameters: 
(19:42:45) 127.0.0.1 logging in as quaispet.
(19:42:46) MJS --> Event PlayerJoin was triggered with parameters: player $player quaispet
(19:42:47) Port 31415 is closed!
(19:42:47) Done.
(19:42:50) quaispet uses /draw ellipse
(19:43:08) quaispet uses /draw ellipse
(19:43:42) quaispet disconnected.
(19:43:43) GAH! PHYSICS EXPLODING!
(19:43:43) Process Terminated
(19:44:48) Properties loaded, and saved!
(19:44:48) You should enable "check-update" in server.properties
(19:44:49) Level initialized
(19:44:49) Level "main" loaded.
(19:44:49) Creating listening socket on port 31415... 
(19:44:49) Checking if port is forwarded...
(19:44:50) MJS --> Event ServerStart was triggered with parameters: 
(19:44:51) 127.0.0.1 logging in as quaispet.
(19:44:52) MJS --> Event PlayerJoin was triggered with parameters: player $player quaispet
(19:44:53) Port 31415 is closed!
(19:44:53) Done.
(19:44:57) quaispet uses /draw ellipse
(19:45:12) quaispet disconnected.
(19:45:14) GAH! PHYSICS EXPLODING!
(19:45:14) Process Terminated
(19:45:36) Properties loaded, and saved!
(19:45:36) You should enable "check-update" in server.properties
(19:45:37) Level initialized
(19:45:37) Level "main" loaded.
(19:45:37) Creating listening socket on port 31415... 
(19:45:37) Checking if port is forwarded...
(19:45:39) MJS --> Event ServerStart was triggered with parameters: 
(19:45:40) 127.0.0.1 logging in as quaispet.
(19:45:41) Port 31415 is closed!
(19:45:41) Done.
(19:45:41) MJS --> Event PlayerJoin was triggered with parameters: player $player quaispet
(19:45:43) quaispet uses /draw ellipse
(19:46:23) quaispet disconnected.
(19:46:25) GAH! PHYSICS EXPLODING!
(19:46:25) Process Terminated
(19:46:34) Properties loaded, and saved!
(19:46:34) You should enable "check-update" in server.properties
(19:46:35) Level initialized
(19:46:35) Level "main" loaded.
(19:46:35) Creating listening socket on port 31415... 
(19:46:35) Checking if port is forwarded...
(19:46:37) MJS --> Event ServerStart was triggered with parameters: 
(19:46:37) 127.0.0.1 logging in as quaispet.
(19:46:38) MJS --> Event PlayerJoin was triggered with parameters: player $player quaispet
(19:46:39) Port 31415 is closed!
(19:46:39) Done.
(19:46:42) quaispet uses /draw ellipse
(19:47:03) quaispet disconnected.
(19:47:04) GAH! PHYSICS EXPLODING!
(19:47:04) Process Terminated
(19:48:55) Properties loaded, and saved!
(19:48:55) You should enable "check-update" in server.properties
(19:48:56) Level initialized
(19:48:56) Level "main" loaded.
(19:48:56) Creating listening socket on port 31415... 
(19:48:56) Checking if port is forwarded...
(19:48:57) MJS --> Event ServerStart was triggered with parameters: 
(19:48:58) 127.0.0.1 logging in as quaispet.
(19:48:59) MJS --> Event PlayerJoin was triggered with parameters: player $player quaispet
(19:49:01) Port 31415 is closed!
(19:49:01) Done.
(19:49:06) quaispet uses /draw ellipse
(19:49:22) quaispet disconnected.
(19:49:23) GAH! PHYSICS EXPLODING!
(19:50:31) Properties loaded, and saved!
(19:50:31) You should enable "check-update" in server.properties
(19:50:32) Level initialized
(19:50:32) Level "main" loaded.
(19:50:32) Creating listening socket on port 31415... 
(19:50:32) Checking if port is forwarded...
(19:50:34) MJS --> Event ServerStart was triggered with parameters: 
(19:50:35) 127.0.0.1 logging in as quaispet.
(19:50:36) Port 31415 is closed!
(19:50:36) Done.
(19:50:36) MJS --> Event PlayerJoin was triggered with parameters: player $player quaispet
(19:50:41) quaispet uses /draw ellipse
(19:50:47) quaispet uses /draw ellipse
(19:50:56) quaispet disconnected.
(19:50:58) GAH! PHYSICS EXPLODING!
(19:51:58) Properties loaded, and saved!
(19:51:58) You should enable "check-update" in server.properties
(19:51:59) Level initialized
(19:51:59) Level "main" loaded.
(19:51:59) Creating listening socket on port 31415... 
(19:51:59) Checking if port is forwarded...
(19:51:59) MJS --> Event ServerStart was triggered with parameters: 
(19:52:02) 127.0.0.1 logging in as quaispet.
(19:52:03) Port 31415 is closed!
(19:52:03) Done.
(19:52:03) MJS --> Event PlayerJoin was triggered with parameters: player $player quaispet
(19:52:12) quaispet uses /draw ellipse
(19:52:24) quaispet disconnected.
(19:52:25) GAH! PHYSICS EXPLODING!
(19:52:25) Process Terminated
(19:54:32) Properties loaded, and saved!
(19:54:32) You should enable "check-update" in server.properties
(19:54:33) Level initialized
(19:54:33) Level "main" loaded.
(19:54:33) Creating listening socket on port 31415... 
(19:54:33) Checking if port is forwarded...
(19:54:34) MJS --> Event ServerStart was triggered with parameters: 
(19:54:37) Port 31415 is closed!
(19:54:37) Done.
(19:54:37) GAH! PHYSICS EXPLODING!
(19:54:37) Process Terminated
(19:55:54) Properties loaded, and saved!
(19:55:55) You should enable "check-update" in server.properties
(19:55:55) Level initialized
(19:55:55) Level "main" loaded.
(19:55:55) Creating listening socket on port 31415... 
(19:55:55) Checking if port is forwarded...
(19:55:57) MJS --> Event ServerStart was triggered with parameters: 
(19:55:58) 127.0.0.1 logging in as quaispet.
(19:55:58) MJS --> Event PlayerJoin was triggered with parameters: player $player quaispet
(19:55:59) Port 31415 is closed!
(19:55:59) Done.
(19:56:05) quaispet uses /draw ellipse
(19:56:53) quaispet disconnected.
(19:56:55) GAH! PHYSICS EXPLODING!
(19:56:55) Process Terminated
(19:57:08) Properties loaded, and saved!
(19:57:08) You should enable "check-update" in server.properties
(19:57:09) Level initialized
(19:57:09) Level "main" loaded.
(19:57:09) Creating listening socket on port 31415... 
(19:57:09) Checking if port is forwarded...
(19:57:10) MJS --> Event ServerStart was triggered with parameters: 
(19:57:12) 127.0.0.1 logging in as quaispet.
(19:57:12) Port 31415 is closed!
(19:57:13) Done.
(19:57:13) MJS --> Event PlayerJoin was triggered with parameters: player $player quaispet
(19:57:16) quaispet uses /draw ellipse
(19:57:31) quaispet disconnected.
(19:57:32) GAH! PHYSICS EXPLODING!
(19:57:32) Process Terminated
