(21:23:25) Properties loaded, and saved!
(21:23:25) You should enable "check-update" in server.properties
(21:23:25) Incorrect command name: cleanlvl
(21:23:26) Level initialized
(21:23:26) Level "main" loaded.
(21:23:26) empty
(21:23:26) Creating listening socket on port 31415...
(21:23:26) Checking if port is forwarded...
(21:24:33) Properties loaded, and saved!
(21:24:33) You should enable "check-update" in server.properties
(21:24:33) Level initialized
(21:24:33) Level "main" loaded.
(21:24:33) empty
(21:24:33) Creating listening socket on port 31415...
(21:24:33) Checking if port is forwarded...
(22:13:39) Properties loaded, and saved!
(22:13:39) You should enable "check-update" in server.properties
(22:13:39) Level initialized
(22:13:39) Level "main" loaded.
(22:13:39) empty
(22:13:40) Creating listening socket on port 31415...
(22:13:40) Checking if port is forwarded...
(22:13:43) Port 31415 is closed!
(22:13:43) Trying to forward ports...
(22:13:48) Portforward successful!
(22:13:48) Done.
(22:13:49) Connecting to IRC
(22:13:49) Connected to IRC
(22:13:49) Joining channel
(22:13:54) 127.0.0.1 logging in as quaisaq.
(22:13:55) Level initialized
(22:13:55) SAVED: Level "testie321". 0/1/20
(22:13:55) And backed up
(22:13:56) MCQuai has joined the IRC
(22:14:03) quaisaq uses /goto testie321
(22:14:03) Level initialized
(22:14:03) Level "testie321" loaded.
(22:14:03) flat
(22:14:09) quaisaq disconnected.
(22:14:41) Properties loaded, and saved!
(22:14:41) You should enable "check-update" in server.properties
(22:14:42) Level initialized
(22:14:42) Level "main" loaded.
(22:14:42) empty
(22:14:42) Creating listening socket on port 31415...
(22:14:42) Checking if port is forwarded...
(22:29:13) Properties loaded, and saved!
(22:29:13) You should enable "check-update" in server.properties
(22:29:13) Level initialized
(22:29:13) Level "main" loaded.
(22:29:13) empty
(22:29:13) Creating listening socket on port 31415...
(22:29:13) Checking if port is forwarded...
(22:29:14) Port 31415 is open!
(22:29:14) Done.
(22:29:15) Connecting to IRC
(22:29:15) Connected to IRC
(22:29:15) Joining channel
(22:29:27) Properties loaded, and saved!
(22:29:27) You should enable "check-update" in server.properties
(22:29:28) Level initialized
(22:29:28) Level "main" loaded.
(22:29:28) empty
(22:29:28) Creating listening socket on port 31415...
(22:29:28) Checking if port is forwarded...
(22:29:29) Port 31415 is open!
(22:29:29) Done.
(22:29:29) Connecting to IRC
(22:29:36) Properties loaded, and saved!
(22:29:36) You should enable "check-update" in server.properties
(22:29:36) Level initialized
(22:29:36) Level "main" loaded.
(22:29:36) empty
(22:29:36) Creating listening socket on port 31415...
(22:29:36) Checking if port is forwarded...
(22:29:37) Port 31415 is open!
(22:29:37) Done.
(22:34:22) Properties loaded, and saved!
(22:34:22) You should enable "check-update" in server.properties
(22:34:22) Level initialized
(22:34:22) Level "main" loaded.
(22:34:22) empty
(22:34:22) Creating listening socket on port 31415...
(22:34:22) Checking if port is forwarded...
(22:34:23) Port 31415 is open!
(22:34:23) Done.
(22:34:31) Properties loaded, and saved!
(22:34:31) You should enable "check-update" in server.properties
(22:34:32) Level initialized
(22:34:32) Level "main" loaded.
(22:34:32) empty
(22:34:32) Creating listening socket on port 31415...
(22:34:32) Checking if port is forwarded...
(22:34:33) Port 31415 is open!
(22:34:33) Done.
