(00:04:15) Properties loaded, and saved!
(00:04:15) You should enable "check-update" in server.properties
(00:04:15) Incorrect value given for tnt, using default value.
(00:04:15) Level initialized
(00:04:15) Level "main" loaded.
(00:04:16) Creating listening socket on port 31415... 
(00:04:16) Checking if port is forwarded...
(00:04:16) It seems that minecraft.net is offline.
(00:04:16) Because of this, your server is not accessible,
(00:04:16) untill minecraft.net is back online.
(00:04:16) Though, WoM users are still able to connect.
(00:04:17) MJS --> Event ServerStart was triggered with parameters: 
(00:04:19) Port 31415 is closed!
(00:04:19) Done.
(00:04:51) GAH! PHYSICS EXPLODING!
(00:04:51) Process Terminated
(00:04:56) Properties loaded, and saved!
(00:04:56) You should enable "check-update" in server.properties
(00:04:56) Incorrect value given for tnt, using default value.
(00:04:57) Level initialized
(00:04:57) Level "main" loaded.
(00:04:57) Creating listening socket on port 31415... 
(00:04:57) Checking if port is forwarded...
(00:04:58) It seems that minecraft.net is offline.
(00:04:58) Because of this, your server is not accessible,
(00:04:58) untill minecraft.net is back online.
(00:04:58) Though, WoM users are still able to connect.
(00:04:58) MJS --> Event ServerStart was triggered with parameters: 
(00:05:00) Port 31415 is closed!
(00:05:00) Done.
(00:05:38) GAH! PHYSICS EXPLODING!
(00:06:28) Properties loaded, and saved!
(00:06:28) You should enable "check-update" in server.properties
(00:06:28) Incorrect value given for tnt, using default value.
(00:06:28) Level initialized
(00:06:28) Level "main" loaded.
(00:06:28) Creating listening socket on port 31415... 
(00:06:28) Checking if port is forwarded...
(00:06:30) MJS --> Event ServerStart was triggered with parameters: 
(00:06:31) Port 31415 is closed!
(00:06:31) Done.
(00:06:49) GAH! PHYSICS EXPLODING!
(00:06:49) Process Terminated
(10:34:18) Properties loaded, and saved!
(10:34:18) You should enable "check-update" in server.properties
(10:34:19) Incorrect value given for tnt, using default value.
(10:34:19) Level initialized
(10:34:19) Level "main" loaded.
(10:34:19) Creating listening socket on port 31415... 
(10:34:19) Checking if port is forwarded...
(10:34:21) Port 31415 is closed!
(10:34:21) Done.
(10:34:21) MJS --> Event ServerStart was triggered with parameters: 
(10:34:46) 127.0.0.1 logging in as quaisaq.
(10:34:47) MJS --> Event PlayerJoin was triggered with parameters: player $player quaisaq
(10:35:01) quaisaq uses /botadd lol
(10:35:27) quaisaq uses /botset lol hunt
(10:35:34) quaisaq uses /portal air
(10:36:19) quaisaq disconnected.
(10:36:21) GAH! PHYSICS EXPLODING!
(10:36:21) Process Terminated
(10:36:36) Properties loaded, and saved!
(10:36:36) You should enable "check-update" in server.properties
(10:36:36) Incorrect value given for tnt, using default value.
(10:36:37) Level initialized
(10:36:37) Level "main" loaded.
(10:36:37) Creating listening socket on port 31415... 
(10:36:37) Checking if port is forwarded...
(10:36:39) MJS --> Event ServerStart was triggered with parameters: 
(10:36:40) Port 31415 is closed!
(10:36:40) Done.
(10:36:41) 127.0.0.1 logging in as quaisaq.
(10:36:42) MJS --> Event PlayerJoin was triggered with parameters: player $player quaisaq
(10:36:49) quaisaq uses /botadd lol
(10:36:56) quaisaq uses /botset lol hunt
(10:37:02) quaisaq uses /portal air
(10:37:32) quaisaq disconnected.
(10:37:33) GAH! PHYSICS EXPLODING!
(10:37:33) Process Terminated
(10:41:26) Properties loaded, and saved!
(10:41:26) You should enable "check-update" in server.properties
(10:41:27) Incorrect value given for tnt, using default value.
(10:41:27) Level initialized
(10:41:27) Level "main" loaded.
(10:41:27) Creating listening socket on port 31415... 
(10:41:27) Checking if port is forwarded...
(10:41:29) MJS --> Event ServerStart was triggered with parameters: 
(10:41:29) 127.0.0.1 logging in as quaisaq.
(10:41:30) Port 31415 is closed!
(10:41:30) Done.
(10:41:30) MJS --> Event PlayerJoin was triggered with parameters: player $player quaisaq
(10:41:36) quaisaq uses /botadd lol
(10:41:46) quaisaq uses /botset lol hunt
(10:41:46) lol
(10:41:46) lol
(10:41:46) lol
(10:41:46) lol
(10:41:46) lol
(10:41:46) lol
(10:41:46) lol
(10:41:46) lol
(10:41:46) lol
(10:41:46) lol
(10:41:46) lol
(10:41:46) lol
(10:41:46) lol
(10:41:46) lol
(10:41:46) lol
(10:41:46) lol
(10:41:46) lol
(10:41:46) lol
(10:41:46) lol
(10:41:46) lol
(10:41:46) lol
(10:41:46) lol
(10:41:46) lol
(10:41:46) lol
(10:41:46) lol
(10:41:46) lol
(10:41:46) lol
(10:41:47) lol
(10:41:47) lol
(10:41:47) lol
(10:41:47) lol
(10:41:47) lol
(10:41:47) lol
(10:41:47) lol
(10:41:47) lol
(10:41:47) lol
(10:41:47) quaisaq kicked (Server restarted! Rejoin!).
(10:41:47) lol
(10:41:47) lol
(10:41:47) lol
(10:41:47) lol
(10:41:47) lol
(10:41:47) lol
(10:41:47) lol
(10:41:47) lol
(10:41:48) Properties loaded, and saved!
(10:41:48) You should enable "check-update" in server.properties
(10:41:48) Incorrect value given for tnt, using default value.
(10:41:49) Level initialized
(10:41:49) Level "main" loaded.
(10:41:49) Creating listening socket on port 31415... 
(10:41:49) Checking if port is forwarded...
(10:41:50) Port 31415 is closed!
(10:41:50) Done.
(10:41:51) Process Terminated
(11:16:51) Properties loaded, and saved!
(11:16:51) You should enable "check-update" in server.properties
(11:16:51) Incorrect value given for tnt, using default value.
(11:16:51) Level initialized
(11:16:52) Level "main" loaded.
(11:16:52) Creating listening socket on port 31415... 
(11:16:52) Checking if port is forwarded...
(11:16:53) MJS --> Event ServerStart was triggered with parameters: 
(11:16:54) 127.0.0.1 logging in as quaisaq.
(11:16:54) Port 31415 is closed!
(11:16:54) Done.
(11:16:54) MJS --> Event PlayerJoin was triggered with parameters: player $player quaisaq
(11:16:59) quaisaq uses /botadd lol
(11:17:08) quaisaq uses /portal air
(11:17:16) quaisaq uses /botset lol hunt
(11:17:24) quaisaq disconnected.
(11:17:24) GAH! PHYSICS EXPLODING!
(11:21:43) Properties loaded, and saved!
(11:21:43) You should enable "check-update" in server.properties
(11:21:44) Incorrect value given for tnt, using default value.
(11:21:44) Level initialized
(11:21:44) Level "main" loaded.
(11:21:44) Creating listening socket on port 31415... 
(11:21:44) Checking if port is forwarded...
(11:21:46) MJS --> Event ServerStart was triggered with parameters: 
(11:21:46) Port 31415 is closed!
(11:21:46) Done.
(11:21:47) 127.0.0.1 logging in as quaisaq.
(11:21:48) MJS --> Event PlayerJoin was triggered with parameters: player $player quaisaq
(11:21:52) quaisaq uses /botadd lol
(11:21:56) quaisaq uses /botset lol hunt
(11:22:01) quaisaq uses /portal air
(11:22:30) quaisaq disconnected.
(11:22:32) GAH! PHYSICS EXPLODING!
(11:23:34) Properties loaded, and saved!
(11:23:34) You should enable "check-update" in server.properties
(11:23:35) Incorrect value given for tnt, using default value.
(11:23:35) Level initialized
(11:23:35) Level "main" loaded.
(11:23:35) Creating listening socket on port 31415... 
(11:23:35) Checking if port is forwarded...
(11:23:37) MJS --> Event ServerStart was triggered with parameters: 
(11:23:38) Port 31415 is closed!
(11:23:38) Done.
(11:23:38) 127.0.0.1 logging in as quaisaq.
(11:23:39) MJS --> Event PlayerJoin was triggered with parameters: player $player quaisaq
(11:23:45) quaisaq uses /botadd lol
(11:23:45) 64 35 64
(11:23:55) quaisaq disconnected.
(11:23:57) GAH! PHYSICS EXPLODING!
(11:23:57) Process Terminated
(11:25:21) Properties loaded, and saved!
(11:25:21) You should enable "check-update" in server.properties
(11:25:21) Incorrect value given for tnt, using default value.
(11:25:22) Level initialized
(11:25:22) Level "main" loaded.
(11:25:22) Creating listening socket on port 31415... 
(11:25:22) Checking if port is forwarded...
(11:25:24) Port 31415 is closed!
(11:25:24) Done.
(11:25:24) 127.0.0.1 logging in as quaisaq.
(11:25:24) MJS --> Event ServerStart was triggered with parameters: 
(11:25:25) MJS --> Event PlayerJoin was triggered with parameters: player $player quaisaq
(11:25:30) quaisaq uses /botadd lol
(11:25:32) quaisaq uses /portal air
(11:25:42) quaisaq uses /botset lol hunt
(11:25:46) quaisaq disconnected.
(11:25:48) GAH! PHYSICS EXPLODING!
(11:27:32) Properties loaded, and saved!
(11:27:32) You should enable "check-update" in server.properties
(11:27:32) Incorrect value given for tnt, using default value.
(11:27:33) Level initialized
(11:27:33) Level "main" loaded.
(11:27:33) Creating listening socket on port 31415... 
(11:27:33) Checking if port is forwarded...
(11:27:34) MJS --> Event ServerStart was triggered with parameters: 
(11:27:35) 127.0.0.1 logging in as quaisaq.
(11:27:36) Properties loaded, and saved!
(11:27:36) You should enable "check-update" in server.properties
(11:27:37) Incorrect value given for tnt, using default value.
(11:27:37) Level initialized
(11:27:37) Level "main" loaded.
(11:27:37) Creating listening socket on port 31415... 
(11:27:37) Checking if port is forwarded...
(11:27:39) Port 31415 is closed!
(11:27:39) Done.
(11:27:39) MJS --> Event ServerStart was triggered with parameters: 
(11:27:51) 127.0.0.1 logging in as quaisaq.
(11:27:51) MJS --> Event PlayerJoin was triggered with parameters: player $player quaisaq
(11:27:56) quaisaq uses /botadd lol
(11:27:57) 64 35 64 - 64 34 64
(11:27:57) 64 35 64 - 64 34 64
(11:27:57) 64 35 64 - 64 34 64
(11:27:57) 64 35 64 - 64 34 64
(11:27:57) 64 35 64 - 64 34 64
(11:27:57) 64 35 64 - 64 34 64
(11:27:57) 64 35 64 - 64 34 64
(11:27:57) 64 35 64 - 64 34 64
(11:27:57) 64 35 64 - 64 34 64
(11:27:58) 64 35 64 - 64 34 64
(11:27:58) 64 35 64 - 64 34 64
(11:27:58) 64 35 64 - 64 34 64
(11:27:58) 64 35 64 - 64 34 64
(11:27:58) 64 35 64 - 64 34 64
(11:27:58) 64 35 64 - 64 34 64
(11:27:58) 64 35 64 - 64 34 64
(11:27:58) 64 35 64 - 64 34 64
(11:27:58) 64 35 64 - 64 34 64
(11:27:59) 64 35 64 - 64 34 64
(11:27:59) 64 35 64 - 64 34 64
(11:27:59) 64 35 64 - 64 34 64
(11:27:59) 64 35 64 - 64 34 64
(11:27:59) 64 35 64 - 64 34 64
(11:27:59) 64 35 64 - 64 34 64
(11:27:59) 64 35 64 - 64 34 64
(11:27:59) 64 35 64 - 64 34 64
(11:27:59) 64 35 64 - 64 34 64
(11:27:59) 64 35 64 - 64 34 64
(11:28:00) 64 35 64 - 64 34 64
(11:28:00) 64 35 64 - 64 34 64
(11:28:00) 64 35 64 - 64 34 64
(11:28:00) 64 35 64 - 64 34 64
(11:28:00) 64 35 64 - 64 34 64
(11:28:00) 64 35 64 - 64 34 64
(11:28:00) 64 35 64 - 64 34 64
(11:28:00) 64 35 64 - 64 34 64
(11:28:00) 64 35 64 - 64 34 64
(11:28:01) 64 35 64 - 64 34 64
(11:28:01) 64 35 64 - 64 34 64
(11:28:01) 64 35 64 - 64 34 64
(11:28:01) 64 35 64 - 64 34 64
(11:28:01) 64 35 64 - 64 34 64
(11:28:01) 64 35 64 - 64 34 64
(11:28:01) 64 35 64 - 64 34 64
(11:28:01) 64 35 64 - 64 34 64
(11:28:01) 64 35 64 - 64 34 64
(11:28:02) 64 35 64 - 64 34 64
(11:28:02) 64 35 64 - 64 34 64
(11:28:02) 64 35 64 - 64 34 64
(11:28:02) 64 35 64 - 64 34 64
(11:28:02) 64 35 64 - 64 34 64
(11:28:02) 64 35 64 - 64 34 64
(11:28:02) 64 35 64 - 64 34 64
(11:28:02) 64 35 64 - 64 34 64
(11:28:02) 64 35 64 - 64 34 64
(11:28:03) 64 35 64 - 64 34 64
(11:28:03) 64 35 64 - 64 34 64
(11:28:03) 64 35 64 - 64 34 64
(11:28:03) 64 35 64 - 64 34 64
(11:28:03) 64 35 64 - 64 34 64
(11:28:03) 64 35 64 - 64 34 64
(11:28:03) 64 35 64 - 64 34 64
(11:28:03) 64 35 64 - 64 34 64
(11:28:03) 64 35 64 - 64 34 64
(11:28:04) 64 35 64 - 64 34 64
(11:28:04) 64 35 64 - 64 34 64
(11:28:04) 64 35 64 - 64 34 64
(11:28:04) 64 35 64 - 64 34 64
(11:28:04) 64 35 64 - 64 34 64
(11:28:04) 64 35 64 - 64 34 64
(11:28:04) 64 35 64 - 64 34 64
(11:28:04) 64 35 64 - 64 34 64
(11:28:04) 64 35 64 - 64 34 64
(11:28:05) 64 35 64 - 64 34 64
(11:28:05) 64 35 64 - 64 34 64
(11:28:05) 64 35 64 - 64 34 64
(11:28:05) 64 35 64 - 64 34 64
(11:28:05) 64 35 64 - 64 34 64
(11:28:05) 64 35 64 - 64 34 64
(11:28:05) 64 35 64 - 64 34 64
(11:28:05) 64 35 64 - 64 34 64
(11:28:05) 64 35 64 - 64 34 64
(11:28:05) 64 35 64 - 64 34 64
(11:28:06) quaisaq uses /botset lol hunt
(11:28:06) 64 35 64 - 64 34 64
(11:28:06) 64 35 64 - 64 34 64
(11:28:06) 64 35 64 - 64 34 64
(11:28:06) 64 35 64 - 64 34 64
(11:28:06) 64 35 65 - 64 34 65
(11:28:06) 64 35 65 - 64 34 65
(11:28:06) 64 35 65 - 64 34 65
(11:28:06) 64 35 65 - 64 34 65
(11:28:06) 64 35 66 - 64 34 66
(11:28:07) 64 35 66 - 64 34 66
(11:28:07) 64 35 66 - 64 34 66
(11:28:07) 64 35 66 - 64 34 66
(11:28:07) 64 35 66 - 64 34 66
(11:28:07) 64 35 67 - 64 34 67
(11:28:07) 64 35 67 - 64 34 67
(11:28:07) 64 35 67 - 64 34 67
(11:28:07) 64 35 67 - 64 34 67
(11:28:07) 64 35 67 - 64 34 67
(11:28:08) 64 35 68 - 64 34 68
(11:28:08) 64 35 68 - 64 34 68
(11:28:08) 64 35 68 - 64 34 68
(11:28:08) 64 35 68 - 64 34 68
(11:28:08) 64 35 69 - 64 34 69
(11:28:08) 64 35 69 - 64 34 69
(11:28:08) 64 35 69 - 64 34 69
(11:28:08) 64 35 69 - 64 34 69
(11:28:08) 64 35 69 - 64 34 69
(11:28:09) 64 35 70 - 64 34 70
(11:28:09) 64 35 70 - 64 34 70
(11:28:09) 64 35 70 - 64 34 70
(11:28:09) 64 35 70 - 64 34 70
(11:28:09) 64 35 71 - 64 34 71
(11:28:09) 64 35 71 - 64 34 71
(11:28:09) 64 35 71 - 64 34 71
(11:28:09) 64 35 71 - 64 34 71
(11:28:09) 64 35 71 - 64 34 71
(11:28:10) 64 35 71 - 64 34 71
(11:28:10) 64 35 71 - 64 34 71
(11:28:10) 64 35 71 - 64 34 71
(11:28:10) 64 35 72 - 64 34 72
(11:28:10) 64 35 72 - 64 34 72
(11:28:10) 64 35 72 - 64 34 72
(11:28:10) 64 35 72 - 64 34 72
(11:28:10) 64 35 72 - 64 34 72
(11:28:10) 64 35 72 - 64 34 72
(11:28:11) 64 35 72 - 64 34 72
(11:28:11) 64 35 72 - 64 34 72
(11:28:11) 64 35 73 - 64 34 73
(11:28:11) 64 35 72 - 64 34 72
(11:28:11) 64 35 72 - 64 34 72
(11:28:11) 65 35 72 - 65 34 72
(11:28:11) 65 35 72 - 65 34 72
(11:28:11) 65 35 71 - 65 34 71
(11:28:11) 64 35 71 - 64 34 71
(11:28:12) 64 35 71 - 64 34 71
(11:28:12) 64 35 71 - 64 34 71
(11:28:12) 64 35 71 - 64 34 71
(11:28:12) 64 35 70 - 64 34 70
(11:28:12) 64 35 70 - 64 34 70
(11:28:12) 64 35 70 - 64 34 70
(11:28:12) 64 35 70 - 64 34 70
(11:28:12) 64 35 69 - 64 34 69
(11:28:12) 64 35 69 - 64 34 69
(11:28:12) 64 35 69 - 64 34 69
(11:28:13) 64 35 69 - 64 34 69
(11:28:13) 64 35 69 - 64 34 69
(11:28:13) 64 35 68 - 64 34 68
(11:28:13) 64 35 68 - 64 34 68
(11:28:13) 63 35 68 - 63 34 68
(11:28:13) 63 35 68 - 63 34 68
(11:28:13) 63 35 67 - 63 34 67
(11:28:13) 63 35 67 - 63 34 67
(11:28:13) 63 35 67 - 63 34 67
(11:28:14) 63 35 67 - 63 34 67
(11:28:14) 63 35 67 - 63 34 67
(11:28:14) 63 35 66 - 63 34 66
(11:28:14) 63 35 66 - 63 34 66
(11:28:14) 63 35 66 - 63 34 66
(11:28:14) 63 35 66 - 63 34 66
(11:28:14) 63 35 66 - 63 34 66
(11:28:14) 63 35 65 - 63 34 65
(11:28:14) 63 35 65 - 63 34 65
(11:28:15) 63 35 65 - 63 34 65
(11:28:15) 63 35 65 - 63 34 65
(11:28:15) 63 35 64 - 63 34 64
(11:28:15) 63 35 64 - 63 34 64
(11:28:15) 63 35 64 - 63 34 64
(11:28:15) 63 35 64 - 63 34 64
(11:28:15) 63 35 64 - 63 34 64
(11:28:15) 63 35 63 - 63 34 63
(11:28:15) 63 35 63 - 63 34 63
(11:28:16) 63 35 63 - 63 34 63
(11:28:16) 63 35 63 - 63 34 63
(11:28:16) 63 35 62 - 63 34 62
(11:28:16) 63 35 62 - 63 34 62
(11:28:16) 63 35 62 - 63 34 62
(11:28:16) 63 35 62 - 63 34 62
(11:28:16) 63 35 62 - 63 34 62
(11:28:16) 63 35 61 - 63 34 61
(11:28:16) 63 35 61 - 63 34 61
(11:28:17) 63 35 61 - 63 34 61
(11:28:17) 63 35 61 - 63 34 61
(11:28:17) 63 35 61 - 63 34 61
(11:28:17) 63 35 60 - 63 34 60
(11:28:17) 63 35 60 - 63 34 60
(11:28:17) 63 35 60 - 63 34 60
(11:28:17) 63 35 60 - 63 34 60
(11:28:17) 63 35 59 - 63 34 59
(11:28:17) 63 35 59 - 63 34 59
(11:28:18) 63 35 59 - 63 34 59
(11:28:18) 63 35 59 - 63 34 59
(11:28:18) 63 35 59 - 63 34 59
(11:28:18) 63 35 58 - 63 34 58
(11:28:18) 63 35 58 - 63 34 58
(11:28:18) 63 35 58 - 63 34 58
(11:28:18) 63 35 58 - 63 34 58
(11:28:18) 63 35 57 - 63 34 57
(11:28:18) 63 35 57 - 63 34 57
(11:28:18) 63 35 57 - 63 34 57
(11:28:19) 63 35 57 - 63 34 57
(11:28:19) quaisaq uses /portal air
(11:28:19) 63 35 57 - 63 34 57
(11:28:19) 63 35 56 - 63 34 56
(11:28:19) 63 35 56 - 63 34 56
(11:28:19) 63 35 56 - 63 34 56
(11:28:19) 63 35 56 - 63 34 56
(11:28:19) 63 35 56 - 63 34 56
(11:28:19) 63 35 56 - 63 34 56
(11:28:19) 64 35 57 - 64 34 57
(11:28:20) 64 35 57 - 64 34 57
(11:28:20) 64 35 57 - 64 34 57
(11:28:20) 64 35 57 - 64 34 57
(11:28:20) 64 35 57 - 64 34 57
(11:28:20) 64 35 58 - 64 34 58
(11:28:20) 63 35 58 - 63 34 58
(11:28:20) 63 35 58 - 63 34 58
(11:28:20) 63 35 58 - 63 34 58
(11:28:20) 63 35 59 - 63 34 59
(11:28:21) 63 35 59 - 63 34 59
(11:28:21) 63 35 59 - 63 34 59
(11:28:21) 62 35 59 - 62 34 59
(11:28:21) 63 35 59 - 63 34 59
(11:28:21) 63 35 60 - 63 34 60
(11:28:21) 63 35 60 - 63 34 60
(11:28:21) 63 35 60 - 63 34 60
(11:28:21) 63 35 60 - 63 34 60
(11:28:21) 63 35 61 - 63 34 61
(11:28:22) 63 35 61 - 63 34 61
(11:28:22) 63 35 61 - 63 34 61
(11:28:22) 63 35 61 - 63 34 61
(11:28:22) 63 35 61 - 63 34 61
(11:28:22) 63 35 62 - 63 34 62
(11:28:22) 64 35 62 - 64 34 62
(11:28:22) 64 35 62 - 64 34 62
(11:28:22) 64 35 62 - 64 34 62
(11:28:22) 64 35 63 - 64 34 63
(11:28:23) 64 35 63 - 64 34 63
(11:28:23) 64 35 63 - 64 34 63
(11:28:23) 64 35 63 - 64 34 63
(11:28:23) 64 35 63 - 64 34 63
(11:28:23) 64 35 64 - 64 34 64
(11:28:23) 63 35 64 - 63 34 64
(11:28:23) 63 35 64 - 63 34 64
(11:28:23) 63 35 64 - 63 34 64
(11:28:23) 63 35 65 - 63 34 65
(11:28:24) 62 35 65 - 62 34 65
(11:28:24) 62 35 65 - 62 34 65
(11:28:24) 62 35 65 - 62 34 65
(11:28:24) 62 35 65 - 62 34 65
(11:28:24) 62 35 66 - 62 34 66
(11:28:24) 61 35 66 - 61 34 66
(11:28:24) 61 35 66 - 61 34 66
(11:28:24) 61 35 66 - 61 34 66
(11:28:24) 61 35 66 - 61 34 66
(11:28:25) 61 35 67 - 61 34 67
(11:28:25) 61 35 67 - 61 34 67
(11:28:25) 61 35 67 - 61 34 67
(11:28:25) 61 35 67 - 61 34 67
(11:28:25) 62 35 68 - 62 34 68
(11:28:25) 62 35 68 - 62 34 68
(11:28:25) 62 35 68 - 62 34 68
(11:28:25) 62 35 68 - 62 34 68
(11:28:25) 63 35 68 - 63 34 68
(11:28:25) 63 35 68 - 63 34 68
(11:28:26) 63 35 68 - 63 34 68
(11:28:26) 63 35 68 - 63 34 68
(11:28:26) 63 35 68 - 63 34 68
(11:28:26) 64 35 68 - 64 34 68
(11:28:26) 64 35 67 - 64 34 67
(11:28:26) 64 35 67 - 64 34 67
(11:28:26) 64 35 67 - 64 34 67
(11:28:26) 64 35 67 - 64 34 67
(11:28:26) 64 35 66 - 64 34 66
(11:28:27) 64 35 66 - 64 34 66
(11:28:27) 64 35 66 - 64 34 66
(11:28:27) 64 35 66 - 64 34 66
(11:28:27) 63 35 66 - 63 34 66
(11:28:27) 63 35 65 - 63 34 65
(11:28:27) 63 35 65 - 63 34 65
(11:28:27) 63 35 65 - 63 34 65
(11:28:27) 63 35 65 - 63 34 65
(11:28:27) 63 35 64 - 63 34 64
(11:28:28) 63 35 64 - 63 34 64
(11:28:28) 63 35 64 - 63 34 64
(11:28:28) 63 35 64 - 63 34 64
(11:28:28) 63 35 64 - 63 34 64
(11:28:28) 63 35 63 - 63 34 63
(11:28:28) 63 35 63 - 63 34 63
(11:28:28) 63 35 63 - 63 34 63
(11:28:28) 63 35 63 - 63 34 63
(11:28:28) 63 35 64 - 63 34 64
(11:28:29) 64 35 64 - 64 34 64
(11:28:29) 64 35 64 - 64 34 64
(11:28:29) 64 35 64 - 64 34 64
(11:28:29) 64 35 64 - 64 34 64
(11:28:29) 64 35 64 - 64 34 64
(11:28:29) 65 35 64 - 65 34 64
(11:28:29) 65 35 64 - 65 34 64
(11:28:29) 65 35 64 - 65 34 64
(11:28:29) 65 35 64 - 65 34 64
(11:28:30) 65 35 64 - 65 34 64
(11:28:30) 65 35 64 - 65 34 64
(11:28:30) 66 35 64 - 66 34 64
(11:28:30) 66 35 64 - 66 34 64
(11:28:30) 65 35 64 - 65 34 64
(11:28:30) 65 35 65 - 65 34 65
(11:28:30) 65 35 65 - 65 34 65
(11:28:30) 65 35 65 - 65 34 65
(11:28:30) 65 35 65 - 65 34 65
(11:28:31) 64 35 66 - 64 34 66
(11:28:31) 64 35 65 - 64 34 65
(11:28:31) 64 35 65 - 64 34 65
(11:28:31) 64 35 65 - 64 34 65
(11:28:31) 64 35 65 - 64 34 65
(11:28:31) 64 35 65 - 64 34 65
(11:28:31) 64 35 64 - 64 34 64
(11:28:31) 65 35 64 - 65 34 64
(11:28:31) 65 35 64 - 65 34 64
(11:28:31) 65 35 64 - 65 34 64
(11:28:32) 65 35 64 - 65 34 64
(11:28:32) 65 35 64 - 65 34 64
(11:28:32) 65 35 64 - 65 34 64
(11:28:32) 65 35 64 - 65 34 64
(11:28:32) 66 35 64 - 66 34 64
(11:28:32) 66 35 63 - 66 34 63
(11:28:32) 66 35 63 - 66 34 63
(11:28:32) 65 35 63 - 65 34 63
(11:28:32) 65 35 63 - 65 34 63
(11:28:33) 65 35 63 - 65 34 63
(11:28:33) 65 35 62 - 65 34 62
(11:28:33) 64 35 62 - 64 34 62
(11:28:33) 64 35 62 - 64 34 62
(11:28:33) 64 35 62 - 64 34 62
(11:28:33) 64 35 62 - 64 34 62
(11:28:33) 64 35 63 - 64 34 63
(11:28:33) 63 35 63 - 63 34 63
(11:28:33) 63 35 63 - 63 34 63
(11:28:34) 63 35 63 - 63 34 63
(11:28:34) 63 35 63 - 63 34 63
(11:28:34) 62 35 64 - 62 34 64
(11:28:34) 62 35 64 - 62 34 64
(11:28:34) 62 35 64 - 62 34 64
(11:28:34) 62 35 64 - 62 34 64
(11:28:34) 62 35 64 - 62 34 64
(11:28:34) 61 35 65 - 61 34 65
(11:28:34) 61 35 65 - 61 34 65
(11:28:35) 61 35 65 - 61 34 65
(11:28:35) 61 35 65 - 61 34 65
(11:28:35) 61 35 66 - 61 34 66
(11:28:35) 61 35 66 - 61 34 66
(11:28:35) 61 35 66 - 61 34 66
(11:28:35) 61 35 66 - 61 34 66
(11:28:35) 61 35 66 - 61 34 66
(11:28:35) 61 35 66 - 61 34 66
(11:28:35) 60 35 66 - 60 34 66
(11:28:36) 60 35 65 - 60 34 65
(11:28:36) 60 35 65 - 60 34 65
(11:28:36) 60 35 65 - 60 34 65
(11:28:36) 60 35 65 - 60 34 65
(11:28:36) 60 35 64 - 60 34 64
(11:28:36) 60 35 64 - 60 34 64
(11:28:36) 61 35 64 - 61 34 64
(11:28:36) 61 35 64 - 61 34 64
(11:28:36) 61 35 64 - 61 34 64
(11:28:37) 61 35 63 - 61 34 63
(11:28:37) 62 35 63 - 62 34 63
(11:28:37) 62 35 63 - 62 34 63
(11:28:37) 62 35 63 - 62 34 63
(11:28:37) 62 35 63 - 62 34 63
(11:28:37) 62 35 63 - 62 34 63
(11:28:37) 63 35 64 - 63 34 64
(11:28:37) 63 35 64 - 63 34 64
(11:28:37) 63 35 64 - 63 34 64
(11:28:37) 63 35 64 - 63 34 64
(11:28:38) 64 35 64 - 64 34 64
(11:28:38) 64 35 64 - 64 34 64
(11:28:38) 64 35 64 - 64 34 64
(11:28:38) 64 35 64 - 64 34 64
(11:28:38) 64 35 64 - 64 34 64
(11:28:38) 65 35 64 - 65 34 64
(11:28:38) 65 35 64 - 65 34 64
(11:28:38) 65 35 64 - 65 34 64
(11:28:38) 65 35 64 - 65 34 64
(11:28:39) 65 35 63 - 65 34 63
(11:28:39) 65 35 63 - 65 34 63
(11:28:39) 65 35 63 - 65 34 63
(11:28:39) 64 35 63 - 64 34 63
(11:28:39) 64 35 63 - 64 34 63
(11:28:39) 64 35 63 - 64 34 63
(11:28:39) 64 35 63 - 64 34 63
(11:28:39) 63 36 63 - 63 35 63
(11:28:39) 63 36 63 - 63 35 63
(11:28:40) 63 35 64 - 63 34 64
(11:28:40) 63 35 64 - 63 34 64
(11:28:40) 63 35 64 - 63 34 64
(11:28:40) 62 35 64 - 62 34 64
(11:28:40) 62 35 64 - 62 34 64
(11:28:40) 62 35 65 - 62 34 65
(11:28:40) 62 35 65 - 62 34 65
(11:28:40) 62 35 65 - 62 34 65
(11:28:40) 61 35 65 - 61 34 65
(11:28:41) 61 35 65 - 61 34 65
(11:28:41) 61 35 65 - 61 34 65
(11:28:41) 61 35 65 - 61 34 65
(11:28:41) 61 35 65 - 61 34 65
(11:28:41) 61 35 65 - 61 34 65
(11:28:41) 61 35 64 - 61 34 64
(11:28:41) 61 35 64 - 61 34 64
(11:28:41) 61 35 64 - 61 34 64
(11:28:41) 61 35 64 - 61 34 64
(11:28:42) 61 35 64 - 61 34 64
(11:28:42) 61 35 64 - 61 34 64
(11:28:42) 62 36 64 - 62 35 64
(11:28:42) 62 35 63 - 62 34 63
(11:28:42) 62 35 63 - 62 34 63
(11:28:42) 62 35 63 - 62 34 63
(11:28:42) 62 35 63 - 62 34 63
(11:28:42) 62 35 63 - 62 34 63
(11:28:42) 62 35 63 - 62 34 63
(11:28:43) 62 35 63 - 62 34 63
(11:28:43) 62 35 63 - 62 34 63
(11:28:43) 62 35 63 - 62 34 63
(11:28:43) 62 35 63 - 62 34 63
(11:28:43) 62 35 63 - 62 34 63
(11:28:43) 62 35 64 - 62 34 64
(11:28:43) 61 35 64 - 61 34 64
(11:28:43) 61 35 64 - 61 34 64
(11:28:43) 61 35 64 - 61 34 64
(11:28:44) 61 35 64 - 61 34 64
(11:28:44) 61 35 64 - 61 34 64
(11:28:44) 61 35 64 - 61 34 64
(11:28:44) 61 35 65 - 61 34 65
(11:28:44) 61 35 65 - 61 34 65
(11:28:44) 61 35 65 - 61 34 65
(11:28:44) 62 35 65 - 62 34 65
(11:28:44) 62 36 65 - 62 35 65
(11:28:44) 62 36 65 - 62 35 65
(11:28:44) 62 36 65 - 62 35 65
(11:28:45) 62 36 65 - 62 35 65
(11:28:45) 63 36 65 - 63 35 65
(11:28:45) 63 36 65 - 63 35 65
(11:28:45) 63 36 65 - 63 35 65
(11:28:45) 63 36 65 - 63 35 65
(11:28:45) 63 36 65 - 63 35 65
(11:28:45) 63 36 65 - 63 35 65
(11:28:45) 64 35 66 - 64 34 66
(11:28:45) 64 35 66 - 64 34 66
(11:28:46) 64 35 65 - 64 34 65
(11:28:46) 64 35 65 - 64 34 65
(11:28:46) 64 36 65 - 64 35 65
(11:28:46) 64 36 65 - 64 35 65
(11:28:46) 64 36 64 - 64 35 64
(11:28:46) 64 36 64 - 64 35 64
(11:28:46) 64 36 64 - 64 35 64
(11:28:46) 64 36 64 - 64 35 64
(11:28:46) 64 36 64 - 64 35 64
(11:28:47) 64 36 64 - 64 35 64
(11:28:47) 64 36 63 - 64 35 63
(11:28:47) 64 35 63 - 64 34 63
(11:28:47) 64 35 63 - 64 34 63
(11:28:47) 63 36 63 - 63 35 63
(11:28:47) 63 36 63 - 63 35 63
(11:28:47) 63 36 63 - 63 35 63
(11:28:47) 63 36 63 - 63 35 63
(11:28:47) 63 36 63 - 63 35 63
(11:28:48) 63 36 63 - 63 35 63
(11:28:48) 63 36 63 - 63 35 63
(11:28:48) 62 36 63 - 62 35 63
(11:28:48) 62 36 64 - 62 35 64
(11:28:48) 62 36 64 - 62 35 64
(11:28:48) 62 36 64 - 62 35 64
(11:28:48) 62 36 64 - 62 35 64
(11:28:48) 62 36 64 - 62 35 64
(11:28:48) 62 36 64 - 62 35 64
(11:28:49) 62 36 64 - 62 35 64
(11:28:49) 62 36 64 - 62 35 64
(11:28:49) 62 36 64 - 62 35 64
(11:28:49) 62 36 64 - 62 35 64
(11:28:49) 62 36 64 - 62 35 64
(11:28:49) 63 35 64 - 63 34 64
(11:28:49) 63 35 64 - 63 34 64
(11:28:49) 63 35 64 - 63 34 64
(11:28:49) 63 35 64 - 63 34 64
(11:28:50) 63 35 64 - 63 34 64
(11:28:50) 63 35 64 - 63 34 64
(11:28:50) 63 35 64 - 63 34 64
(11:28:50) 63 35 64 - 63 34 64
(11:28:50) 63 35 64 - 63 34 64
(11:28:50) 63 35 64 - 63 34 64
(11:28:50) 63 35 64 - 63 34 64
(11:28:50) 63 35 64 - 63 34 64
(11:28:50) 63 35 64 - 63 34 64
(11:28:50) 63 35 64 - 63 34 64
(11:28:51) 63 35 64 - 63 34 64
(11:28:51) 63 35 64 - 63 34 64
(11:28:51) 63 35 64 - 63 34 64
(11:28:51) 63 35 64 - 63 34 64
(11:28:51) 63 35 64 - 63 34 64
(11:28:51) 63 35 63 - 63 34 63
(11:28:51) 64 35 63 - 64 34 63
(11:28:51) 64 35 63 - 64 34 63
(11:28:51) 64 35 63 - 64 34 63
(11:28:52) 64 35 62 - 64 34 62
(11:28:52) 64 35 62 - 64 34 62
(11:28:52) 65 35 62 - 65 34 62
(11:28:52) 65 35 62 - 65 34 62
(11:28:52) 65 35 62 - 65 34 62
(11:28:52) 65 35 62 - 65 34 62
(11:28:52) 66 35 62 - 66 34 62
(11:28:52) 66 35 62 - 66 34 62
(11:28:52) 66 35 62 - 66 34 62
(11:28:53) 66 35 62 - 66 34 62
(11:28:53) 65 35 62 - 65 34 62
(11:28:53) 65 35 61 - 65 34 61
(11:28:53) 65 35 61 - 65 34 61
(11:28:53) 65 35 62 - 65 34 62
(11:28:53) 64 36 62 - 64 35 62
(11:28:53) 64 36 62 - 64 35 62
(11:28:53) 64 36 62 - 64 35 62
(11:28:53) 64 36 62 - 64 35 62
(11:28:54) 64 36 63 - 64 35 63
(11:28:54) 63 36 63 - 63 35 63
(11:28:54) 63 36 63 - 63 35 63
(11:28:54) 63 36 63 - 63 35 63
(11:28:54) 63 36 64 - 63 35 64
(11:28:54) 62 36 64 - 62 35 64
(11:28:54) 62 36 64 - 62 35 64
(11:28:54) 63 36 64 - 63 35 64
(11:28:54) 63 36 64 - 63 35 64
(11:28:55) 63 36 65 - 63 35 65
(11:28:55) 63 36 65 - 63 35 65
(11:28:55) 63 36 65 - 63 35 65
(11:28:55) 63 36 65 - 63 35 65
(11:28:55) 63 36 65 - 63 35 65
(11:28:55) 63 37 65 - 63 36 65
(11:28:55) 64 36 65 - 64 35 65
(11:28:55) 64 36 65 - 64 35 65
(11:28:55) 64 36 65 - 64 35 65
(11:28:56) 64 36 65 - 64 35 65
(11:28:56) 64 36 64 - 64 35 64
(11:28:56) 65 36 64 - 65 35 64
(11:28:56) 65 35 64 - 65 34 64
(11:28:56) 65 35 64 - 65 34 64
(11:28:56) 65 35 64 - 65 34 64
(11:28:56) 65 35 63 - 65 34 63
(11:28:56) 65 35 63 - 65 34 63
(11:28:56) 65 35 63 - 65 34 63
(11:28:57) 65 35 63 - 65 34 63
(11:28:57) 65 35 63 - 65 34 63
(11:28:57) 65 35 63 - 65 34 63
(11:28:57) 65 35 63 - 65 34 63
(11:28:57) 65 35 63 - 65 34 63
(11:28:57) 65 35 63 - 65 34 63
(11:28:57) 65 35 63 - 65 34 63
(11:28:57) 65 35 63 - 65 34 63
(11:28:57) 65 35 63 - 65 34 63
(11:28:57) 65 35 63 - 65 34 63
(11:28:58) 65 35 63 - 65 34 63
(11:28:58) 65 35 63 - 65 34 63
(11:28:58) 65 35 63 - 65 34 63
(11:28:58) 65 35 63 - 65 34 63
(11:28:58) 65 35 63 - 65 34 63
(11:28:58) 65 35 63 - 65 34 63
(11:28:58) 65 35 63 - 65 34 63
(11:28:58) 65 35 63 - 65 34 63
(11:28:58) 65 35 63 - 65 34 63
(11:28:59) 65 35 63 - 65 34 63
(11:28:59) 65 35 63 - 65 34 63
(11:28:59) 65 35 63 - 65 34 63
(11:28:59) 65 35 63 - 65 34 63
(11:28:59) 65 35 63 - 65 34 63
(11:28:59) 65 35 63 - 65 34 63
(11:28:59) 65 35 63 - 65 34 63
(11:28:59) 65 35 63 - 65 34 63
(11:28:59) 65 35 63 - 65 34 63
(11:29:00) 65 35 63 - 65 34 63
(11:29:00) 65 35 63 - 65 34 63
(11:29:00) 65 35 63 - 65 34 63
(11:29:00) 65 35 63 - 65 34 63
(11:29:00) 65 35 63 - 65 34 63
(11:29:00) 65 35 63 - 65 34 63
(11:29:00) 65 35 63 - 65 34 63
(11:29:00) 65 35 63 - 65 34 63
(11:29:00) 65 35 63 - 65 34 63
(11:29:01) 65 35 63 - 65 34 63
(11:29:01) 65 35 63 - 65 34 63
(11:29:01) 65 35 63 - 65 34 63
(11:29:01) 65 35 63 - 65 34 63
(11:29:01) 65 35 63 - 65 34 63
(11:29:01) 65 35 63 - 65 34 63
(11:29:01) 65 35 63 - 65 34 63
(11:29:01) 65 35 63 - 65 34 63
(11:29:01) 65 35 63 - 65 34 63
(11:29:02) 65 35 63 - 65 34 63
(11:29:02) 65 36 63 - 65 35 63
(11:29:02) 64 36 63 - 64 35 63
(11:29:02) 64 36 63 - 64 35 63
(11:29:02) 64 36 63 - 64 35 63
(11:29:02) 64 35 62 - 64 34 62
(11:29:02) 64 35 62 - 64 34 62
(11:29:02) 63 35 62 - 63 34 62
(11:29:02) 63 35 62 - 63 34 62
(11:29:03) 63 35 62 - 63 34 62
(11:29:03) 63 35 61 - 63 34 61
(11:29:03) 63 35 61 - 63 34 61
(11:29:03) 63 35 61 - 63 34 61
(11:29:03) 64 35 61 - 64 34 61
(11:29:03) 64 36 62 - 64 35 62
(11:29:03) 64 36 62 - 64 35 62
(11:29:03) 63 35 62 - 63 34 62
(11:29:03) 63 35 62 - 63 34 62
(11:29:03) 63 35 62 - 63 34 62
(11:29:04) 63 35 62 - 63 34 62
(11:29:04) 63 35 62 - 63 34 62
(11:29:04) 63 35 62 - 63 34 62
(11:29:04) 63 35 62 - 63 34 62
(11:29:04) 63 35 62 - 63 34 62
(11:29:04) 63 35 62 - 63 34 62
(11:29:04) 64 35 62 - 64 34 62
(11:29:04) 64 35 62 - 64 34 62
(11:29:04) 64 35 63 - 64 34 63
(11:29:05) 64 35 63 - 64 34 63
(11:29:05) 65 35 63 - 65 34 63
(11:29:05) 65 35 63 - 65 34 63
(11:29:05) 65 35 63 - 65 34 63
(11:29:05) 65 35 64 - 65 34 64
(11:29:05) 65 35 64 - 65 34 64
(11:29:05) 65 35 64 - 65 34 64
(11:29:05) 65 35 64 - 65 34 64
(11:29:05) 65 35 64 - 65 34 64
(11:29:06) 65 35 64 - 65 34 64
(11:29:06) 65 35 64 - 65 34 64
(11:29:06) 65 35 64 - 65 34 64
(11:29:06) 65 35 64 - 65 34 64
(11:29:06) 65 35 64 - 65 34 64
(11:29:06) 65 35 64 - 65 34 64
(11:29:06) 65 35 64 - 65 34 64
(11:29:06) 65 35 64 - 65 34 64
(11:29:06) 65 35 64 - 65 34 64
(11:29:07) 65 35 64 - 65 34 64
(11:29:07) 65 35 64 - 65 34 64
(11:29:07) 65 35 64 - 65 34 64
(11:29:07) 65 35 64 - 65 34 64
(11:29:07) 65 36 64 - 65 35 64
(11:29:07) 65 35 64 - 65 34 64
(11:29:07) 64 36 64 - 64 35 64
(11:29:07) 64 36 63 - 64 35 63
(11:29:07) 64 36 63 - 64 35 63
(11:29:08) 64 36 63 - 64 35 63
(11:29:08) 64 36 63 - 64 35 63
(11:29:08) 63 35 62 - 63 34 62
(11:29:08) 63 35 62 - 63 34 62
(11:29:08) 63 35 62 - 63 34 62
(11:29:08) 63 35 62 - 63 34 62
(11:29:08) 63 35 62 - 63 34 62
(11:29:08) 63 35 62 - 63 34 62
(11:29:08) 63 35 62 - 63 34 62
(11:29:09) 63 35 62 - 63 34 62
(11:29:09) 63 35 62 - 63 34 62
(11:29:09) 63 35 62 - 63 34 62
(11:29:09) 63 35 62 - 63 34 62
(11:29:09) 63 35 62 - 63 34 62
(11:29:09) 63 35 62 - 63 34 62
(11:29:09) 63 35 62 - 63 34 62
(11:29:09) 63 35 62 - 63 34 62
(11:29:09) 63 35 62 - 63 34 62
(11:29:09) 63 35 62 - 63 34 62
(11:29:10) 63 35 62 - 63 34 62
(11:29:10) 63 35 62 - 63 34 62
(11:29:10) 63 35 62 - 63 34 62
(11:29:10) 63 35 62 - 63 34 62
(11:29:10) 63 35 62 - 63 34 62
(11:29:10) 63 35 62 - 63 34 62
(11:29:10) 63 35 62 - 63 34 62
(11:29:10) 63 35 62 - 63 34 62
(11:29:10) 63 35 62 - 63 34 62
(11:29:11) 63 35 62 - 63 34 62
(11:29:11) 63 35 62 - 63 34 62
(11:29:11) 63 35 62 - 63 34 62
(11:29:11) 63 35 62 - 63 34 62
(11:29:11) 63 35 62 - 63 34 62
(11:29:11) 63 35 62 - 63 34 62
(11:29:11) 63 35 62 - 63 34 62
(11:29:11) 63 35 62 - 63 34 62
(11:29:11) 63 35 62 - 63 34 62
(11:29:12) 63 35 62 - 63 34 62
(11:29:12) 63 35 62 - 63 34 62
(11:29:12) 63 35 62 - 63 34 62
(11:29:12) 63 35 62 - 63 34 62
(11:29:12) 63 35 62 - 63 34 62
(11:29:12) 64 37 63 - 64 36 63
(11:29:12) 64 36 63 - 64 35 63
(11:29:12) 64 37 63 - 64 36 63
(11:29:12) 64 37 63 - 64 35 63
(11:29:13) 64 37 64 - 64 36 64
(11:29:13) 64 37 64 - 64 36 64
(11:29:13) 64 37 64 - 64 36 64
(11:29:13) 64 37 64 - 64 36 64
(11:29:13) 64 37 64 - 64 36 64
(11:29:13) 63 37 65 - 63 36 65
(11:29:13) 63 37 65 - 63 36 65
(11:29:13) 63 37 65 - 63 36 65
(11:29:13) 63 37 64 - 63 36 64
(11:29:14) 63 37 64 - 63 36 64
(11:29:14) 62 37 64 - 62 36 64
(11:29:14) 62 37 64 - 62 36 64
(11:29:14) 62 37 64 - 62 36 64
(11:29:14) 63 36 63 - 63 35 63
(11:29:14) 63 36 63 - 63 35 63
(11:29:14) 63 36 63 - 63 35 63
(11:29:14) 63 36 63 - 63 35 63
(11:29:14) 63 35 62 - 63 34 62
(11:29:15) 64 35 62 - 64 34 62
(11:29:15) 64 35 62 - 64 34 62
(11:29:15) 64 36 63 - 64 35 63
(11:29:15) 64 37 63 - 64 36 63
(11:29:15) 64 37 63 - 64 36 63
(11:29:15) 64 36 63 - 64 35 63
(11:29:15) 64 37 63 - 64 36 63
(11:29:15) 64 37 64 - 64 36 64
(11:29:15) 64 37 64 - 64 36 64
(11:29:15) 64 37 64 - 64 36 64
(11:29:16) 63 36 64 - 63 35 64
(11:29:16) 63 37 64 - 63 36 64
(11:29:16) 63 37 64 - 63 36 64
(11:29:16) 63 37 64 - 63 36 64
(11:29:16) 62 37 64 - 62 36 64
(11:29:16) 62 37 64 - 62 36 64
(11:29:16) 62 37 64 - 62 36 64
(11:29:16) 62 37 64 - 62 36 64
(11:29:16) 62 37 63 - 62 36 63
(11:29:17) 62 37 63 - 62 36 63
(11:29:17) 62 37 63 - 62 36 63
(11:29:17) 62 37 63 - 62 36 63
(11:29:17) 63 36 63 - 63 35 63
(11:29:17) 62 37 63 - 62 36 63
(11:29:17) 62 37 63 - 62 36 63
(11:29:17) 62 37 64 - 62 36 64
(11:29:17) 62 37 64 - 62 36 64
(11:29:17) 63 37 64 - 63 36 64
(11:29:18) 63 37 64 - 63 36 64
(11:29:18) 63 37 64 - 63 36 64
(11:29:18) 63 37 64 - 63 36 64
(11:29:18) 63 35 64 - 63 34 64
(11:29:18) 63 35 64 - 63 34 64
(11:29:18) 63 36 64 - 63 35 64
(11:29:18) 63 35 64 - 63 34 64
(11:29:18) 63 35 64 - 63 34 64
(11:29:18) 63 35 64 - 63 34 64
(11:29:19) 63 35 64 - 63 34 64
(11:29:19) 63 35 64 - 63 34 64
(11:29:19) 63 35 64 - 63 34 64
(11:29:19) 63 35 64 - 63 34 64
(11:29:19) 63 35 64 - 63 34 64
(11:29:19) 63 35 64 - 63 34 64
(11:29:19) 63 35 64 - 63 34 64
(11:29:19) 63 35 64 - 63 34 64
(11:29:19) 63 35 64 - 63 34 64
(11:29:20) 63 35 64 - 63 34 64
(11:29:20) 63 35 64 - 63 34 64
(11:29:20) 63 35 64 - 63 34 64
(11:29:20) 63 35 64 - 63 34 64
(11:29:20) 63 35 64 - 63 34 64
(11:29:20) 63 35 64 - 63 34 64
(11:29:20) 63 35 64 - 63 34 64
(11:29:20) 63 35 64 - 63 34 64
(11:29:20) 63 35 64 - 63 34 64
(11:29:21) 63 35 64 - 63 34 64
(11:29:21) 63 35 64 - 63 34 64
(11:29:21) 63 35 64 - 63 34 64
(11:29:21) 63 35 64 - 63 34 64
(11:29:21) 63 35 64 - 63 34 64
(11:29:21) 63 35 64 - 63 34 64
(11:29:21) 63 35 64 - 63 34 64
(11:29:21) 63 35 64 - 63 34 64
(11:29:21) 63 35 64 - 63 34 64
(11:29:22) 63 35 64 - 63 34 64
(11:29:22) 63 35 64 - 63 34 64
(11:29:22) 63 35 64 - 63 34 64
(11:29:22) 63 35 64 - 63 34 64
(11:29:22) 63 35 64 - 63 34 64
(11:29:22) 63 35 64 - 63 34 64
(11:29:22) 63 35 64 - 63 34 64
(11:29:22) 63 35 64 - 63 34 64
(11:29:22) 63 35 64 - 63 34 64
(11:29:22) 63 35 64 - 63 34 64
(11:29:23) 63 35 64 - 63 34 64
(11:29:23) 63 35 64 - 63 34 64
(11:29:23) 63 35 64 - 63 34 64
(11:29:23) 63 35 64 - 63 34 64
(11:29:23) 63 35 64 - 63 34 64
(11:29:23) 63 35 64 - 63 34 64
(11:29:23) 63 35 64 - 63 34 64
(11:29:23) 63 35 64 - 63 34 64
(11:29:23) 63 35 64 - 63 34 64
(11:29:24) 63 35 64 - 63 34 64
(11:29:24) 63 35 64 - 63 34 64
(11:29:24) 63 35 64 - 63 34 64
(11:29:24) 63 35 64 - 63 34 64
(11:29:24) 63 35 64 - 63 34 64
(11:29:24) 63 35 64 - 63 34 64
(11:29:24) 63 35 64 - 63 34 64
(11:29:24) 63 35 64 - 63 34 64
(11:29:24) 63 35 64 - 63 34 64
(11:29:25) 63 35 64 - 63 34 64
(11:29:25) 63 35 64 - 63 34 64
(11:29:25) 63 35 64 - 63 34 64
(11:29:25) 63 35 64 - 63 34 64
(11:29:25) 63 35 64 - 63 34 64
(11:29:25) 63 35 64 - 63 34 64
(11:29:25) 63 35 64 - 63 34 64
(11:29:25) 63 35 64 - 63 34 64
(11:29:25) 63 35 64 - 63 34 64
(11:29:26) 63 35 64 - 63 34 64
(11:29:26) 63 35 64 - 63 34 64
(11:29:26) 63 35 64 - 63 34 64
(11:29:26) 63 35 64 - 63 34 64
(11:29:26) 63 35 64 - 63 34 64
(11:29:26) 63 35 64 - 63 34 64
(11:29:26) 63 35 64 - 63 34 64
(11:29:26) 63 35 64 - 63 34 64
(11:29:26) 63 35 64 - 63 34 64
(11:29:27) 63 35 64 - 63 34 64
(11:29:27) 63 35 64 - 63 34 64
(11:29:27) 63 35 64 - 63 34 64
(11:29:27) 63 35 64 - 63 34 64
(11:29:27) 63 35 64 - 63 34 64
(11:29:27) 63 35 64 - 63 34 64
(11:29:27) 63 35 64 - 63 34 64
(11:29:27) 63 35 64 - 63 34 64
(11:29:27) 63 35 64 - 63 34 64
(11:29:28) 63 35 64 - 63 34 64
(11:29:28) 63 35 64 - 63 34 64
(11:29:28) 63 35 64 - 63 34 64
(11:29:28) 63 35 64 - 63 34 64
(11:29:28) 63 35 64 - 63 34 64
(11:29:28) 63 35 64 - 63 34 64
(11:29:28) 63 35 64 - 63 34 64
(11:29:28) 63 35 64 - 63 34 64
(11:29:28) 63 35 64 - 63 34 64
(11:29:28) 63 35 64 - 63 34 64
(11:29:29) 63 35 64 - 63 34 64
(11:29:29) 63 35 64 - 63 34 64
(11:29:29) 63 35 64 - 63 34 64
(11:29:29) 63 35 64 - 63 34 64
(11:29:29) 63 35 64 - 63 34 64
(11:29:29) 63 35 64 - 63 34 64
(11:29:29) 63 35 64 - 63 34 64
(11:29:29) 63 35 64 - 63 34 64
(11:29:29) 63 35 64 - 63 34 64
(11:29:30) 63 35 64 - 63 34 64
(11:29:30) 63 35 64 - 63 34 64
(11:29:30) 63 35 64 - 63 34 64
(11:29:30) 63 35 64 - 63 34 64
(11:29:30) 63 35 64 - 63 34 64
(11:29:30) 63 35 64 - 63 34 64
(11:29:30) 63 35 64 - 63 34 64
(11:29:30) 63 35 64 - 63 34 64
(11:29:30) 63 35 64 - 63 34 64
(11:29:31) 63 35 64 - 63 34 64
(11:29:31) 63 35 64 - 63 34 64
(11:29:31) 63 35 64 - 63 34 64
(11:29:31) 63 35 64 - 63 34 64
(11:29:31) 63 35 64 - 63 34 64
(11:29:31) 63 35 64 - 63 34 64
(11:29:31) 63 35 64 - 63 34 64
(11:29:31) 63 35 64 - 63 34 64
(11:29:31) 63 35 64 - 63 34 64
(11:29:32) 63 35 64 - 63 34 64
(11:29:32) 63 35 64 - 63 34 64
(11:29:32) 63 35 64 - 63 34 64
(11:29:32) An Error occured! For more information, go to System Logs tab
(11:29:32) 63 35 64 - 63 34 64
(11:29:32) An Error occured! For more information, go to System Logs tab
(11:29:32) 63 35 64 - 63 34 64
(11:29:32) 63 35 64 - 63 34 64
(11:29:32) 63 35 64 - 63 34 64
(11:29:32) 63 35 64 - 63 34 64
(11:29:32) 63 35 64 - 63 34 64
(11:29:33) 63 35 64 - 63 34 64
(11:29:33) 63 35 64 - 63 34 64
(11:29:33) 63 35 64 - 63 34 64
(11:29:33) 63 35 64 - 63 34 64
(11:29:33) 63 35 64 - 63 34 64
(11:29:33) 63 35 64 - 63 34 64
(11:29:33) 63 35 64 - 63 34 64
(11:29:33) 63 35 64 - 63 34 64
(11:29:33) 63 35 64 - 63 34 64
(11:29:34) 63 35 64 - 63 34 64
(11:29:34) 63 35 64 - 63 34 64
(11:29:34) 63 35 64 - 63 34 64
(11:29:34) 63 35 64 - 63 34 64
(11:29:34) 63 35 64 - 63 34 64
(11:29:34) 63 35 64 - 63 34 64
(11:29:34) 63 35 64 - 63 34 64
(11:29:34) 63 35 64 - 63 34 64
(11:29:34) 63 35 64 - 63 34 64
(11:29:35) 63 35 64 - 63 34 64
(11:29:35) 63 35 64 - 63 34 64
(11:29:35) 63 35 64 - 63 34 64
(11:29:35) 63 35 64 - 63 34 64
(11:29:35) 63 35 64 - 63 34 64
(11:29:35) 63 35 64 - 63 34 64
(11:29:35) 63 35 64 - 63 34 64
(11:29:35) 63 35 64 - 63 34 64
(11:29:35) 63 35 64 - 63 34 64
(11:29:35) 63 35 64 - 63 34 64
(11:29:36) 63 35 64 - 63 34 64
(11:29:36) 63 35 64 - 63 34 64
(11:29:36) 63 35 64 - 63 34 64
(11:29:36) 63 35 64 - 63 34 64
(11:29:36) 63 35 64 - 63 34 64
(11:29:36) 63 35 64 - 63 34 64
(11:29:36) 63 35 64 - 63 34 64
(11:29:36) 63 35 64 - 63 34 64
(11:29:36) 63 35 64 - 63 34 64
(11:29:37) 63 35 64 - 63 34 64
(11:29:37) 63 35 64 - 63 34 64
(11:29:37) 63 35 64 - 63 34 64
(11:29:37) 63 35 64 - 63 34 64
(11:29:37) 63 35 64 - 63 34 64
(11:29:37) 63 35 64 - 63 34 64
(11:29:37) 63 35 64 - 63 34 64
(11:29:37) 63 35 64 - 63 34 64
(11:29:37) 63 35 64 - 63 34 64
(11:29:38) 63 35 64 - 63 34 64
(11:29:38) 63 35 64 - 63 34 64
(11:29:38) 63 35 64 - 63 34 64
(11:29:38) 63 35 64 - 63 34 64
(11:29:38) 63 35 64 - 63 34 64
(11:29:38) 63 35 64 - 63 34 64
(11:29:38) 63 35 64 - 63 34 64
(11:29:38) 63 35 64 - 63 34 64
(11:29:38) 63 35 64 - 63 34 64
(11:29:39) 63 35 64 - 63 34 64
(11:29:39) 63 35 64 - 63 34 64
(11:29:39) 63 35 64 - 63 34 64
(11:29:39) 63 35 64 - 63 34 64
(11:29:39) 63 35 64 - 63 34 64
(11:29:39) 63 35 64 - 63 34 64
(11:29:39) 63 35 64 - 63 34 64
(11:29:39) 63 35 64 - 63 34 64
(11:29:39) 63 35 64 - 63 34 64
(11:29:40) 63 35 64 - 63 34 64
(11:29:40) 63 35 64 - 63 34 64
(11:29:40) 63 35 64 - 63 34 64
(11:29:40) 63 35 64 - 63 34 64
(11:29:40) 63 35 64 - 63 34 64
(11:29:40) 63 35 64 - 63 34 64
(11:29:40) 63 35 64 - 63 34 64
(11:29:40) 63 35 64 - 63 34 64
(11:29:40) 63 35 64 - 63 34 64
(11:29:41) 63 35 64 - 63 34 64
(11:29:41) 63 35 64 - 63 34 64
(11:29:41) 63 35 64 - 63 34 64
(11:29:41) 63 35 64 - 63 34 64
(11:29:41) 63 35 64 - 63 34 64
(11:29:41) 63 35 64 - 63 34 64
(11:29:41) 63 35 64 - 63 34 64
(11:29:41) 63 35 64 - 63 34 64
(11:29:41) 63 35 64 - 63 34 64
(11:29:41) 63 35 64 - 63 34 64
(11:29:42) 63 35 64 - 63 34 64
(11:29:42) 63 35 64 - 63 34 64
(11:29:42) 63 35 64 - 63 34 64
(11:29:42) 63 35 64 - 63 34 64
(11:29:42) 63 35 64 - 63 34 64
(11:29:42) 63 35 64 - 63 34 64
(11:29:42) 63 35 64 - 63 34 64
(11:29:42) 63 35 64 - 63 34 64
(11:29:42) 63 35 64 - 63 34 64
(11:29:43) 63 35 64 - 63 34 64
(11:29:43) 63 35 64 - 63 34 64
(11:29:43) 63 35 64 - 63 34 64
(11:29:43) 63 35 64 - 63 34 64
(11:29:43) 63 35 64 - 63 34 64
(11:29:43) 63 35 64 - 63 34 64
(11:29:43) 63 35 64 - 63 34 64
(11:29:43) 63 35 64 - 63 34 64
(11:29:43) 63 35 64 - 63 34 64
(11:29:44) 63 35 64 - 63 34 64
(11:29:44) 63 35 64 - 63 34 64
(11:29:44) 63 35 64 - 63 34 64
(11:29:44) 63 35 64 - 63 34 64
(11:29:44) 63 35 64 - 63 34 64
(11:29:44) 63 35 64 - 63 34 64
(11:29:44) 63 35 64 - 63 34 64
(11:29:44) 63 35 64 - 63 34 64
(11:29:44) 63 35 64 - 63 34 64
(11:29:45) 63 35 64 - 63 34 64
(11:29:45) 63 35 64 - 63 34 64
(11:29:45) 63 35 64 - 63 34 64
(11:29:45) 63 35 64 - 63 34 64
(11:29:45) 63 35 64 - 63 34 64
(11:29:45) 63 35 64 - 63 34 64
(11:29:45) 63 35 64 - 63 34 64
(11:29:45) 63 35 64 - 63 34 64
(11:29:45) 63 35 64 - 63 34 64
(11:29:46) 63 35 64 - 63 34 64
(11:29:46) 63 35 64 - 63 34 64
(11:29:46) 63 35 64 - 63 34 64
(11:29:46) 63 35 64 - 63 34 64
(11:29:46) 63 35 64 - 63 34 64
(11:29:46) 63 35 64 - 63 34 64
(11:29:46) 63 35 64 - 63 34 64
(11:29:46) 63 35 64 - 63 34 64
(11:29:46) 63 35 64 - 63 34 64
(11:29:47) 63 35 64 - 63 34 64
(11:29:47) 63 35 64 - 63 34 64
(11:29:47) 63 35 64 - 63 34 64
(11:29:47) 63 35 64 - 63 34 64
(11:29:47) 63 35 64 - 63 34 64
(11:29:47) 63 35 64 - 63 34 64
(11:29:47) 63 35 64 - 63 34 64
(11:29:47) 63 35 64 - 63 34 64
(11:29:47) 63 35 64 - 63 34 64
(11:29:47) 63 35 64 - 63 34 64
(11:29:48) 63 35 64 - 63 34 64
(11:29:48) 63 35 64 - 63 34 64
(11:29:48) 63 35 64 - 63 34 64
(11:29:48) 63 35 64 - 63 34 64
(11:29:48) 63 35 64 - 63 34 64
(11:29:48) 63 35 64 - 63 34 64
(11:29:48) 63 35 64 - 63 34 64
(11:29:48) 63 35 64 - 63 34 64
(11:29:48) 63 35 64 - 63 34 64
(11:29:49) 63 35 64 - 63 34 64
(11:29:49) 63 35 64 - 63 34 64
(11:29:49) 63 35 64 - 63 34 64
(11:29:49) 63 35 64 - 63 34 64
(11:29:49) 63 35 64 - 63 34 64
(11:29:49) 63 35 64 - 63 34 64
(11:29:49) 63 35 64 - 63 34 64
(11:29:49) 63 35 64 - 63 34 64
(11:29:49) 63 35 64 - 63 34 64
(11:29:50) 63 35 64 - 63 34 64
(11:29:50) 63 35 64 - 63 34 64
(11:29:50) 63 35 64 - 63 34 64
(11:29:50) 63 35 64 - 63 34 64
(11:29:50) 63 35 64 - 63 34 64
(11:29:50) 63 35 64 - 63 34 64
(11:29:50) 63 35 64 - 63 34 64
(11:29:50) 63 35 64 - 63 34 64
(11:29:50) 63 35 64 - 63 34 64
(11:29:51) 63 35 64 - 63 34 64
(11:29:51) 63 35 64 - 63 34 64
(11:29:51) 63 35 64 - 63 34 64
(11:29:51) 63 35 64 - 63 34 64
(11:29:51) 63 35 64 - 63 34 64
(11:29:51) 63 35 64 - 63 34 64
(11:29:51) 63 35 64 - 63 34 64
(11:29:51) 63 35 64 - 63 34 64
(11:29:51) 63 35 64 - 63 34 64
(11:29:52) 63 35 64 - 63 34 64
(11:29:52) 63 35 64 - 63 34 64
(11:29:52) 63 35 64 - 63 34 64
(11:29:52) 63 35 64 - 63 34 64
(11:29:52) 63 35 64 - 63 34 64
(11:29:52) 63 35 64 - 63 34 64
(11:29:52) 63 35 64 - 63 34 64
(11:29:52) 63 35 64 - 63 34 64
(11:29:52) 63 35 64 - 63 34 64
(11:29:53) 63 35 64 - 63 34 64
(11:29:53) 63 35 64 - 63 34 64
(11:29:53) 63 35 64 - 63 34 64
(11:29:53) 63 35 64 - 63 34 64
(11:29:53) 63 35 64 - 63 34 64
(11:29:53) 63 35 64 - 63 34 64
(11:29:53) 63 35 64 - 63 34 64
(11:29:53) 63 35 64 - 63 34 64
(11:29:53) 63 35 64 - 63 34 64
(11:29:53) quaisaq disconnected.
(11:29:53) 63 35 64 - 63 34 64
(11:29:54) 63 35 64 - 63 34 64
(11:29:54) 63 35 64 - 63 34 64
(11:29:54) 63 35 64 - 63 34 64
(11:29:54) 63 35 64 - 63 34 64
(11:29:54) 63 35 64 - 63 34 64
(11:29:54) 63 35 64 - 63 34 64
(11:29:54) 63 35 64 - 63 34 64
(11:29:54) 63 35 64 - 63 34 64
(11:29:54) GAH! PHYSICS EXPLODING!
(11:29:54) Process Terminated
(11:30:12) Properties loaded, and saved!
(11:30:12) You should enable "check-update" in server.properties
(11:30:12) Incorrect value given for tnt, using default value.
(11:30:13) Level initialized
(11:30:13) Level "main" loaded.
(11:30:13) Creating listening socket on port 31415... 
(11:30:13) Checking if port is forwarded...
(11:30:14) MJS --> Event ServerStart was triggered with parameters: 
(11:30:15) Port 31415 is closed!
(11:30:15) Done.
(11:30:15) 127.0.0.1 logging in as quaisaq.
(11:30:16) MJS --> Event PlayerJoin was triggered with parameters: player $player quaisaq
(11:30:22) quaisaq uses /portal air
(11:30:39) quaisaq uses /botadd lol
(11:30:39) 57 38 59 - 57 37 59
(11:30:39) 57 38 59 - 57 37 59
(11:30:40) 57 38 59 - 57 37 59
(11:30:40) 57 38 59 - 57 37 59
(11:30:40) 57 38 59 - 57 37 59
(11:30:40) 57 38 59 - 57 37 59
(11:30:40) 57 38 59 - 57 37 59
(11:30:40) 57 38 59 - 57 37 59
(11:30:40) 57 38 59 - 57 37 59
(11:30:40) 57 38 59 - 57 37 59
(11:30:40) 57 38 59 - 57 37 59
(11:30:40) 57 38 59 - 57 37 59
(11:30:41) 57 38 59 - 57 37 59
(11:30:41) 57 38 59 - 57 37 59
(11:30:41) 57 38 59 - 57 37 59
(11:30:41) 57 38 59 - 57 37 59
(11:30:41) 57 38 59 - 57 37 59
(11:30:41) 57 38 59 - 57 37 59
(11:30:41) 57 38 59 - 57 37 59
(11:30:41) 57 38 59 - 57 37 59
(11:30:41) 57 38 59 - 57 37 59
(11:30:42) 57 38 59 - 57 37 59
(11:30:42) 57 38 59 - 57 37 59
(11:30:42) 57 38 59 - 57 37 59
(11:30:42) 57 38 59 - 57 37 59
(11:30:42) 57 38 59 - 57 37 59
(11:30:42) 57 38 59 - 57 37 59
(11:30:42) 57 38 59 - 57 37 59
(11:30:42) 57 38 59 - 57 37 59
(11:30:42) 57 38 59 - 57 37 59
(11:30:43) 57 38 59 - 57 37 59
(11:30:43) 57 38 59 - 57 37 59
(11:30:43) 57 38 59 - 57 37 59
(11:30:43) 57 38 59 - 57 37 59
(11:30:43) 57 38 59 - 57 37 59
(11:30:43) 57 38 59 - 57 37 59
(11:30:43) 57 38 59 - 57 37 59
(11:30:43) quaisaq uses /botset lol hunt
(11:30:43) 57 38 59 - 57 37 59
(11:30:43) 57 35 59 - 57 34 59
(11:30:43) tol
(11:30:44) 57 35 59 - 57 34 59
(11:30:44) tol
(11:30:44) 57 35 59 - 57 34 59
(11:30:44) tol
(11:30:44) 57 35 59 - 57 34 59
(11:30:44) tol
(11:30:44) 57 35 59 - 57 34 59
(11:30:44) tol
(11:30:44) 57 35 59 - 57 34 59
(11:30:44) tol
(11:30:44) 57 35 59 - 57 34 59
(11:30:44) tol
(11:30:44) 57 35 59 - 57 34 59
(11:30:44) tol
(11:30:44) 57 35 59 - 57 34 59
(11:30:44) tol
(11:30:44) 57 35 59 - 57 34 59
(11:30:44) tol
(11:30:45) 57 35 59 - 57 34 59
(11:30:45) tol
(11:30:45) 57 35 59 - 57 34 59
(11:30:45) tol
(11:30:45) 57 35 59 - 57 34 59
(11:30:45) tol
(11:30:45) 57 35 59 - 57 34 59
(11:30:45) tol
(11:30:45) 57 35 59 - 57 34 59
(11:30:45) tol
(11:30:45) 57 35 59 - 57 34 59
(11:30:45) tol
(11:30:45) 57 35 59 - 57 34 59
(11:30:45) tol
(11:30:45) 57 35 59 - 57 34 59
(11:30:45) tol
(11:30:45) 57 35 59 - 57 34 59
(11:30:45) tol
(11:30:46) 57 35 59 - 57 34 59
(11:30:46) tol
(11:30:46) 57 35 59 - 57 34 59
(11:30:46) tol
(11:30:46) 57 35 59 - 57 34 59
(11:30:46) tol
(11:30:46) 57 35 59 - 57 34 59
(11:30:46) tol
(11:30:46) 57 35 59 - 57 34 59
(11:30:46) tol
(11:30:46) 57 35 59 - 57 34 59
(11:30:46) tol
(11:30:46) 57 35 59 - 57 34 59
(11:30:46) tol
(11:30:46) 57 35 59 - 57 34 59
(11:30:46) tol
(11:30:46) 57 35 59 - 57 34 59
(11:30:46) tol
(11:30:46) 57 35 59 - 57 34 59
(11:30:47) tol
(11:30:47) 57 35 59 - 57 34 59
(11:30:47) tol
(11:30:47) 57 35 59 - 57 34 59
(11:30:47) tol
(11:30:47) 57 35 59 - 57 34 59
(11:30:47) tol
(11:30:47) 57 35 59 - 57 34 59
(11:30:47) tol
(11:30:47) 57 35 59 - 57 34 59
(11:30:47) tol
(11:30:47) 57 35 59 - 57 34 59
(11:30:47) tol
(11:30:47) 57 35 59 - 57 34 59
(11:30:47) tol
(11:30:47) 57 35 59 - 57 34 59
(11:30:47) tol
(11:30:47) 57 35 59 - 57 34 59
(11:30:47) tol
(11:30:48) 57 35 59 - 57 34 59
(11:30:48) tol
(11:30:48) 57 35 59 - 57 34 59
(11:30:48) tol
(11:30:48) 57 35 59 - 57 34 59
(11:30:48) tol
(11:30:48) 57 35 59 - 57 34 59
(11:30:48) tol
(11:30:48) 57 35 59 - 57 34 59
(11:30:48) tol
(11:30:48) 57 35 59 - 57 34 59
(11:30:48) tol
(11:30:48) 57 35 59 - 57 34 59
(11:30:48) tol
(11:30:48) 57 35 59 - 57 34 59
(11:30:48) tol
(11:30:48) 57 35 59 - 57 34 59
(11:30:48) tol
(11:30:49) 57 35 59 - 57 34 59
(11:30:49) tol
(11:30:49) 57 35 59 - 57 34 59
(11:30:49) tol
(11:30:49) 57 35 59 - 57 34 59
(11:30:49) tol
(11:30:49) 57 35 59 - 57 34 59
(11:30:49) tol
(11:30:49) 57 35 59 - 57 34 59
(11:30:49) tol
(11:30:49) 57 35 59 - 57 34 59
(11:30:49) tol
(11:30:49) 57 35 59 - 57 34 59
(11:30:49) tol
(11:30:49) 57 35 59 - 57 34 59
(11:30:49) tol
(11:30:49) 57 35 59 - 57 34 59
(11:30:49) tol
(11:30:50) 57 35 59 - 57 34 59
(11:30:50) tol
(11:30:50) 57 35 59 - 57 34 59
(11:30:50) tol
(11:30:50) 57 35 59 - 57 34 59
(11:30:50) tol
(11:30:50) 57 35 59 - 57 34 59
(11:30:50) tol
(11:30:50) 57 35 59 - 57 34 59
(11:30:50) tol
(11:30:50) 57 35 59 - 57 34 59
(11:30:50) tol
(11:30:50) 57 35 59 - 57 34 59
(11:30:50) tol
(11:30:50) 57 35 59 - 57 34 59
(11:30:50) tol
(11:30:50) 57 35 59 - 57 34 59
(11:30:50) tol
(11:30:51) 57 35 59 - 57 34 59
(11:30:51) tol
(11:30:51) 57 35 59 - 57 34 59
(11:30:51) tol
(11:30:51) quaisaq disconnected.
(11:30:51) 57 35 59 - 57 34 59
(11:30:51) tol
(11:30:51) 57 35 59 - 57 34 59
(11:30:51) tol
(11:30:51) 57 35 59 - 57 34 59
(11:30:51) tol
(11:30:51) 57 35 59 - 57 34 59
(11:30:51) tol
(11:30:51) 57 35 59 - 57 34 59
(11:30:51) tol
(11:30:51) 57 35 59 - 57 34 59
(11:30:51) tol
(11:30:51) 57 35 59 - 57 34 59
(11:30:51) tol
(11:30:52) 57 35 59 - 57 34 59
(11:30:52) tol
(11:30:52) 57 35 59 - 57 34 59
(11:30:52) tol
(11:30:52) 57 35 59 - 57 34 59
(11:30:52) tol
(11:30:52) 57 35 59 - 57 34 59
(11:30:52) tol
(11:30:52) 57 35 59 - 57 34 59
(11:30:52) tol
(11:30:52) 57 35 59 - 57 34 59
(11:30:52) tol
(11:30:52) 57 35 59 - 57 34 59
(11:30:52) tol
(11:30:52) 57 35 59 - 57 34 59
(11:30:52) tol
(11:30:52) 57 35 59 - 57 34 59
(11:30:52) tol
(11:30:53) 57 35 59 - 57 34 59
(11:30:53) tol
(11:30:53) GAH! PHYSICS EXPLODING!
(11:30:53) Process Terminated
(11:34:03) Properties loaded, and saved!
(11:34:03) You should enable "check-update" in server.properties
(11:34:03) Incorrect value given for tnt, using default value.
(11:34:04) Level initialized
(11:34:04) Level "main" loaded.
(11:34:04) Creating listening socket on port 31415... 
(11:34:04) Checking if port is forwarded...
(11:34:05) Port 31415 is closed!
(11:34:05) Done.
(11:34:05) MJS --> Event ServerStart was triggered with parameters: 
(11:34:06) 127.0.0.1 logging in as quaisaq.
(11:34:07) MJS --> Event PlayerJoin was triggered with parameters: player $player quaisaq
(11:34:12) quaisaq uses /botadd lo
(11:34:18) quaisaq uses /portal air
(11:34:33) quaisaq uses /botsummon lo
(11:34:40) quaisaq uses /botset lo hunt
(11:34:40) lolol
(11:34:48) quaisaq uses /portal water multi
(11:35:01) lolol
(11:35:06) lolol
(11:35:13) lolol
(11:36:36) SAVED: Level "main". 1/1/20
(11:36:36) And backed up
(11:36:36) Backup 1103 saved for main
(11:38:36) quaisaq disconnected.
(11:38:37) GAH! PHYSICS EXPLODING!
(11:38:42) Properties loaded, and saved!
(11:38:42) You should enable "check-update" in server.properties
(11:38:42) Incorrect value given for tnt, using default value.
(11:38:43) Level initialized
(11:38:43) Level "main" loaded.
(11:38:43) Creating listening socket on port 31415... 
(11:38:43) Checking if port is forwarded...
(11:38:45) MJS --> Event ServerStart was triggered with parameters: 
(11:38:45) 127.0.0.1 logging in as quaisaq.
(11:38:45) MJS --> Event PlayerJoin was triggered with parameters: player $player quaisaq
(11:38:46) Port 31415 is closed!
(11:38:46) Done.
(11:38:53) quaisaq uses /botadd lo
(11:38:56) quaisaq uses /botset lo hunt
(11:38:59) quaisaq uses /portal air
(11:39:09) lolol
(11:39:12) lolol
(11:39:14) lolol
(11:39:17) lolol
(11:39:19) lolol
(11:39:22) lolol
(11:39:24) lolol
(11:39:27) lolol
(11:39:29) lolol
(11:39:32) lolol
(11:39:34) lolol
(11:39:37) lolol
(11:39:39) lolol
(11:39:42) lolol
(11:39:45) lolol
(11:39:47) lolol
(11:39:50) lolol
(11:39:52) lolol
(11:39:55) lolol
(11:39:57) lolol
(11:40:00) lolol
(11:40:02) lolol
(11:40:05) lolol
(11:40:07) lolol
(11:40:10) lolol
(11:40:12) lolol
(11:40:15) lolol
(11:40:17) lolol
(11:40:20) lolol
(11:40:22) lolol
(11:40:25) lolol
(11:40:27) lolol
(11:40:30) lolol
(11:40:32) lolol
(11:40:35) lolol
(11:40:37) lolol
(11:40:40) lolol
(11:40:42) lolol
(11:40:45) lolol
(11:40:48) lolol
(11:40:50) lolol
(11:40:53) lolol
(11:40:55) lolol
(11:40:58) lolol
(11:41:00) lolol
(11:41:03) lolol
(11:41:05) lolol
(11:41:08) lolol
(11:41:10) lolol
(11:41:13) lolol
(11:41:15) lolol
(11:41:16) SAVED: Level "main". 1/1/20
(11:41:16) And backed up
(11:41:16) Backup 1105 saved for main
(11:41:18) lolol
(11:41:20) lolol
(11:41:23) lolol
(11:41:25) lolol
(11:41:28) lolol
(11:41:30) lolol
(11:41:33) lolol
(11:41:35) lolol
(11:41:38) lolol
(11:41:40) lolol
(11:41:43) lolol
(11:41:45) lolol
(11:41:48) lolol
(11:41:50) lolol
(11:41:53) lolol
(11:41:55) lolol
(11:41:58) lolol
(11:42:00) lolol
(11:42:03) lolol
(11:42:05) lolol
(11:42:08) lolol
(11:42:11) lolol
(11:42:13) lolol
(11:42:16) lolol
(11:42:18) lolol
(11:42:21) lolol
(11:42:23) lolol
(11:42:26) lolol
(11:42:28) lolol
(11:42:31) lolol
(11:42:33) lolol
(11:42:36) lolol
(11:42:38) lolol
(11:42:41) lolol
(11:42:43) lolol
(11:42:46) lolol
(11:42:48) lolol
(11:42:51) lolol
(11:42:53) lolol
(11:42:56) lolol
(11:42:58) lolol
(11:43:01) lolol
(11:43:03) lolol
(11:43:06) lolol
(11:43:07) quaisaq disconnected.
(11:43:08) lolol
(11:43:09) GAH! PHYSICS EXPLODING!
(11:43:09) Process Terminated
(11:43:25) Properties loaded, and saved!
(11:43:25) You should enable "check-update" in server.properties
(11:43:25) Incorrect value given for tnt, using default value.
(11:43:26) Level initialized
(11:43:26) Level "main" loaded.
(11:43:26) Creating listening socket on port 31415... 
(11:43:26) Checking if port is forwarded...
(11:43:27) MJS --> Event ServerStart was triggered with parameters: 
(11:43:28) Port 31415 is closed!
(11:43:28) Done.
(11:43:29) 127.0.0.1 logging in as quaisaq.
(11:43:29) MJS --> Event PlayerJoin was triggered with parameters: player $player quaisaq
(11:43:52) quaisaq uses /portal lava
(11:44:03) quaisaq uses /levels 
(11:44:06) quaisaq uses /unloaded 
(11:44:09) quaisaq uses /goto pix
(11:44:09) Level initialized
(11:44:09) Level "pix" loaded.
(11:44:44) 127.0.0.1 logging in as quaispet.
(11:44:45) MJS --> Event PlayerJoin was triggered with parameters: player $player quaispet
(11:45:11) <quaispet> lol
(11:45:19) quaispet uses /botadd lo
(11:45:30) quaispet uses /botset lo hunt
(11:45:49) quaispet disconnected.
(11:45:50) quaisaq disconnected.
(11:45:50) pix was unloaded.
(11:45:50) GAH! PHYSICS EXPLODING!
(11:45:50) Process Terminated
(11:46:11) Properties loaded, and saved!
(11:46:11) You should enable "check-update" in server.properties
(11:46:12) Incorrect value given for tnt, using default value.
(11:46:12) Level initialized
(11:46:12) Level "main" loaded.
(11:46:12) Creating listening socket on port 31415... 
(11:46:12) Checking if port is forwarded...
(11:46:14) MJS --> Event ServerStart was triggered with parameters: 
(11:46:15) Port 31415 is closed!
(11:46:15) Done.
(11:46:15) 127.0.0.1 logging in as quaispet.
(11:46:16) MJS --> Event PlayerJoin was triggered with parameters: player $player quaispet
(11:46:26) quaispet uses /portal lava
(11:46:33) 127.0.0.1 logging in as quaisaq.
(11:46:33) MJS --> Event PlayerJoin was triggered with parameters: player $player quaisaq
(11:46:36) quaispet uses /goto pix
(11:46:36) Level initialized
(11:46:36) Level "pix" loaded.
(11:46:44) quaisaq uses /botadd lo
(11:46:47) quaisaq uses /botset lo hunt
(11:46:59) quaisaq disconnected.
(11:47:00) Could not save player settings
(11:47:00) quaispet disconnected.
(11:47:00) pix was unloaded.
(11:47:01) GAH! PHYSICS EXPLODING!
(11:47:01) Process Terminated
(11:48:29) Properties loaded, and saved!
(11:48:29) You should enable "check-update" in server.properties
(11:48:29) Incorrect value given for tnt, using default value.
(11:48:30) Level initialized
(11:48:30) Level "main" loaded.
(11:48:30) Creating listening socket on port 31415... 
(11:48:30) Checking if port is forwarded...
(11:48:32) MJS --> Event ServerStart was triggered with parameters: 
(11:48:33) Port 31415 is closed!
(11:48:33) Done.
(11:48:35) GAH! PHYSICS EXPLODING!
(19:47:45) Properties loaded, and saved!
(19:47:45) You should enable "check-update" in server.properties
(19:47:45) Incorrect value given for tnt, using default value.
(19:47:46) Level initialized
(19:47:46) Level "main" loaded.
(19:47:46) Creating listening socket on port 31415... 
(19:47:46) Checking if port is forwarded...
(19:47:47) Process Terminated
(21:28:41) Properties loaded, and saved!
(21:28:41) You should enable "check-update" in server.properties
(21:28:42) Incorrect value given for tnt, using default value.
(21:28:42) Level initialized
(21:28:42) Level "main" loaded.
(21:28:42) Creating listening socket on port 31415... 
(21:28:42) Checking if port is forwarded...
(21:28:44) MJS --> Event ServerStart was triggered with parameters: 
(21:28:45) Port 31415 is closed!
(21:28:45) Done.
(21:28:48) 127.0.0.1 logging in as quaisaq.
(21:28:49) MJS --> Event PlayerJoin was triggered with parameters: player $player quaisaq
(21:29:14) quaisaq uses /portal water
(21:29:21) quaisaq uses /goto pix
(21:29:21) Level initialized
(21:29:21) Level "pix" loaded.
(21:29:32) quaisaq uses /goto main
(21:29:38) quaisaq uses /botadd lol
(21:29:41) quaisaq uses /botset lol hunt
(21:29:45) lol
(21:29:51) quaisaq uses /goto pix
(21:29:58) quaisaq disconnected.
(21:29:58) pix was unloaded.
(21:29:59) GAH! PHYSICS EXPLODING!
(21:29:59) Process Terminated
(21:39:10) Properties loaded, and saved!
(21:39:10) You should enable "check-update" in server.properties
(21:39:10) Incorrect value given for tnt, using default value.
(21:39:11) Level initialized
(21:39:11) Level "main" loaded.
(21:39:11) Creating listening socket on port 31415... 
(21:39:11) Checking if port is forwarded...
(21:39:12) MJS --> Event ServerStart was triggered with parameters: 
(21:39:13) Port 31415 is closed!
(21:39:13) Done.
(21:39:14) 127.0.0.1 logging in as quaisaq.
(21:39:14) MJS --> Event PlayerJoin was triggered with parameters: player $player quaisaq
(21:39:23) quaisaq uses /portal water
(21:39:27) quaisaq uses /goto pix
(21:39:27) Level initialized
(21:39:27) Level "pix" loaded.
(21:39:31) quaisaq uses /goto main
(21:39:33) quaisaq uses /botadd lo
(21:39:36) quaisaq uses /botset lo
(21:39:41) quaisaq uses /botset lo hunt
(21:39:51) quaisaq uses /goto pix
(21:39:57) quaisaq uses /goto main
(21:40:08) quaisaq disconnected.
(21:40:08) pix was unloaded.
(21:40:10) GAH! PHYSICS EXPLODING!
(21:40:10) Process Terminated
(23:58:39) Properties loaded, and saved!
(23:58:39) You should enable "check-update" in server.properties
(23:58:40) Incorrect value given for tnt, using default value.
(23:58:40) Level initialized
(23:58:40) Level "main" loaded.
(23:58:40) Creating listening socket on port 31415... 
(23:58:40) Checking if port is forwarded...
(23:58:42) MJS --> Event ServerStart was triggered with parameters: 
(23:58:42) Port 31415 is closed!
(23:58:42) Done.
(23:58:46) 127.0.0.1 logging in as quaisaq.
(23:58:46) MJS --> Event PlayerJoin was triggered with parameters: player $player quaisaq
(23:59:08) quaisaq uses /botadd lo
(23:59:11) quaisaq uses /portal water
(23:59:15) quaisaq uses /goto pix
(23:59:15) Level initialized
(23:59:15) Level "pix" loaded.
(23:59:23) quaisaq uses /portal water
(23:59:26) quaisaq uses /goto main
(23:59:34) quaisaq uses /botset lo hunt
(23:59:47) quaisaq disconnected.
(23:59:47) SAVED: Level "pix". 1/0/20
(23:59:47) And backed up
(23:59:47) pix was unloaded.
(23:59:50) GAH! PHYSICS EXPLODING!
(23:59:50) Process Terminated
