(16:54:49) Starting Server
(16:54:49) Properties loaded, and saved!
(16:54:49) You should enable "check-update" in server.properties
(16:54:50) Level initialized
(16:54:50) Level "main" loaded.
(16:54:50) Creating listening socket on port 31415... 
(16:54:50) Checking if port is forwarded...
(17:36:45) Starting Server
(17:36:45) Properties loaded, and saved!
(17:36:45) You should enable "check-update" in server.properties
(17:36:46) Level initialized
(17:36:46) Level "main" loaded.
(17:36:46) Creating listening socket on port 31415... 
(17:36:46) Checking if port is forwarded...
(17:36:47) MJS --> Event ServerStart was triggered with parameters: 
(17:36:47) GAH! PHYSICS EXPLODING!
