(17:08:36) Starting Server
(17:08:37) Properties loaded, and saved!
(17:08:37) You should enable "check-update" in server.properties
(17:08:37) Incorrect value given for tree, using default value.
(17:08:38) Level initialized
(17:08:38) Level "main" loaded.
(17:08:38) Creating listening socket on port 31415... 
(17:08:38) Checking if port is forwarded...
(17:08:38) 127.0.0.1 logging in as quaisaq.
(17:08:39) MJS --> Event PlayerJoin was triggered with parameters: player $player quaisaq
(17:08:39) Port 31415 is open!
(17:08:39) Done.
(17:08:40) MJS --> Event ServerStart was triggered with parameters: 
(17:09:47) quaisaq disconnected.
(17:11:10) SAVED: Level "main". 1/0/20
(17:11:10) And backed up
(17:11:10) Backup 613 saved for main
(17:11:19) GAH! PHYSICS EXPLODING!
