(23:39:28) Properties loaded, and saved!
(23:39:28) You should enable "check-update" in server.properties
(23:39:29) Level initialized
(23:39:29) Level "main" loaded.
(23:39:29) Creating listening socket on port 31415... 
(23:39:29) Checking if port is forwarded...
(23:39:30) Process Terminated
