(22:01:03) Properties loaded, and saved!
(22:01:03) You should enable "check-update" in server.properties
(22:01:04) Level initialized
(22:01:04) Level "main" loaded.
(22:01:04) empty
(22:01:04) Creating listening socket on port 25565...
(22:01:04) Done.
(22:01:05) Shutting down...
(22:01:05) Process Terminated
