(13:44:40) Properties loaded, and saved!
(13:44:40) You should enable "check-update" in server.properties
(13:44:41) Level initialized
(13:44:41) Level "main" loaded.
(13:44:41) empty
(13:44:41) Creating listening socket on port 31415...
(13:44:41) Checking if port is forwarded...
(13:44:45) Port 31415 is closed!
(13:44:45) Trying to forward ports...
(13:44:50) Portforward successful!
(13:44:50) Done.
(13:44:50) Connecting to IRC
(13:44:51) Connected to IRC
(13:44:51) Joining channel
