(00:14:43) Properties loaded, and saved!
(00:14:43) You should enable "check-update" in server.properties
(00:14:43) Level initialized
(00:14:43) Level "main" loaded.
(00:14:44) Creating listening socket on port 31415...
(00:14:44) Checking if port is forwarded...
(00:14:45) MJS --> Event ServerStart was triggered with parameters: 
(00:14:46) GAH! PHYSICS EXPLODING!
(00:14:47) Process Terminated
(17:29:47) Properties loaded, and saved!
(17:29:47) You should enable "check-update" in server.properties
(17:29:47) Level initialized
(17:29:47) Level "main" loaded.
(17:29:47) Creating listening socket on port 31415...
(17:29:48) Checking if port is forwarded...
(17:29:49) MJS --> Event ServerStart was triggered with parameters: 
(17:29:52) Port 31415 is closed!
(17:29:52) Trying to forward ports...
(17:29:57) Portforward successful!
(17:29:57) Done.
(17:29:57) Connecting to IRC
(17:29:57) Connected to IRC
(17:29:57) Joining channel
(17:30:02) MCQuai has joined the IRC
(17:35:39) 85.226.78.123 connected.
(17:35:39) 85.226.78.123 logging in as hugow1.
(17:35:40) MJS --> Event PlayerJoin was triggered with parameters: player $player hugow1
(17:35:48) hugow1 is a suspected griefer!
(17:37:27) SAVED: Level "main". 1/1/20
(17:37:27) And backed up
(17:38:21) hugow1 disconnected.
(17:39:57) SAVED: Level "main". 1/0/20
(17:39:57) And backed up
(17:53:59) 90.185.33.91 connected.
(17:53:59) 90.185.33.91 logging in as taxa11.
(17:54:00) MJS --> Event PlayerJoin was triggered with parameters: player $player taxa11
(17:54:34) An Error occured! For more information, go to System Logs tab
(17:54:57) SAVED: Level "main". 2/1/20
(17:54:57) And backed up
(17:55:11) <taxa11> HALLO ER DER NOGEN
(17:55:35) taxa11 is a suspected griefer!
(17:57:27) SAVED: Level "main". 2/1/20
(17:57:27) And backed up
(17:59:57) SAVED: Level "main". 2/1/20
(17:59:57) And backed up
(18:01:04) taxa11 disconnected.
(18:02:27) SAVED: Level "main". 2/0/20
(18:02:27) And backed up
(18:06:53) 85.218.171.9 connected.
(18:06:53) 85.218.171.9 logging in as kalekat.
(18:06:54) MJS --> Event PlayerJoin was triggered with parameters: player $player kalekat
(18:07:00) kalekat disconnected.
(18:08:53) 85.218.171.9 connected.
(18:08:53) 85.218.171.9 logging in as kalekat.
(18:08:54) MJS --> Event PlayerJoin was triggered with parameters: player $player kalekat
(18:09:57) SAVED: Level "main". 4/1/20
(18:09:57) And backed up
(18:09:57) Backup 1192 saved for main
(18:11:15) 90.185.120.77 connected.
(18:11:16) 90.185.120.77 logging in as jepp6697.
(18:11:16) MJS --> Event PlayerJoin was triggered with parameters: player $player jepp6697
(18:11:29) jepp6697 disconnected.
(18:12:02) 87.55.74.83 connected.
(18:12:02) 87.55.74.83 logging in as simon1709.
(18:12:03) MJS --> Event PlayerJoin was triggered with parameters: player $player simon1709
(18:12:27) SAVED: Level "main". 6/2/20
(18:12:27) And backed up
(18:12:33) 94.145.45.26 connected.
(18:12:33) 94.145.45.26 logging in as KingKongen3.
(18:12:33) MJS --> Event PlayerJoin was triggered with parameters: player $player KingKongen3
(18:13:25) <kalekat> ahhhhhhhhhhhhhh
(18:13:36) kalekat uses /fly 
(18:13:52) kalekat uses /fly 
(18:14:02) <simon1709> hold oppppppppppppppp
(18:14:17) 127.0.0.1 logging in as quaisaq.
(18:14:18) MJS --> Event PlayerJoin was triggered with parameters: player $player quaisaq
(18:14:26) <quaisaq> hello?
(18:14:31) <KingKongen3> oooooooooooooooookkkkkkkkkkkkkkkkkkk
(18:14:39) quaisaq uses /about 
(18:14:40) <simon1709> tak
(18:14:45) quaisaq uses /players 
(18:14:49) kalekat uses /fly 
(18:14:49) KingKongen3 is a suspected griefer!
(18:14:56) <kalekat> dig der bl mand
(18:14:57) SAVED: Level "main". 8/4/20
(18:14:57) And backed up
(18:14:58) quaisaq uses /undo hugow1 all
(18:15:00) quaisaq uses /paste 
(18:15:02) quaisaq uses /about 
(18:15:11) quaisaq uses /undo taxa11 all
(18:15:12) quaisaq uses /about 
(18:15:23) quaisaq uses /undo hugow1 all
(18:15:33) quaisaq uses /undo hugow1 1600
(18:15:38) quaisaq uses /undo hugow1 2000
(18:15:41) quaisaq uses /undo hugow1 3000
(18:15:44) quaisaq uses /undo hugow1 4000
(18:15:45) <kalekat> kingkong
(18:15:48) quaisaq uses /undo hugow1 10000
(18:15:50) <simon1709> hvorfor gaar du det
(18:15:57) quaisaq uses /undo hugow1 50000000
(18:16:01) quaisaq uses /undo hugow1 all
(18:16:25) quaisaq uses /about 
(18:16:29) KingKongen3 uses /fly 
(18:16:35) <kalekat> kingkongen
(18:17:08) quaisaq uses /players 
(18:17:16) quaisaq uses /undo kalekay all
(18:17:20) quaisaq uses /kick kalekat
(18:17:25) quaisaq uses /setrank quaisaq owner
(18:17:25) SAVED: guests.txt
(18:17:25) SAVED: owners.txt
(18:17:27) SAVED: Level "main". 8/4/20
(18:17:27) And backed up
(18:17:30) quaisaq uses /undo kalekat all
(18:17:37) quaisaq uses /kick kalekat
(18:17:41) quaisaq uses /players 
(18:17:50) kalekat kicked (You were kicked by [console]!).
(18:17:52) 89.19.145.235 connected.
(18:17:52) 89.19.145.235 logging in as Frederik1a.
(18:17:53) MJS --> Event PlayerJoin was triggered with parameters: player $player Frederik1a
(18:17:56) quaisaq uses /undo Frederik1a all
(18:17:58) 89.19.145.235 connected.
(18:17:59) 89.19.145.235 logging in as Benjabonde.
(18:17:59) MJS --> Event PlayerJoin was triggered with parameters: player $player Benjabonde
(18:18:01) Frederik1a kicked (You were kicked by [console]!).
(18:18:06) quaisaq uses /undo KingKongen3 all
(18:18:09) KingKongen3 kicked (You were kicked by [console]!).
(18:18:13) quaisaq uses /undo Benjabonde all
(18:18:16) Benjabonde kicked (You were kicked by [console]!).
(18:18:18) 85.218.171.9 connected.
(18:18:18) 85.218.171.9 logging in as kalekat.
(18:18:18) MJS --> Event PlayerJoin was triggered with parameters: player $player kalekat
(18:18:21) quaisaq uses /undo simon1709 all
(18:18:25) simon1709 kicked (You were kicked by [console]!).
(18:18:35) quaisaq uses /undo kalekat all
(18:18:36) 93.167.48.35 connected.
(18:18:36) 93.167.48.35 logging in as Theomejdal.
(18:18:36) MJS --> Event PlayerJoin was triggered with parameters: player $player Theomejdal
(18:18:38) kalekat kicked (You were kicked by [console]!).
(18:18:41) Theomejdal kicked (You were kicked by [console]!).
(18:18:52) Properties saved, and loaded!
(18:18:59) 85.218.171.9 connected.
(18:18:59) 85.218.171.9 logging in as kalekat.
(18:19:00) MJS --> Event PlayerJoin was triggered with parameters: player $player kalekat
(18:19:03) kalekat kicked (You were kicked by [console]!).
(18:19:05) quaisaq disconnected.
(18:19:05) GAH! PHYSICS EXPLODING!
(18:19:08) Process Terminated
