(15:19:05) Properties loaded, and saved!
(15:19:05) You should enable "check-update" in server.properties
(15:19:05) Level initialized
(15:19:05) Level "main" loaded.
(15:19:05) empty
(15:19:05) Creating listening socket on port 31415...
(15:19:05) Checking if port is forwarded...
(15:19:10) Port 31415 is closed!
(15:19:10) Trying to forward ports...
(15:19:16) Portforward successful!
(15:19:16) Done.
(15:19:16) Connecting to IRC
(15:19:16) Connected to IRC
(15:19:16) Joining channel
(15:19:19) 127.0.0.1 logging in as quaispet.
(15:19:22) MCQuai has joined the IRC
(15:19:25) quaispet uses /about 
(15:19:30) quaispet uses /fixgrass 
(15:19:35) quaispet uses /about 
(15:19:42) quaispet uses /about 
(15:21:03) quaispet uses /physics 0
(15:21:03) Physics is now OFF on main.
(15:21:09) 77.248.116.78 connected.
(15:21:09) 77.248.116.78 logging in as rakt33.
(15:21:13) quaispet uses /physics 2
(15:21:13) Physics is now Advanced on main.
(15:21:20) <rakt33> hello
(15:21:22) <quaispet> hello
(15:21:29) <rakt33> you nl?
(15:21:32) <quaispet> please tell me from where you joined this server
(15:21:33) <quaispet> no DK
(15:21:38) <rakt33> ?
(15:21:44) <quaispet> im from Denmark
(15:21:46) SAVED: Level "main". 2/2/20
(15:21:46) And backed up
(15:21:46) Backup 1192 saved for main
(15:22:00) quaispet uses /physics 0
(15:22:00) Physics is now OFF on main.
(15:22:07) quaispet uses /perbuild builder
(15:22:07) main build permission changed to &abuilder.
(15:22:09) rakt33 uses /rules 
(15:22:12) quaispet uses /undo rakt all
(15:22:14) <quaispet> :P
(15:22:21) <rakt33> :)
(15:22:23) <rakt33> :)
(15:22:34) rakt33 uses /players 
(15:22:39) <rakt33> you woner
(15:22:42) <quaispet> yes
(15:22:46) <rakt33> i good o[
(15:22:47) <rakt33> op
(15:22:50) <rakt33> wil you see?
(15:22:53) <quaispet> From where did you join this server?
(15:23:00) <rakt33> wom
(15:23:10) <quaispet> hmmm
(15:23:12) <quaispet> explains
(15:23:22) <quaispet> WoM valid list is bugged
(15:23:23) <quaispet> well
(15:23:26) <quaispet> server closes now
(15:23:27) <quaispet> vye
(15:23:29) quaispet disconnected.
