(16:07:11) Properties loaded, and saved!
(16:07:11) You should enable "check-update" in server.properties
(16:07:12) Level initialized
(16:07:12) Level "main" loaded.
(16:07:12) Creating listening socket on port 31415... 
(16:07:12) Checking if port is forwarded...
(16:07:14) MJS --> Event ServerStart was triggered with parameters: 
(16:07:16) Process Terminated
(21:02:05) Properties loaded, and saved!
(21:02:05) You should enable "check-update" in server.properties
(21:02:05) Level initialized
(21:02:05) Level "main" loaded.
(21:02:05) Creating listening socket on port 31415... 
(21:02:05) Checking if port is forwarded...
(21:02:07) MJS --> Event ServerStart was triggered with parameters: 
(21:02:18) GAH! PHYSICS EXPLODING!
(21:02:18) Process Terminated
(21:08:27) Properties loaded, and saved!
(21:08:27) You should enable "check-update" in server.properties
(21:08:27) Level initialized
(21:08:27) Level "main" loaded.
(21:08:28) Creating listening socket on port 31415... 
(21:08:28) Checking if port is forwarded...
(21:08:29) MJS --> Event ServerStart was triggered with parameters: 
(21:08:32) Error while drawing image on loc 0[=]0[=]0: Parameteren skal være positiv og mindre end højden.
Parameternavn: y
(21:08:35) Port 31415 is closed!
(21:08:35) Done.
(21:08:47) GAH! PHYSICS EXPLODING!
(21:08:47) Process Terminated
(21:10:36) Properties loaded, and saved!
(21:10:36) You should enable "check-update" in server.properties
(21:10:36) Level initialized
(21:10:37) Level "main" loaded.
(21:10:37) Creating listening socket on port 31415... 
(21:10:37) Checking if port is forwarded...
(21:10:38) MJS --> Event ServerStart was triggered with parameters: 
(21:10:41) An Error occured! For more information, go to System Logs tab
(21:10:54) Port 31415 is closed!
(21:10:54) Done.
(21:13:03) GAH! PHYSICS EXPLODING!
(21:13:03) Process Terminated
(21:14:08) Properties loaded, and saved!
(21:14:08) You should enable "check-update" in server.properties
(21:14:09) Level initialized
(21:14:09) Level "main" loaded.
(21:14:09) Creating listening socket on port 31415... 
(21:14:09) Checking if port is forwarded...
(21:14:10) MJS --> Event ServerStart was triggered with parameters: 
(21:14:27) Port 31415 is closed!
(21:14:27) Done.
(21:14:40) GAH! PHYSICS EXPLODING!
(21:16:00) Properties loaded, and saved!
(21:16:00) You should enable "check-update" in server.properties
(21:16:01) Level initialized
(21:16:01) Level "main" loaded.
(21:16:01) Creating listening socket on port 31415... 
(21:16:01) Checking if port is forwarded...
(21:16:02) MJS --> Event ServerStart was triggered with parameters: 
(21:16:04) An Error occured! For more information, go to System Logs tab
(21:16:12) GAH! PHYSICS EXPLODING!
(21:16:12) Process Terminated
(21:16:32) Properties loaded, and saved!
(21:16:32) You should enable "check-update" in server.properties
(21:16:33) Level initialized
(21:16:33) Level "main" loaded.
(21:16:33) Creating listening socket on port 31415... 
(21:16:33) Checking if port is forwarded...
(21:16:34) MJS --> Event ServerStart was triggered with parameters: 
(21:16:37) An Error occured! For more information, go to System Logs tab
(21:16:39) Port 31415 is closed!
(21:16:39) Done.
(21:16:45) GAH! PHYSICS EXPLODING!
(21:16:45) Process Terminated
(21:16:52) Properties loaded, and saved!
(21:16:52) You should enable "check-update" in server.properties
(21:16:53) Level initialized
(21:16:53) Level "main" loaded.
(21:16:53) Creating listening socket on port 31415... 
(21:16:53) Checking if port is forwarded...
(21:16:54) MJS --> Event ServerStart was triggered with parameters: 
(21:16:58) Port 31415 is closed!
(21:16:58) Done.
(21:17:12) GAH! PHYSICS EXPLODING!
(21:17:12) Process Terminated
(21:17:26) Properties loaded, and saved!
(21:17:26) You should enable "check-update" in server.properties
(21:17:26) Level initialized
(21:17:26) Level "main" loaded.
(21:17:26) Creating listening socket on port 31415... 
(21:17:26) Checking if port is forwarded...
(21:17:28) MJS --> Event ServerStart was triggered with parameters: 
(21:17:42) GAH! PHYSICS EXPLODING!
(21:24:30) Properties loaded, and saved!
(21:24:30) You should enable "check-update" in server.properties
(21:24:31) Level initialized
(21:24:31) Level "main" loaded.
(21:24:31) Creating listening socket on port 31415... 
(21:24:31) Checking if port is forwarded...
(21:24:32) MJS --> Event ServerStart was triggered with parameters: 
(21:24:37) Port 31415 is closed!
(21:24:37) Done.
(21:24:42) GAH! PHYSICS EXPLODING!
(21:24:42) Process Terminated
(21:26:03) Properties loaded, and saved!
(21:26:03) You should enable "check-update" in server.properties
(21:26:04) Level initialized
(21:26:04) Level "main" loaded.
(21:26:04) Creating listening socket on port 31415... 
(21:26:04) Checking if port is forwarded...
(21:26:05) MJS --> Event ServerStart was triggered with parameters: 
(21:26:06) InvalidArgument=Værdi '-1' er ugyldig for 'index'.
Parameternavn: index
(21:26:13) GAH! PHYSICS EXPLODING!
(21:26:13) Process Terminated
(21:26:55) Properties loaded, and saved!
(21:26:55) You should enable "check-update" in server.properties
(21:26:56) Level initialized
(21:26:56) Level "main" loaded.
(21:26:56) Creating listening socket on port 31415... 
(21:26:56) Checking if port is forwarded...
(21:26:57) MJS --> Event ServerStart was triggered with parameters: 
(21:27:02) Port 31415 is closed!
(21:27:02) Done.
(21:27:03) GAH! PHYSICS EXPLODING!
(21:28:05) Properties loaded, and saved!
(21:28:05) You should enable "check-update" in server.properties
(21:28:06) Level initialized
(21:28:06) Level "main" loaded.
(21:28:06) Creating listening socket on port 31415... 
(21:28:06) Checking if port is forwarded...
(21:28:08) MJS --> Event ServerStart was triggered with parameters: 
(21:28:15) GAH! PHYSICS EXPLODING!
(21:28:15) Process Terminated
(21:29:16) Properties loaded, and saved!
(21:29:16) You should enable "check-update" in server.properties
(21:29:16) Level initialized
(21:29:16) Level "main" loaded.
(21:29:16) Creating listening socket on port 31415... 
(21:29:16) Checking if port is forwarded...
(21:29:18) MJS --> Event ServerStart was triggered with parameters: 
(21:29:22) Port 31415 is closed!
(21:29:22) Done.
(21:29:22) GAH! PHYSICS EXPLODING!
(21:29:22) Process Terminated
(21:30:14) Properties loaded, and saved!
(21:30:14) You should enable "check-update" in server.properties
(21:30:15) Level initialized
(21:30:15) Level "main" loaded.
(21:30:15) Creating listening socket on port 31415... 
(21:30:15) Checking if port is forwarded...
(21:30:16) MJS --> Event ServerStart was triggered with parameters: 
(21:30:32) Port 31415 is closed!
(21:30:32) Done.
(21:30:36) GAH! PHYSICS EXPLODING!
(21:30:36) Process Terminated
(22:04:18) Properties loaded, and saved!
(22:04:18) You should enable "check-update" in server.properties
(22:04:19) Level initialized
(22:04:19) Level "main" loaded.
(22:04:19) Creating listening socket on port 31415... 
(22:04:19) Checking if port is forwarded...
(22:04:21) MJS --> Event ServerStart was triggered with parameters: 
(22:04:23) Port 31415 is closed!
(22:04:23) Done.
(22:04:23) 127.0.0.1 logging in as quaisaq.
(22:04:24) MJS --> Event PlayerJoin was triggered with parameters: player $player quaisaq
(22:04:36) quaisaq uses /move 0 0 0
(22:05:06) quaisaq uses /physics 2
(22:05:06) Physics is now Advanced on main.
(22:05:09) quaisaq uses /mode tnt
(22:05:42) quaisaq uses /mode smalltnt
(22:06:19) quaisaq disconnected.
(22:06:28) GAH! PHYSICS EXPLODING!
(22:06:34) Properties loaded, and saved!
(22:06:34) You should enable "check-update" in server.properties
(22:06:35) Level initialized
(22:06:35) Level "main" loaded.
(22:06:35) Creating listening socket on port 31415... 
(22:06:35) Checking if port is forwarded...
(22:06:37) MJS --> Event ServerStart was triggered with parameters: 
(22:06:39) Port 31415 is closed!
(22:06:39) Done.
(22:06:42) 127.0.0.1 logging in as quaisaq.
(22:06:42) MJS --> Event PlayerJoin was triggered with parameters: player $player quaisaq
(22:06:51) quaisaq disconnected.
(22:08:45) GAH! PHYSICS EXPLODING!
(22:09:49) Properties loaded, and saved!
(22:09:49) You should enable "check-update" in server.properties
(22:09:50) Level initialized
(22:09:50) Level "main" loaded.
(22:09:50) Creating listening socket on port 31415... 
(22:09:50) Checking if port is forwarded...
(22:09:51) MJS --> Event ServerStart was triggered with parameters: 
(22:09:54) Port 31415 is closed!
(22:09:54) Done.
(22:09:55) 127.0.0.1 logging in as quaisaq.
(22:09:55) MJS --> Event PlayerJoin was triggered with parameters: player $player quaisaq
(22:10:02) quaisaq disconnected.
(22:11:18) GAH! PHYSICS EXPLODING!
(22:12:59) Properties loaded, and saved!
(22:12:59) You should enable "check-update" in server.properties
(22:12:59) Level initialized
(22:12:59) Level "main" loaded.
(22:12:59) Creating listening socket on port 31415... 
(22:12:59) Checking if port is forwarded...
(22:13:01) MJS --> Event ServerStart was triggered with parameters: 
(22:13:03) Port 31415 is closed!
(22:13:03) Done.
(22:13:18) GAH! PHYSICS EXPLODING!
(22:16:37) Properties loaded, and saved!
(22:16:37) You should enable "check-update" in server.properties
(22:16:38) Level initialized
(22:16:38) Level "main" loaded.
(22:16:38) Creating listening socket on port 31415... 
(22:16:38) Checking if port is forwarded...
(22:16:39) MJS --> Event ServerStart was triggered with parameters: 
(22:16:42) Port 31415 is closed!
(22:16:42) Done.
(22:17:26) GAH! PHYSICS EXPLODING!
(22:17:26) Process Terminated
(22:18:42) Properties loaded, and saved!
(22:18:42) You should enable "check-update" in server.properties
(22:18:43) Level initialized
(22:18:43) Level "main" loaded.
(22:18:43) Creating listening socket on port 31415... 
(22:18:43) Checking if port is forwarded...
(22:18:45) MJS --> Event ServerStart was triggered with parameters: 
(22:18:47) Port 31415 is closed!
(22:18:47) Done.
(22:21:12) GAH! PHYSICS EXPLODING!
(22:25:27) Properties loaded, and saved!
(22:25:27) You should enable "check-update" in server.properties
(22:25:28) Level initialized
(22:25:28) Level "main" loaded.
(22:25:28) Creating listening socket on port 31415... 
(22:25:28) Checking if port is forwarded...
(22:25:29) MJS --> Event ServerStart was triggered with parameters: 
(22:25:31) Port 31415 is closed!
(22:25:31) Done.
(22:31:28) GAH! PHYSICS EXPLODING!
(22:31:28) Process Terminated
(22:31:36) Properties loaded, and saved!
(22:31:36) You should enable "check-update" in server.properties
(22:31:36) Level initialized
(22:31:36) Level "main" loaded.
(22:31:36) Creating listening socket on port 31415... 
(22:31:36) Checking if port is forwarded...
(22:31:38) MJS --> Event ServerStart was triggered with parameters: 
(22:31:40) Port 31415 is closed!
(22:31:40) Done.
(22:32:24) GAH! PHYSICS EXPLODING!
(22:32:24) Process Terminated
(22:35:22) Properties loaded, and saved!
(22:35:22) You should enable "check-update" in server.properties
(22:35:23) Level initialized
(22:35:23) Level "main" loaded.
(22:35:23) Creating listening socket on port 31415... 
(22:35:23) Checking if port is forwarded...
(22:35:25) MJS --> Event ServerStart was triggered with parameters: 
(22:35:25) An Error occured! For more information, go to System Logs tab
(22:35:25) An Error occured! For more information, go to System Logs tab
(22:35:27) Port 31415 is closed!
(22:35:27) Done.
(22:35:34) GAH! PHYSICS EXPLODING!
(22:35:34) Process Terminated
(22:40:43) Properties loaded, and saved!
(22:40:43) You should enable "check-update" in server.properties
(22:40:43) Level initialized
(22:40:43) Level "main" loaded.
(22:40:43) Creating listening socket on port 31415... 
(22:40:43) Checking if port is forwarded...
(22:40:45) MJS --> Event ServerStart was triggered with parameters: 
(22:40:46) 127.0.0.1 logging in as quaisaq.
(22:40:47) MJS --> Event PlayerJoin was triggered with parameters: player $player quaisaq
(22:40:47) Port 31415 is closed!
(22:40:47) Done.
(22:41:20) quaisaq uses /replace stair double_stair
(22:42:01) quaisaq disconnected.
(22:42:01) GAH! PHYSICS EXPLODING!
(22:42:34) Properties loaded, and saved!
(22:42:34) You should enable "check-update" in server.properties
(22:42:35) Level initialized
(22:42:35) Level "main" loaded.
(22:42:35) Creating listening socket on port 31415... 
(22:42:35) Checking if port is forwarded...
(22:42:36) MJS --> Event ServerStart was triggered with parameters: 
(22:42:39) Port 31415 is closed!
(22:42:39) Done.
(22:42:50) GAH! PHYSICS EXPLODING!
(22:42:50) Process Terminated
(22:45:28) Properties loaded, and saved!
(22:45:28) You should enable "check-update" in server.properties
(22:45:28) Level initialized
(22:45:28) Level "main" loaded.
(22:45:28) Creating listening socket on port 31415... 
(22:45:29) Checking if port is forwarded...
(22:45:30) MJS --> Event ServerStart was triggered with parameters: 
(22:45:32) Port 31415 is closed!
(22:45:32) Done.
(22:47:12) 127.0.0.1 logging in as quaisaq.
(22:47:12) MJS --> Event PlayerJoin was triggered with parameters: player $player quaisaq
(22:47:14) quaisaq disconnected.
(22:47:26) GAH! PHYSICS EXPLODING!
(22:47:51) Properties loaded, and saved!
(22:47:51) You should enable "check-update" in server.properties
(22:47:52) Level initialized
(22:47:52) Level "main" loaded.
(22:47:52) Creating listening socket on port 31415... 
(22:47:52) Checking if port is forwarded...
(22:47:53) MJS --> Event ServerStart was triggered with parameters: 
(22:47:55) Port 31415 is closed!
(22:47:55) Done.
(22:51:38) GAH! PHYSICS EXPLODING!
(22:51:38) Process Terminated
