(09:50:46) Properties loaded, and saved!
(09:50:48) Level initialized
(09:50:48) Level "main" loaded.
(09:50:48) Creating listening socket on port 25565...
(09:50:48) Checking if port is forwarded...
(09:50:49) Port 25565 is closed!
(09:50:49) Trying to forward ports...
(09:50:49) Portforwarding failed.
(09:50:49) Make sure that UPnP is enabled in your router.
(09:50:49) Done.
(09:51:07) Properties saved, and loaded!
(09:51:11) Properties loaded, and saved!
(09:51:12) Level initialized
(09:51:12) Level "main" loaded.
(09:51:12) Creating listening socket on port 25565...
(09:51:12) Done.
(09:52:35) Server was not able to recieve the URL - MCRevive
(09:52:35) 2
(09:53:02) 3
(09:53:57) 4
(09:54:52) 5
(09:55:47) 6
(09:56:42) 7
(09:56:50) Shutting down...
(09:56:50) Process Terminated
