(01:09:58) Properties loaded, and saved!
(01:09:59) Level initialized
(01:09:59) Level "main" loaded.
(01:09:59) Creating listening socket on port 25565...
(01:09:59) Done.
(01:11:13) Shutting down...
(01:11:13) Process Terminated
