(20:11:20) Properties loaded, and saved!
(20:11:20) Level initialized
(20:11:20) Level "main" loaded.
(20:11:21) Creating listening socket on port 25565...
(20:11:21) Done.
(20:11:21) Server was not able to recieve the URL - Minecraft
(20:12:15) Server was not able to recieve the URL - Minecraft
(20:12:27) 2
(20:13:16) 3
(20:14:09) 4
(20:15:06) 5
(20:15:58) 6
(20:16:53) 7
(20:17:48) 8
(20:18:43) 9
(20:18:57) Properties loaded, and saved!
(20:18:58) Level initialized
(20:18:58) Level "main" loaded.
(20:18:58) Creating listening socket on port 25565...
(20:18:58) Done.
(20:19:20) Shutting down...
(20:19:20) Process Terminated
(20:22:58) Properties loaded, and saved!
(20:22:58) Level initialized
(20:22:59) Level "main" loaded.
(20:22:59) Creating listening socket on port 25565...
(20:22:59) Done.
(20:23:52) Shutting down...
(20:23:52) Process Terminated
