(14:37:34) Properties loaded, and saved!
(14:37:36) Level initialized
(14:37:36) Level "main" loaded.
(14:37:36) Creating listening socket on port 25565...
(14:37:36) Checking if port is forwarded...
(14:37:37) Port 25565 is closed!
(14:37:37) Trying to forward ports...
(14:37:37) Portforwarding failed.
(14:37:37) Make sure that UPnP is enabled in your router.
(14:37:38) Done.
(14:38:08) Properties saved, and loaded!
(14:38:23) Properties loaded, and saved!
(14:38:23) Level initialized
(14:38:23) Level "main" loaded.
(14:38:23) Creating listening socket on port 25565...
(14:38:23) Checking if port is forwarded...
(14:38:24) Port 25565 is closed!
(14:38:24) Trying to forward ports...
(14:38:24) Portforwarding failed.
(14:38:24) Make sure that UPnP is enabled in your router.
(14:38:24) Done.
(14:39:20) Properties loaded, and saved!
(14:39:20) Level initialized
(14:39:20) Level "main" loaded.
(14:39:20) Creating listening socket on port 25565...
(14:39:20) Checking if port is forwarded...
(14:39:21) Port 25565 is closed!
(14:39:21) Trying to forward ports...
(14:39:21) Portforwarding failed.
(14:39:21) Make sure that UPnP is enabled in your router.
(14:39:21) Done.
(14:41:09) Properties loaded, and saved!
(14:41:09) Level initialized
(14:41:10) Level "main" loaded.
(14:41:10) Creating listening socket on port 25565...
(14:41:10) Checking if port is forwarded...
(14:41:10) Port 25565 is closed!
(14:41:10) Trying to forward ports...
(14:41:10) Portforwarding failed.
(14:41:10) Make sure that UPnP is enabled in your router.
(14:41:10) Done.
(14:42:59) Properties loaded, and saved!
(14:43:00) Level initialized
(14:43:00) Level "main" loaded.
(14:43:00) Creating listening socket on port 25565...
(14:43:00) Checking if port is forwarded...
(14:43:01) Port 25565 is closed!
(14:43:01) Trying to forward ports...
(14:43:01) Portforwarding failed.
(14:43:01) Make sure that UPnP is enabled in your router.
(14:43:01) Done.
(14:43:09) Properties loaded, and saved!
(14:43:10) Level initialized
(14:43:10) Level "main" loaded.
(14:43:10) Creating listening socket on port 25565...
(14:43:10) Checking if port is forwarded...
(14:43:10) Port 25565 is closed!
(14:43:10) Trying to forward ports...
(14:43:10) Portforwarding failed.
(14:43:10) Make sure that UPnP is enabled in your router.
(14:43:10) Done.
(14:43:23) 107.20.89.142 connected.
(14:43:23) 107.20.89.142 disconnected.
(14:43:27) Properties loaded, and saved!
(14:43:28) Level initialized
(14:43:28) Level "main" loaded.
(14:43:28) Creating listening socket on port 25565...
(14:43:28) Checking if port is forwarded...
(14:43:28) Port 25565 is closed!
(14:43:28) Trying to forward ports...
(14:43:28) Portforwarding failed.
(14:43:28) Make sure that UPnP is enabled in your router.
(14:43:28) Done.
(14:43:59) 107.20.89.142 connected.
(14:43:59) 107.20.89.142 disconnected.
(14:44:06) 107.20.89.142 connected.
(14:44:06) 107.20.89.142 disconnected.
(14:44:17) 107.20.89.142 connected.
(14:44:17) 107.20.89.142 disconnected.
(14:46:59) 107.20.89.142 connected.
(14:46:59) 107.20.89.142 disconnected.
(14:54:10) Properties loaded, and saved!
(14:54:11) Level initialized
(14:54:11) Level "main" loaded.
(14:54:11) Creating listening socket on port 25565...
(14:54:11) Checking if port is forwarded...
(14:54:11) Port 25565 is closed!
(14:54:11) Trying to forward ports...
(14:54:12) Portforwarding failed.
(14:54:12) Make sure that UPnP is enabled in your router.
(14:54:12) Done.
(14:56:44) 107.20.89.142 connected.
(14:56:44) 107.20.89.142 disconnected.
(17:57:57) Server was not able to recieve the URL - Minecraft
(17:57:58) SAVED: banned.txt
(17:57:59) Properties loaded, and saved!
(17:58:01) Level initialized
(17:58:01) Level "main" loaded.
(17:58:01) Creating listening socket on port 25565...
(17:58:01) Checking if port is forwarded...
(17:58:03) Port 25565 is closed!
(17:58:03) Trying to forward ports...
(17:58:03) Portforwarding failed.
(17:58:03) Make sure that UPnP is enabled in your router.
(17:58:03) Done.
(20:17:59) SAVED: banned.txt
(20:18:26) Shutting down...
(20:18:26) Closing forwarded ports...
(20:18:56) Process Terminated
