(15:47:11) Properties loaded, and saved!
(15:47:11) Level initialized
(15:47:11) Level "main" loaded.
(15:47:11) Creating listening socket on port 31415...
(15:47:11) Checking if port is forwarded...
(15:47:12) Port 31415 is open!
(15:47:12) Done.
(15:47:24) An Error occured! For more information, go to System Logs tab
(15:47:36) Level initialized
(15:47:36) Level "testing123" loaded.
(15:47:45) An Error occured! For more information, go to System Logs tab
(16:21:20) Server was not able to recieve the URL - Minecraft
(16:21:28) Could not recieve serverlist from mcrevive.com
(16:32:25) Server was not able to recieve the URL - Minecraft
(16:32:42) Server was not able to recieve the URL - Minecraft
(16:32:44) Server was not able to recieve the URL - ClassiCube
(16:32:49) Could not recieve serverlist from mcrevive.com
(16:38:08) Server was not able to recieve the URL - Minecraft
(16:38:12) Server was not able to recieve the URL - Minecraft
(16:38:50) Server was not able to recieve the URL - ClassiCube
(16:38:54) Server was not able to recieve the URL - ClassiCube
(16:39:11) Server was not able to recieve the URL - MCRevive
(16:39:47) Could not recieve serverlist from mcrevive.com
(17:05:39) SAVED: banned.txt
(18:05:30) SAVED: banned.txt
(19:05:30) SAVED: banned.txt
(19:22:38) Server was not able to recieve the URL - Minecraft
(19:22:51) Could not recieve serverlist from mcrevive.com
(19:22:56) Server was not able to recieve the URL - ClassiCube
(19:23:00) Server was not able to recieve the URL - Minecraft
(19:23:00) Server was not able to recieve the URL - ClassiCube
(19:23:17) Server was not able to recieve the URL - MCRevive
(19:23:21) Server was not able to recieve the URL - MCRevive
(19:24:07) Server was not able to recieve the URL - Minecraft
(19:24:19) Server was not able to recieve the URL - ClassiCube
(19:24:40) Server was not able to recieve the URL - MCRevive
(19:24:49) Could not recieve serverlist from mcrevive.com
(19:24:50) Server was not able to recieve the URL - Minecraft
(19:24:50) Server was not able to recieve the URL - ClassiCube
(19:25:11) Server was not able to recieve the URL - MCRevive
(19:27:12) Could not recieve serverlist from mcrevive.com
(20:05:30) SAVED: banned.txt
