(08:20:01) Properties loaded, and saved!
(08:20:04) Level initialized
(08:20:04) Level "main" loaded.
(08:20:04) Creating listening socket on port 31415...
(08:20:04) Checking if port is forwarded...
(08:20:08) Port 31415 is closed!
(08:20:08) Trying to forward ports...
(08:20:09) Portforwarding failed.
(08:20:09) Make sure that UPnP is enabled in your router.
(08:20:09) Done.
(09:15:02) Properties loaded, and saved!
(09:15:02) Level initialized
(09:15:02) Level "main" loaded.
(09:15:02) Creating listening socket on port 31415...
(09:15:02) Checking if port is forwarded...
(09:15:06) Port 31415 is closed!
(09:15:06) Trying to forward ports...
(09:15:06) Portforwarding failed.
(09:15:06) Make sure that UPnP is enabled in your router.
(09:15:06) Done.
(14:07:02) Properties loaded, and saved!
(14:07:03) Level initialized
(14:07:03) Level "main" loaded.
(14:07:03) Creating listening socket on port 31415...
(14:07:03) Checking if port is forwarded...
(14:07:07) Port 31415 is closed!
(14:07:07) Trying to forward ports...
(14:07:07) Portforwarding failed.
(14:07:07) Make sure that UPnP is enabled in your router.
(14:07:07) Done.
(14:07:33) Properties loaded, and saved!
(14:07:33) Level initialized
(14:07:33) Level "main" loaded.
(14:07:33) Creating listening socket on port 31415...
(14:07:33) Checking if port is forwarded...
(14:07:36) Port 31415 is closed!
(14:07:36) Trying to forward ports...
(14:07:36) Portforwarding failed.
(14:07:36) Make sure that UPnP is enabled in your router.
(14:07:36) Done.
(14:08:04) Shutting down...
(14:08:04) Closing forwarded ports...
(14:08:04) Process Terminated
(14:08:19) Properties loaded, and saved!
(14:08:20) Level initialized
(14:08:20) Level "main" loaded.
(14:08:20) Creating listening socket on port 31415...
(14:08:20) Checking if port is forwarded...
(14:08:24) Shutting down...
(14:08:24) Closing forwarded ports...
(14:08:56) Properties loaded, and saved!
(14:08:57) Level initialized
(14:08:57) Level "main" loaded.
(14:08:57) Creating listening socket on port 31415...
(14:08:57) Checking if port is forwarded...
(14:09:01) Port 31415 is closed!
(14:09:01) Trying to forward ports...
(14:09:01) Portforwarding failed.
(14:09:01) Make sure that UPnP is enabled in your router.
(14:09:01) Done.
(14:09:03) Shutting down...
(14:09:03) Closing forwarded ports...
(14:09:03) Process Terminated
(14:39:06) Properties loaded, and saved!
(14:39:07) Properties loaded, and saved!
(14:39:07) Level initialized
(14:39:07) Level "main" loaded.
(14:39:07) Creating listening socket on port 31415...
(14:39:07) Checking if port is forwarded...
(14:39:11) Port 31415 is closed!
(14:39:11) Trying to forward ports...
(14:39:11) Portforwarding failed.
(14:39:11) Make sure that UPnP is enabled in your router.
(14:39:11) Done.
(14:39:14) Shutting down...
(14:39:14) Closing forwarded ports...
(14:39:14) Process Terminated
(14:39:23) Properties loaded, and saved!
(14:39:24) Level initialized
(14:39:24) Level "main" loaded.
(14:39:24) Creating listening socket on port 31415...
(14:39:24) Checking if port is forwarded...
(14:39:27) Port 31415 is closed!
(14:39:27) Trying to forward ports...
(14:39:27) Portforwarding failed.
(14:39:27) Make sure that UPnP is enabled in your router.
(14:39:27) Done.
(14:39:31) Shutting down...
(14:39:31) Closing forwarded ports...
(14:39:31) Process Terminated
(14:40:05) Properties loaded, and saved!
(14:40:05) Level initialized
(14:40:05) Level "main" loaded.
(14:40:05) Creating listening socket on port 31415...
(14:40:05) Checking if port is forwarded...
(14:40:07) Shutting down...
(14:40:07) Closing forwarded ports...
(14:40:07) Process Terminated
(14:40:11) Properties loaded, and saved!
(14:40:11) Level initialized
(14:40:11) Level "main" loaded.
(14:40:11) Creating listening socket on port 31415...
(14:40:11) Checking if port is forwarded...
(14:40:15) Port 31415 is closed!
(14:40:15) Trying to forward ports...
(14:40:15) Portforwarding failed.
(14:40:15) Make sure that UPnP is enabled in your router.
(14:40:15) Done.
(14:40:22) Shutting down...
(14:40:22) Closing forwarded ports...
(14:40:22) Process Terminated
(14:40:26) Properties loaded, and saved!
(14:40:44) Properties loaded, and saved!
(14:40:45) Level initialized
(14:40:45) Level "main" loaded.
(14:40:45) Creating listening socket on port 31415...
(14:40:45) Checking if port is forwarded...
(14:40:48) Port 31415 is closed!
(14:40:48) Trying to forward ports...
(14:40:58) Portforwarding failed.
(14:40:58) Make sure that UPnP is enabled in your router.
(14:40:58) Done.
(14:41:10) Shutting down...
(14:41:10) Closing forwarded ports...
(14:41:10) Process Terminated
(14:41:43) Properties loaded, and saved!
(14:41:43) Level initialized
(14:41:43) Level "main" loaded.
(14:41:43) Creating listening socket on port 31415...
(14:41:43) Checking if port is forwarded...
(14:41:47) Port 31415 is closed!
(14:41:47) Trying to forward ports...
(14:41:47) Portforwarding failed.
(14:41:47) Make sure that UPnP is enabled in your router.
(14:41:47) Done.
(14:41:52) Shutting down...
(14:41:52) Closing forwarded ports...
(14:41:52) Process Terminated
