(00:00:18) 124
(00:01:13) 125
(00:02:08) 126
(00:03:03) 127
(00:03:58) 128
(00:04:53) 129
(00:05:48) 130
(00:06:43) 131
(00:07:34) SAVED: banned.txt
(00:07:38) 132
(00:08:33) 133
(00:09:28) 134
(00:10:23) 135
(00:11:18) 136
(00:12:13) 137
(00:13:08) 138
(00:14:03) 139
(00:14:59) 140
(00:15:53) 141
(00:16:48) 142
(00:17:43) 143
(00:18:38) 144
(00:19:34) 145
(00:20:28) 146
(00:21:23) 147
(00:22:18) 148
(00:23:14) 149
(00:24:08) 150
(00:25:04) 151
(00:25:58) 152
(00:26:53) 153
(00:27:48) 154
(00:28:43) 155
(00:29:38) 156
(00:30:33) 157
(00:31:28) 158
(00:32:23) 159
(00:33:18) 160
(00:34:13) 161
(00:35:08) 162
(00:36:03) 163
(00:36:58) 164
(00:37:53) 165
(00:38:48) 166
(00:39:43) 167
(00:40:38) 168
(00:41:34) 169
(00:42:28) 170
(00:43:23) 171
(00:44:18) 172
(00:45:13) 173
(00:46:08) 174
(00:47:03) 175
(00:47:59) 176
(00:48:53) 177
(00:49:01) 86.128.210.138 connected.
(00:49:02) 86.128.210.138 connected.
(00:49:02) 86.128.210.138 logging in as 2k10.
(00:49:03) MJS --> Event PlayerJoin was triggered with parameters: player $player 2k10
(00:49:12) <2k10> G'day
(00:49:37) 2k10 uses /players 
(00:49:41) 2k10 uses /whois quaisaq
(00:49:48) 178
(00:50:43) 179
(00:51:38) 180
(00:52:05) 2k10 uses /title 2k10
(00:52:34) 181
(00:53:00) <2k10> Better change that announcement to mcrevive.tk instead of mcquai
(00:53:01) <2k10> .net
(00:53:28) 182
(00:53:31) <2k10> G'night
(00:53:34) 86.128.210.138 disconnected.
(00:53:34) 2k10 disconnected.
(00:54:23) 183
(00:55:18) 184
(00:56:13) 185
(00:57:08) 186
(01:01:47) Properties loaded, and saved!
(01:01:48) Level initialized
(01:01:48) Level "main" loaded.
(01:01:49) Creating listening socket on port 25565...
(01:01:49) Checking if port is forwarded...
(01:01:50) Port 25565 is closed!
(01:01:50) Trying to forward ports...
(01:01:50) Portforwarding failed.
(01:01:50) Make sure that UPnP is enabled in your router.
(01:01:50) Done.
(01:02:44) 2
(01:02:52) Could not recieve serverlist from mcrevive.tk
(01:03:39) 3
(01:03:52) Could not recieve serverlist from mcrevive.tk
(01:04:34) 4
(01:04:52) Could not recieve serverlist from mcrevive.tk
(01:05:29) 5
(01:05:52) Could not recieve serverlist from mcrevive.tk
(01:06:24) 6
(01:06:52) Could not recieve serverlist from mcrevive.tk
(01:07:19) 7
(01:07:52) Could not recieve serverlist from mcrevive.tk
(01:08:14) 8
(01:08:52) Could not recieve serverlist from mcrevive.tk
(01:09:08) https://minecraft.net/heartbeat.jsp?port=25565&max=20&name=%5BMCRevive%5D%20Testing%20Server&public=True&version=7&salt=Jcx5Aj8FVQy474JA&users=0
System.Net.WebException: Fjernserveren returnerede en fejl: (502) Forkert gateway.
   ved System.Net.WebClient.DownloadDataInternal(Uri address, WebRequest& request)
   ved System.Net.WebClient.DownloadString(Uri address)
   ved MCRevive.Server.DownloadString(String url) i C:\Users\Admin\Documents\gitties\MCRevive\MCQuai\Server.cs:linje 967
(01:09:08) Server was not able to recieve the URL - Minecraft
(01:09:09) 9
(01:09:52) Could not recieve serverlist from mcrevive.tk
(01:10:04) 10
(01:10:52) Could not recieve serverlist from mcrevive.tk
(01:10:59) 11
(01:11:52) Could not recieve serverlist from mcrevive.tk
(01:11:54) 12
(01:12:33) Shutting down...
(01:12:33) Closing forwarded ports...
(01:12:33) Process Terminated
(01:17:02) Properties loaded, and saved!
(01:17:03) Level initialized
(01:17:03) Level "main" loaded.
(01:17:03) Creating listening socket on port 25565...
(01:17:03) Checking if port is forwarded...
(01:17:04) Port 25565 is closed!
(01:17:04) Trying to forward ports...
(01:17:04) Portforwarding failed.
(01:17:04) Make sure that UPnP is enabled in your router.
(01:17:05) Done.
(01:17:06) ﻿[MCRevive] Testing Server性0性20性quaisaq性http://www.minecraft.net/classic/play/7e69ceb45ccb88c6818fdb9604453c89性The testing shall go on!
(01:17:58) 2
(01:18:06) ﻿[MCRevive] Testing Server性0性20性quaisaq性http://www.minecraft.net/classic/play/7e69ceb45ccb88c6818fdb9604453c89性The testing shall go on!
(01:18:06) Could not recieve serverlist from mcrevive.tk
(01:18:53) 3
(01:19:06) ﻿[MCRevive] Testing Server性0性20性quaisaq性http://www.minecraft.net/classic/play/7e69ceb45ccb88c6818fdb9604453c89性The testing shall go on!
(01:19:06) Could not recieve serverlist from mcrevive.tk
(01:19:27) Properties loaded, and saved!
(01:19:27) Level initialized
(01:19:28) Level "main" loaded.
(01:19:28) Creating listening socket on port 25565...
(01:19:28) Checking if port is forwarded...
(01:19:28) Port 25565 is closed!
(01:19:28) Trying to forward ports...
(01:19:28) Portforwarding failed.
(01:19:28) Make sure that UPnP is enabled in your router.
(01:19:28) Done.
(01:19:31) ﻿[MCRevive] Testing Server性0性20性quaisaq性http://www.minecraft.net/classic/play/7e69ceb45ccb88c6818fdb9604453c89性The testing shall go on!
(01:20:23) 2
(01:20:31) ﻿[MCRevive] Testing Server性0性20性quaisaq性http://www.minecraft.net/classic/play/7e69ceb45ccb88c6818fdb9604453c89性The testing shall go on!
(01:21:18) 3
(01:21:31) ﻿[MCRevive] Testing Server性0性20性quaisaq性http://www.minecraft.net/classic/play/7e69ceb45ccb88c6818fdb9604453c89性The testing shall go on!
(01:22:13) 4
(01:22:31) ﻿[MCRevive] Testing Server性0性20性quaisaq性http://www.minecraft.net/classic/play/7e69ceb45ccb88c6818fdb9604453c89性The testing shall go on!
(01:22:31) An Error occured! For more information, go to System Logs tab
(01:22:31) Could not recieve serverlist from mcrevive.tk
(01:23:08) 5
(01:23:31) ﻿[MCRevive] Testing Server性0性20性quaisaq性http://www.minecraft.net/classic/play/7e69ceb45ccb88c6818fdb9604453c89性The testing shall go on!
(01:23:31) An Error occured! For more information, go to System Logs tab
(01:23:31) Could not recieve serverlist from mcrevive.tk
(01:24:03) 6
(01:24:31) ﻿[MCRevive] Testing Server性0性20性quaisaq性http://www.minecraft.net/classic/play/7e69ceb45ccb88c6818fdb9604453c89性The testing shall go on!
(01:24:31) An Error occured! For more information, go to System Logs tab
(01:24:31) Could not recieve serverlist from mcrevive.tk
(01:24:59) 7
(01:25:31) ﻿[MCRevive] Testing Server性0性20性quaisaq性http://www.minecraft.net/classic/play/7e69ceb45ccb88c6818fdb9604453c89性The testing shall go on!
(01:25:31) An Error occured! For more information, go to System Logs tab
(01:25:32) Could not recieve serverlist from mcrevive.tk
(01:25:53) 8
(01:26:31) ﻿[MCRevive] Testing Server性0性20性quaisaq性http://www.minecraft.net/classic/play/7e69ceb45ccb88c6818fdb9604453c89性The testing shall go on!
(01:26:31) An Error occured! For more information, go to System Logs tab
(01:26:31) Could not recieve serverlist from mcrevive.tk
(01:26:48) 9
(01:27:31) ﻿[MCRevive] Testing Server性0性20性quaisaq性http://www.minecraft.net/classic/play/7e69ceb45ccb88c6818fdb9604453c89性The testing shall go on!
(01:27:31) An Error occured! For more information, go to System Logs tab
(01:27:31) Could not recieve serverlist from mcrevive.tk
(01:27:43) 10
(01:28:31) ﻿[MCRevive] Testing Server性0性20性quaisaq性http://www.minecraft.net/classic/play/7e69ceb45ccb88c6818fdb9604453c89性The testing shall go on!
(01:28:31) An Error occured! For more information, go to System Logs tab
(01:28:31) Could not recieve serverlist from mcrevive.tk
(01:28:38) 11
(01:29:31) ﻿[MCRevive] Testing Server性0性20性quaisaq性http://www.minecraft.net/classic/play/7e69ceb45ccb88c6818fdb9604453c89性The testing shall go on!
(01:29:31) An Error occured! For more information, go to System Logs tab
(01:29:31) Could not recieve serverlist from mcrevive.tk
(01:29:33) 12
(01:30:28) 13
(01:30:31) ﻿[MCRevive] Testing Server性0性20性quaisaq性http://www.minecraft.net/classic/play/7e69ceb45ccb88c6818fdb9604453c89性The testing shall go on!
(01:30:31) An Error occured! For more information, go to System Logs tab
(01:30:31) Could not recieve serverlist from mcrevive.tk
(01:31:23) 14
(01:31:31) ﻿[MCRevive] Testing Server性0性20性quaisaq性http://www.minecraft.net/classic/play/7e69ceb45ccb88c6818fdb9604453c89性The testing shall go on!
(01:31:31) An Error occured! For more information, go to System Logs tab
(01:31:31) Could not recieve serverlist from mcrevive.tk
(01:32:18) 15
(01:32:31) ﻿[MCRevive] Testing Server性0性20性quaisaq性http://www.minecraft.net/classic/play/7e69ceb45ccb88c6818fdb9604453c89性The testing shall go on!
(01:32:31) An Error occured! For more information, go to System Logs tab
(01:32:31) Could not recieve serverlist from mcrevive.tk
(01:33:14) 16
(01:33:31) ﻿[MCRevive] Testing Server性0性20性quaisaq性http://www.minecraft.net/classic/play/7e69ceb45ccb88c6818fdb9604453c89性The testing shall go on!
(01:33:31) An Error occured! For more information, go to System Logs tab
(01:33:31) Could not recieve serverlist from mcrevive.tk
(01:34:08) 17
(01:34:31) ﻿[MCRevive] Testing Server性0性20性quaisaq性http://www.minecraft.net/classic/play/7e69ceb45ccb88c6818fdb9604453c89性The testing shall go on!
(01:34:31) An Error occured! For more information, go to System Logs tab
(01:34:31) Could not recieve serverlist from mcrevive.tk
(01:35:03) 18
(01:35:31) ﻿[MCRevive] Testing Server性0性20性quaisaq性http://www.minecraft.net/classic/play/7e69ceb45ccb88c6818fdb9604453c89性The testing shall go on!
(01:35:31) An Error occured! For more information, go to System Logs tab
(01:35:31) Could not recieve serverlist from mcrevive.tk
(01:35:58) 19
(01:36:31) ﻿[MCRevive] Testing Server性0性20性quaisaq性http://www.minecraft.net/classic/play/7e69ceb45ccb88c6818fdb9604453c89性The testing shall go on!
(01:36:31) An Error occured! For more information, go to System Logs tab
(01:36:31) Could not recieve serverlist from mcrevive.tk
(01:36:53) 20
(01:37:31) ﻿[MCRevive] Testing Server性0性20性quaisaq性http://www.minecraft.net/classic/play/7e69ceb45ccb88c6818fdb9604453c89性The testing shall go on!
(01:37:31) An Error occured! For more information, go to System Logs tab
(01:37:31) Could not recieve serverlist from mcrevive.tk
(01:37:48) 21
(01:43:22) Properties loaded, and saved!
(01:43:23) Level initialized
(01:43:23) Level "main" loaded.
(01:43:23) Creating listening socket on port 25565...
(01:43:23) Checking if port is forwarded...
(01:43:24) Port 25565 is closed!
(01:43:24) Trying to forward ports...
(01:43:24) Portforwarding failed.
(01:43:24) Make sure that UPnP is enabled in your router.
(01:43:24) Done.
(01:43:26) ﻿[MCRevive] Testing Server性0性20性quaisaq性http://www.minecraft.net/classic/play/7e69ceb45ccb88c6818fdb9604453c89性The testing shall go on!
(01:43:32) Shutting down...
(01:43:32) Closing forwarded ports...
(01:43:32) Process Terminated
(01:47:26) Properties loaded, and saved!
(01:47:26) Level initialized
(01:47:26) Level "main" loaded.
(01:47:26) Creating listening socket on port 25565...
(01:47:26) Checking if port is forwarded...
(01:47:27) Port 25565 is closed!
(01:47:27) Trying to forward ports...
(01:47:27) Portforwarding failed.
(01:47:27) Make sure that UPnP is enabled in your router.
(01:47:27) Done.
(01:47:33) ﻿[MCRevive] Testing Server性0性20性quaisaq性http://www.minecraft.net/classic/play/7e69ceb45ccb88c6818fdb9604453c89性The testing shall go on!
(01:48:22) 2
(01:48:33) ﻿[MCRevive] Testing Server性0性20性quaisaq性http://www.minecraft.net/classic/play/7e69ceb45ccb88c6818fdb9604453c89性The testing shall go on!
(01:49:07) Shutting down...
(01:49:07) Closing forwarded ports...
(01:49:07) Process Terminated
