(20:35:01) Starting Server
(20:35:01) Properties loaded, and saved!
(20:35:01) You should enable "check-update" in server.properties
(20:35:02) Incorrect value given for tree, using default value.
(20:35:02) Level initialized
(20:35:03) Level "main" loaded.
(20:35:03) Creating listening socket on port 31415... 
(20:35:03) Checking if port is forwarded...
(20:35:04) Port 31415 is open!
(20:35:04) Done.
(20:35:04) MJS --> Event ServerStart was triggered with parameters: 
(20:37:57) 69.167.214.201 connected.
(20:37:58) 69.167.214.201 disconnected.
(21:35:05) SAVED: banned.txt
(22:35:04) SAVED: banned.txt
(22:41:36) GAH! PHYSICS EXPLODING!
(22:41:36) Process Terminated
(22:52:28) Starting Server
(22:52:28) Properties loaded, and saved!
(22:52:28) You should enable "check-update" in server.properties
(22:52:28) Incorrect value given for tree, using default value.
(22:52:29) Level initialized
(22:52:29) Level "main" loaded.
(22:52:29) Creating listening socket on port 31415... 
(22:52:29) Checking if port is forwarded...
(22:52:30) Port 31415 is open!
(22:52:30) Done.
(22:52:30) MJS --> Event ServerStart was triggered with parameters: 
(22:52:40) 127.0.0.1 logging in as quaisaq.
(22:52:41) MJS --> Event PlayerJoin was triggered with parameters: player $player quaisaq
(22:52:45) <quaisaq> hello
(22:52:49) <quaisaq> hello %rlol
(22:52:49) An Error occured! For more information, go to System Logs tab
(22:52:56) <quaisaq> %alol%rlol
(22:52:56) An Error occured! For more information, go to System Logs tab
(22:53:00) quaisaq disconnected.
(22:53:03) An Error occured! For more information, go to System Logs tab
(22:56:12) GAH! PHYSICS EXPLODING!
(22:56:12) Process Terminated
(22:56:37) Starting Server
(22:56:37) Properties loaded, and saved!
(22:56:37) You should enable "check-update" in server.properties
(22:56:37) Incorrect value given for tree, using default value.
(22:56:38) Level initialized
(22:56:38) Level "main" loaded.
(22:56:38) Creating listening socket on port 31415... 
(22:56:38) Checking if port is forwarded...
(22:56:39) Port 31415 is open!
(22:56:39) Done.
(22:56:40) MJS --> Event ServerStart was triggered with parameters: 
(22:56:40) 127.0.0.1 logging in as quaisaq.
(22:56:41) MJS --> Event PlayerJoin was triggered with parameters: player $player quaisaq
(22:56:53) quaisaq uses /cuboid air
(22:57:02) quaisaq uses /findcenter 
(22:57:18) quaisaq uses /findcenter 
(22:57:29) quaisaq uses /place 
(22:57:30) quaisaq uses /cuboid air
(22:58:05) quaisaq uses /fixgrass 
(22:58:11) <quaisaq> lol%rlol
(22:58:11) An Error occured! For more information, go to System Logs tab
(22:59:10) SAVED: Level "main". 1/1/20
(22:59:10) And backed up
(22:59:10) Backup 620 saved for main
(22:59:56) quaisaq disconnected.
(22:59:56) Process Terminated
(23:00:00) Starting Server
(23:00:00) Properties loaded, and saved!
(23:00:00) You should enable "check-update" in server.properties
(23:00:01) Incorrect value given for tree, using default value.
(23:00:02) Level initialized
(23:00:02) Level "main" loaded.
(23:00:02) Creating listening socket on port 31415... 
(23:00:02) Process Terminated
(23:00:06) Starting Server
(23:00:06) Properties loaded, and saved!
(23:00:06) You should enable "check-update" in server.properties
(23:00:07) Incorrect value given for tree, using default value.
(23:00:08) Level initialized
(23:00:08) Level "main" loaded.
(23:00:08) Creating listening socket on port 31415... 
(23:00:08) Checking if port is forwarded...
(23:00:10) Port 31415 is open!
(23:00:10) Done.
(23:00:10) MJS --> Event ServerStart was triggered with parameters: 
(23:00:12) 127.0.0.1 logging in as quaisaq.
(23:00:12) MJS --> Event PlayerJoin was triggered with parameters: player $player quaisaq
(23:00:17) <quaisaq> lol %rlol
(23:00:17) An Error occured! For more information, go to System Logs tab
(23:00:20) quaisaq disconnected.
(23:00:21) GAH! PHYSICS EXPLODING!
(23:00:21) Process Terminated
(23:00:24) Starting Server
(23:00:24) Properties loaded, and saved!
(23:00:24) You should enable "check-update" in server.properties
(23:00:24) Incorrect value given for tree, using default value.
(23:00:25) Level initialized
(23:00:25) Level "main" loaded.
(23:00:25) Creating listening socket on port 31415... 
(23:00:25) Checking if port is forwarded...
(23:00:26) Port 31415 is open!
(23:00:26) Done.
(23:00:27) MJS --> Event ServerStart was triggered with parameters: 
(23:02:44) GAH! PHYSICS EXPLODING!
(23:02:44) Process Terminated
(23:03:45) Starting Server
(23:03:45) Properties loaded, and saved!
(23:03:45) You should enable "check-update" in server.properties
(23:03:45) Incorrect value given for tree, using default value.
(23:03:45) Level initialized
(23:03:45) Level "main" loaded.
(23:03:45) Creating listening socket on port 31415... 
(23:03:45) Checking if port is forwarded...
(23:03:46) Port 31415 is open!
(23:03:46) Done.
(23:03:47) MJS --> Event ServerStart was triggered with parameters: 
(23:03:50) 127.0.0.1 logging in as quaisaq.
(23:03:50) MJS --> Event PlayerJoin was triggered with parameters: player $player quaisaq
(23:03:54) <quaisaq> lol%rlol
(23:03:54) An Error occured! For more information, go to System Logs tab
(23:03:58) <quaisaq> rlol
(23:04:01) <quaisaq> rlolqy
(23:04:03) quaisaq disconnected.
(23:04:06) GAH! PHYSICS EXPLODING!
(23:04:06) Process Terminated
(23:14:08) Starting Server
(23:14:08) Properties loaded, and saved!
(23:14:08) You should enable "check-update" in server.properties
(23:14:09) Incorrect value given for tree, using default value.
(23:14:09) Level initialized
(23:14:09) Level "main" loaded.
(23:14:09) Creating listening socket on port 31415... 
(23:14:09) Checking if port is forwarded...
(23:14:10) Port 31415 is open!
(23:14:10) Done.
(23:14:11) MJS --> Event ServerStart was triggered with parameters: 
(23:14:13) 127.0.0.1 logging in as quaisaq.
(23:14:13) MJS --> Event PlayerJoin was triggered with parameters: player $player quaisaq
(23:14:42) <quaisaq> lol
(23:14:48) <quaisaq> l%lol
(23:14:53) <quaisaq> l%rlol
(23:14:53) An Error occured! For more information, go to System Logs tab
(23:15:09) 127.0.0.1 logging in as quaispet.
(23:15:10) MJS --> Event PlayerJoin was triggered with parameters: player $player quaispet
(23:15:15) <quaispet> lol
(23:15:19) quaisaq uses /players 
(23:15:22) quaisaq uses /players 
(23:15:36) quaisaq uses /whois quaispet
(23:16:08) <quaispet> lol
(23:16:12) <quaispet> this is fail
(23:16:14) <quaispet> indeed...
(23:16:15) <quaispet> hmm
(23:16:16) <quaispet> ahhh
(23:16:28) quaisaq uses /setrank quaisp op
(23:16:28) SAVED: guests.txt
(23:16:28) SAVED: operators.txt
(23:16:30) quaisaq uses /players 
(23:16:33) <quaisaq> lol
(23:16:34) <quaisaq> wtf
(23:16:38) <quaispet> lol
(23:16:42) quaispet uses /players 
(23:16:56) quaisaq uses /setrank quaisp owner
(23:16:56) SAVED: operators.txt
(23:16:56) SAVED: owners.txt
(23:16:59) quaisaq uses /players 
(23:17:00) <quaisaq> hmmm
(23:17:02) <quaisaq> oddddd
(23:17:12) quaisaq disconnected.
(23:17:13) quaispet disconnected.
(23:17:13) GAH! PHYSICS EXPLODING!
(23:20:25) Starting Server
(23:20:25) Properties loaded, and saved!
(23:20:25) You should enable "check-update" in server.properties
(23:20:26) Incorrect value given for tree, using default value.
(23:20:26) Level initialized
(23:20:26) Level "main" loaded.
(23:20:26) Creating listening socket on port 31415... 
(23:20:26) Checking if port is forwarded...
(23:20:27) Port 31415 is open!
(23:20:27) Done.
(23:20:27) MJS --> Event ServerStart was triggered with parameters: 
(23:20:29) 127.0.0.1 logging in as quaispet.
(23:20:29) MJS --> Event PlayerJoin was triggered with parameters: player $player quaispet
(23:21:00) 127.0.0.1 logging in as quaisaq.
(23:21:00) MJS --> Event PlayerJoin was triggered with parameters: player $player quaisaq
(23:21:08) quaisaq uses /spawn 
(23:21:19) quaisaq uses /players 
(23:21:28) quaisaq uses /setrank quaisaq builder
(23:21:28) SAVED: owners.txt
(23:21:28) SAVED: builders.txt
(23:21:30) quaisaq uses /players 
(23:23:13) quaispet uses /reveal 
(23:23:19) quaispet uses /reveal all
(23:28:03) quaispet disconnected.
(23:28:03) GAH! PHYSICS EXPLODING!
(23:28:03) Process Terminated
(23:28:11) Starting Server
(23:28:11) Properties loaded, and saved!
(23:28:11) You should enable "check-update" in server.properties
(23:28:12) Incorrect value given for tree, using default value.
(23:28:12) Level initialized
(23:28:13) Level "main" loaded.
(23:28:13) Creating listening socket on port 31415... 
(23:28:13) Checking if port is forwarded...
(23:28:14) MJS --> Event ServerStart was triggered with parameters: 
(23:28:14) Port 31415 is open!
(23:28:14) Done.
(23:28:21) 127.0.0.1 logging in as quaisaq.
(23:28:22) MJS --> Event PlayerJoin was triggered with parameters: player $player quaisaq
(23:28:46) 127.0.0.1 logging in as quaispet.
(23:28:46) MJS --> Event PlayerJoin was triggered with parameters: player $player quaispet
(23:29:01) quaispet uses /spawn 
(23:29:19) quaispet uses /tp quaisaq
(23:29:27) quaispet uses /reveal 
(23:29:37) quaispet uses /zombie 
(23:33:14) SAVED: Level "main". 2/2/20
(23:33:14) And backed up
(23:33:46) quaispet disconnected.
(23:33:47) quaisaq disconnected.
(23:33:51) GAH! PHYSICS EXPLODING!
(23:33:51) Process Terminated
(23:35:18) Starting Server
(23:35:18) Properties loaded, and saved!
(23:35:18) You should enable "check-update" in server.properties
(23:35:19) Incorrect value given for tree, using default value.
(23:35:19) Level initialized
(23:35:19) Level "main" loaded.
(23:35:19) Creating listening socket on port 31415... 
(23:35:19) Checking if port is forwarded...
(23:35:21) MJS --> Event ServerStart was triggered with parameters: 
(23:35:23) 127.0.0.1 logging in as quaispet.
(23:35:24) MJS --> Event PlayerJoin was triggered with parameters: player $player quaispet
(23:35:25) Port 31415 is open!
(23:35:25) Done.
(23:35:40) quaispet uses /undo quaisaq 100
(23:35:48) 127.0.0.1 logging in as quaisaq.
(23:35:48) MJS --> Event PlayerJoin was triggered with parameters: player $player quaisaq
(23:37:56) SAVED: Level "main". 2/2/20
(23:37:56) And backed up
(23:37:56) Backup 629 saved for main
(23:38:08) quaisaq uses /players 
(23:38:19) quaisaq disconnected.
(23:50:33) quaispet disconnected.
(23:50:34) GAH! PHYSICS EXPLODING!
(23:50:34) Process Terminated
(23:56:46) Starting Server
(23:56:46) Properties loaded, and saved!
(23:56:46) You should enable "check-update" in server.properties
(23:56:46) Incorrect value given for tree, using default value.
(23:56:47) Level initialized
(23:56:47) Level "main" loaded.
(23:56:47) Creating listening socket on port 31415... 
(23:56:47) Checking if port is forwarded...
(23:56:48) Port 31415 is open!
(23:56:48) Done.
(23:56:48) MJS --> Event ServerStart was triggered with parameters: 
(23:56:50) 127.0.0.1 logging in as quaisaq.
(23:56:51) MJS --> Event PlayerJoin was triggered with parameters: player $player quaisaq
(23:57:18) quaisaq disconnected.
(23:57:40) GAH! PHYSICS EXPLODING!
(23:57:40) Process Terminated
(23:57:43) Starting Server
(23:57:43) Properties loaded, and saved!
(23:57:43) You should enable "check-update" in server.properties
(23:57:43) Incorrect value given for tree, using default value.
(23:57:44) Level initialized
(23:57:44) Level "main" loaded.
(23:57:44) Creating listening socket on port 31415... 
(23:57:44) Checking if port is forwarded...
(23:57:45) Port 31415 is open!
(23:57:45) Done.
(23:57:45) MJS --> Event ServerStart was triggered with parameters: 
(23:57:46) 127.0.0.1 logging in as quaisaq.
(23:57:47) MJS --> Event PlayerJoin was triggered with parameters: player $player quaisaq
(23:57:52) quaisaq uses /example 
(23:57:52) An Error occured! For more information, go to System Logs tab
(23:59:42) quaisaq disconnected.
(23:59:42) GAH! PHYSICS EXPLODING!
(23:59:42) Process Terminated
