(01:36:05) Properties loaded, and saved!
(01:36:05) You should enable "check-update" in server.properties
(01:36:06) Level initialized
(01:36:06) Level "main" loaded.
(01:36:06) flat
(01:36:06) Creating listening socket on port 25565...
(01:36:06) Done.
(01:36:08) Shutting down...
(01:36:08) Process Terminated
