(08:46:53) Properties loaded, and saved!
(08:46:53) You should enable "check-update" in server.properties
(08:46:54) Level initialized
(08:46:54) Level "main" loaded.
(08:46:54) flat
(08:46:54) Creating listening socket on port 31415...
(08:46:55) Checking if port is forwarded...
(08:46:58) An Error occured! For more information, go to System Logs tab
(08:47:02) Port 31415 is closed!
(08:47:02) Trying to forward ports...
(08:47:02) Portforwarding failed.
(08:47:02) Make sure that UPnP is enabled in your router.
(08:47:02) Done.
(08:47:50) An Error occured! For more information, go to System Logs tab
(08:48:45) An Error occured! For more information, go to System Logs tab
(08:49:40) An Error occured! For more information, go to System Logs tab
(08:50:35) An Error occured! For more information, go to System Logs tab
(08:51:30) An Error occured! For more information, go to System Logs tab
(08:52:25) An Error occured! For more information, go to System Logs tab
(08:53:20) An Error occured! For more information, go to System Logs tab
(08:54:15) An Error occured! For more information, go to System Logs tab
(08:55:10) An Error occured! For more information, go to System Logs tab
(08:56:05) An Error occured! For more information, go to System Logs tab
(08:57:00) An Error occured! For more information, go to System Logs tab
(08:57:55) An Error occured! For more information, go to System Logs tab
(08:58:50) An Error occured! For more information, go to System Logs tab
(08:59:45) An Error occured! For more information, go to System Logs tab
(09:00:40) An Error occured! For more information, go to System Logs tab
(09:01:35) An Error occured! For more information, go to System Logs tab
(09:02:30) An Error occured! For more information, go to System Logs tab
(09:03:25) An Error occured! For more information, go to System Logs tab
(09:04:20) An Error occured! For more information, go to System Logs tab
(09:05:16) An Error occured! For more information, go to System Logs tab
(09:06:10) An Error occured! For more information, go to System Logs tab
(09:07:05) An Error occured! For more information, go to System Logs tab
(09:08:00) An Error occured! For more information, go to System Logs tab
(09:08:55) An Error occured! For more information, go to System Logs tab
(09:09:51) An Error occured! For more information, go to System Logs tab
(09:10:45) An Error occured! For more information, go to System Logs tab
(09:11:40) An Error occured! For more information, go to System Logs tab
(09:12:35) An Error occured! For more information, go to System Logs tab
(09:13:30) An Error occured! For more information, go to System Logs tab
(09:14:06) Shutting down...
(09:14:06) Closing forwarded ports...
(09:14:06) Process Terminated
