(22:53:09) Properties loaded, and saved!
(22:53:09) You should enable "check-update" in server.properties
(22:53:11) Level initialized
(22:53:11) Level "main" loaded.
(22:53:11) flat
(22:53:11) Creating listening socket on port 31415...
(22:53:11) Checking if port is forwarded...
(22:53:16) Port 31415 is closed!
(22:53:16) Trying to forward ports...
(22:53:20) Portforward successful!
(22:53:20) Done.
(22:53:36) Properties loaded, and saved!
(22:53:36) You should enable "check-update" in server.properties
(22:53:37) Level initialized
(22:53:37) Level "main" loaded.
(22:53:37) flat
(22:53:37) Creating listening socket on port 31415...
(22:53:37) Checking if port is forwarded...
(22:53:38) Port 31415 is open!
(22:53:38) Done.
(22:58:08) Shutting down...
(22:58:08) Closing forwarded ports...
(22:58:13) Process Terminated
