(19:14:35) Properties loaded, and saved!
(19:14:35) You should enable "check-update" in server.properties
(19:14:35) Incorrect command name: spleef
(19:14:35) Incorrect value given for tnt, using default value.
(19:14:35) Level initialized
(19:14:35) Level "main" loaded.
(19:14:35) Creating listening socket on port 31415... 
(19:14:36) Checking if port is forwarded...
(19:14:37) MJS --> Event ServerStart was triggered with parameters: 
(19:14:40) GAH! PHYSICS EXPLODING!
(19:14:40) Process Terminated
(19:14:48) Properties loaded, and saved!
(19:14:48) You should enable "check-update" in server.properties
(19:14:49) Incorrect value given for tnt, using default value.
(19:14:49) Level initialized
(19:14:49) Level "main" loaded.
(19:14:49) Creating listening socket on port 31415... 
(19:14:49) Checking if port is forwarded...
(19:14:50) MJS --> Event ServerStart was triggered with parameters: 
(19:14:53) Port 31415 is closed!
(19:14:53) Done.
(19:15:42) 127.0.0.1 logging in as quaisaq.
(19:15:43) MJS --> Event PlayerJoin was triggered with parameters: player $player quaisaq
(19:15:53) quaisaq uses /clearchar 
(19:15:58) <quaisaq> .
(19:16:18) quaisaq disconnected.
(19:16:19) GAH! PHYSICS EXPLODING!
(19:16:19) Process Terminated
(19:17:59) Properties loaded, and saved!
(19:17:59) You should enable "check-update" in server.properties
(19:17:59) Incorrect value given for tnt, using default value.
(19:18:00) Level initialized
(19:18:00) Level "main" loaded.
(19:18:00) Creating listening socket on port 31415... 
(19:18:00) Checking if port is forwarded...
(19:18:01) MJS --> Event ServerStart was triggered with parameters: 
(19:18:02) 127.0.0.1 logging in as quaisaq.
(19:18:03) Port 31415 is closed!
(19:18:03) Done.
(19:18:04) MJS --> Event PlayerJoin was triggered with parameters: player $player quaisaq
(19:18:06) quaisaq uses /clearchat 
(19:18:14) quaisaq disconnected.
(19:18:14) GAH! PHYSICS EXPLODING!
(19:18:14) Process Terminated
(19:18:33) Properties loaded, and saved!
(19:18:33) You should enable "check-update" in server.properties
(19:18:33) Incorrect value given for tnt, using default value.
(19:18:33) Level initialized
(19:18:33) Level "main" loaded.
(19:18:33) Creating listening socket on port 31415... 
(19:18:33) Checking if port is forwarded...
(19:18:35) MJS --> Event ServerStart was triggered with parameters: 
(19:18:36) 127.0.0.1 logging in as quaisaq.
(19:18:36) MJS --> Event PlayerJoin was triggered with parameters: player $player quaisaq
(19:18:37) Port 31415 is closed!
(19:18:37) Done.
(19:18:39) quaisaq uses /clearchat 
(19:18:43) quaisaq disconnected.
(19:18:43) GAH! PHYSICS EXPLODING!
(19:18:43) Process Terminated
(19:19:03) Properties loaded, and saved!
(19:19:03) You should enable "check-update" in server.properties
(19:19:04) Incorrect value given for tnt, using default value.
(19:19:04) Level initialized
(19:19:04) Level "main" loaded.
(19:19:04) Creating listening socket on port 31415... 
(19:19:04) Checking if port is forwarded...
(19:19:06) MJS --> Event ServerStart was triggered with parameters: 
(19:19:07) 127.0.0.1 logging in as quaisaq.
(19:19:08) MJS --> Event PlayerJoin was triggered with parameters: player $player quaisaq
(19:19:08) Port 31415 is closed!
(19:19:08) Done.
(19:19:11) quaisaq uses /clearchat 
(19:19:14) quaisaq disconnected.
(19:19:14) GAH! PHYSICS EXPLODING!
(19:19:14) Process Terminated
(19:19:32) Properties loaded, and saved!
(19:19:32) You should enable "check-update" in server.properties
(19:19:32) Incorrect value given for tnt, using default value.
(19:19:33) Level initialized
(19:19:33) Level "main" loaded.
(19:19:33) Creating listening socket on port 31415... 
(19:19:33) Checking if port is forwarded...
(19:19:35) MJS --> Event ServerStart was triggered with parameters: 
(19:19:36) 127.0.0.1 logging in as quaisaq.
(19:19:36) MJS --> Event PlayerJoin was triggered with parameters: player $player quaisaq
(19:19:37) Port 31415 is closed!
(19:19:37) Done.
(19:19:40) quaisaq uses /clearchat 
(19:19:43) quaisaq disconnected.
(19:19:43) GAH! PHYSICS EXPLODING!
(19:19:43) Process Terminated
(19:20:29) Properties loaded, and saved!
(19:20:29) You should enable "check-update" in server.properties
(19:20:30) Incorrect value given for tnt, using default value.
(19:20:30) Level initialized
(19:20:30) Level "main" loaded.
(19:20:30) Creating listening socket on port 31415... 
(19:20:30) Checking if port is forwarded...
(19:20:32) MJS --> Event ServerStart was triggered with parameters: 
(19:20:32) 127.0.0.1 logging in as quaisaq.
(19:20:33) MJS --> Event PlayerJoin was triggered with parameters: player $player quaisaq
(19:20:34) Port 31415 is closed!
(19:20:34) Done.
(19:20:51) quaisaq uses /clearchat 
(19:20:54) quaisaq uses /afk 
(19:20:58) quaisaq uses /afk 
(19:20:58) quaisaq uses /afk 
(19:20:59) quaisaq uses /afk 
(19:20:59) quaisaq uses /afk 
(19:20:59) quaisaq uses /afk 
(19:20:59) quaisaq uses /afk 
(19:21:00) quaisaq uses /afk 
(19:21:00) quaisaq uses /afk 
(19:21:00) quaisaq uses /afk 
(19:21:04) quaisaq uses /afk 
(19:21:05) quaisaq uses /afk 
(19:21:05) quaisaq uses /afk 
(19:21:05) quaisaq uses /afk 
(19:21:06) quaisaq uses /afk 
(19:21:06) quaisaq uses /afk 
(19:21:07) quaisaq uses /afk 
(19:21:09) quaisaq uses /clearchat 
(19:21:25) quaisaq disconnected.
(19:21:27) GAH! PHYSICS EXPLODING!
(19:21:27) Process Terminated
