(23:55:12) Properties loaded, and saved!
(23:55:12) You should enable "check-update" in server.properties
(23:55:13) Level initialized
(23:55:13) Level "main" loaded.
(23:55:13) Creating listening socket on port 31415...
(23:55:13) Checking if port is forwarded...
(23:55:18) Port 31415 is closed!
(23:55:18) Trying to forward ports...
(23:55:23) Portforward successful!
(23:55:23) Done.
(23:57:15) Level initialized
(23:57:23) Level "elliptest" loaded.
(23:57:41) Level initialized
(23:57:41) Level "testing123" loaded.
