(20:54:09) Properties loaded, and saved!
(20:54:09) You should enable "check-update" in server.properties
(20:54:09) Incorrect value given for tnt, using default value.
(20:54:10) Level initialized
(20:54:10) Level "main" loaded.
(20:54:10) Creating listening socket on port 31415... 
(20:54:10) Checking if port is forwarded...
(20:54:11) MJS --> Event ServerStart was triggered with parameters: 
(20:54:19) Port 31415 is closed!
(20:54:19) Done.
(20:54:40) 127.0.0.1 logging in as quaisaq.
(20:54:41) MJS --> Event PlayerJoin was triggered with parameters: player $player quaisaq
(20:54:57) quaisaq uses /clearchat global
(20:55:03) <quaisaq> .
(20:55:06) quaisaq uses /clearchat 
(20:55:11) quaisaq uses /clearchat global
(20:55:17) <quaisaq> .
(20:56:37) quaisaq disconnected.
(20:56:39) GAH! PHYSICS EXPLODING!
(20:56:39) Process Terminated
(20:56:43) Properties loaded, and saved!
(20:56:43) You should enable "check-update" in server.properties
(20:56:44) Incorrect value given for tnt, using default value.
(20:56:44) Level initialized
(20:56:44) Level "main" loaded.
(20:56:44) Creating listening socket on port 31415... 
(20:56:44) Checking if port is forwarded...
(20:56:46) 127.0.0.1 logging in as quaisaq.
(20:56:46) MJS --> Event ServerStart was triggered with parameters: 
(20:56:46) MJS --> Event PlayerJoin was triggered with parameters: player $player quaisaq
(20:56:48) quaisaq disconnected.
(20:56:48) Port 31415 is closed!
(20:56:48) Done.
(20:56:52) Process Terminated
(20:56:59) Properties loaded, and saved!
(20:56:59) You should enable "check-update" in server.properties
(20:56:59) Incorrect value given for tnt, using default value.
(20:57:00) Level initialized
(20:57:00) Level "main" loaded.
(20:57:00) Creating listening socket on port 31415... 
(20:57:00) Checking if port is forwarded...
(20:57:01) MJS --> Event ServerStart was triggered with parameters: 
(20:57:02) 127.0.0.1 logging in as quaisaq.
(20:57:03) MJS --> Event PlayerJoin was triggered with parameters: player $player quaisaq
(20:57:03) Port 31415 is closed!
(20:57:03) Done.
(20:57:05) Incorrect value given for tnt, using default value.
(20:57:05) Failed to load something.
(20:57:37) Properties saved, and loaded!
(20:57:41) Failed to load something.
(20:58:16) quaisaq uses /clearchat global
(20:58:20) quaisaq disconnected.
(20:58:21) GAH! PHYSICS EXPLODING!
(20:58:21) Process Terminated
(20:58:26) Properties loaded, and saved!
(20:58:26) You should enable "check-update" in server.properties
(20:58:27) Level initialized
(20:58:27) Level "main" loaded.
(20:58:27) Creating listening socket on port 31415... 
(20:58:27) Checking if port is forwarded...
(20:58:29) 127.0.0.1 logging in as quaisaq.
(20:58:29) MJS --> Event ServerStart was triggered with parameters: 
(20:58:30) MJS --> Event PlayerJoin was triggered with parameters: player $player quaisaq
(20:58:31) Port 31415 is closed!
(20:58:31) Done.
(20:58:39) quaisaq uses /clearchat quaisaq
(20:58:42) quaisaq disconnected.
(20:58:44) GAH! PHYSICS EXPLODING!
(20:58:44) Process Terminated
(21:00:14) Properties loaded, and saved!
(21:00:14) You should enable "check-update" in server.properties
(21:00:15) Level initialized
(21:00:15) Level "main" loaded.
(21:00:15) Creating listening socket on port 31415... 
(21:00:15) Checking if port is forwarded...
(21:00:16) MJS --> Event ServerStart was triggered with parameters: 
(21:00:19) Port 31415 is closed!
(21:00:19) Done.
(21:03:22) GAH! PHYSICS EXPLODING!
(21:03:22) Process Terminated
(21:03:27) Properties loaded, and saved!
(21:03:27) You should enable "check-update" in server.properties
(21:03:28) Level initialized
(21:03:28) Level "main" loaded.
(21:03:28) Creating listening socket on port 31415... 
(21:03:28) Checking if port is forwarded...
(21:03:29) MJS --> Event ServerStart was triggered with parameters: 
(21:03:31) Port 31415 is closed!
(21:03:31) Done.
(21:03:32) GAH! PHYSICS EXPLODING!
(21:03:32) Process Terminated
(21:03:37) Properties loaded, and saved!
(21:03:37) You should enable "check-update" in server.properties
(21:03:37) Level initialized
(21:03:37) Level "main" loaded.
(21:03:37) Creating listening socket on port 31415... 
(21:03:37) Checking if port is forwarded...
(21:03:39) MJS --> Event ServerStart was triggered with parameters: 
(21:03:40) 127.0.0.1 logging in as quaisaq.
(21:03:40) MJS --> Event PlayerJoin was triggered with parameters: player $player quaisaq
(21:03:41) Port 31415 is closed!
(21:03:41) Done.
(21:03:47) quaisaq uses /lbeels 
(21:03:47) quaisaq uses /levels 
(21:03:55) quaisaq uses /unloaded 
(21:04:00) quaisaq uses /goto empty
(21:04:00) Level initialized
(21:04:01) Level "empty" loaded.
(21:04:07) quaisaq disconnected.
(21:04:07) empty was unloaded.
(21:04:11) 127.0.0.1 logging in as quaisaq.
(21:04:11) MJS --> Event PlayerJoin was triggered with parameters: player $player quaisaq
(21:04:15) quaisaq uses /unloaded 
(21:04:18) quaisaq uses /deletelvl empty
(21:04:24) quaisaq uses /goto quaisaq
(21:04:24) Level initialized
(21:04:24) Level "quaisaq" loaded.
(21:04:56) quaisaq uses /save 
(21:04:56) SAVED: Level "quaisaq". 1/1/20
(21:04:56) And backed up
(21:04:58) quaisaq disconnected.
(21:04:58) quaisaq was unloaded.
(21:04:59) GAH! PHYSICS EXPLODING!
(21:04:59) Process Terminated
(21:05:12) Properties loaded, and saved!
(21:05:12) You should enable "check-update" in server.properties
(21:05:13) Level initialized
(21:05:13) Level "main" loaded.
(21:05:13) Creating listening socket on port 31415... 
(21:05:13) Checking if port is forwarded...
(21:05:14) MJS --> Event ServerStart was triggered with parameters: 
(21:05:15) 127.0.0.1 logging in as quaisaq.
(21:05:16) MJS --> Event PlayerJoin was triggered with parameters: player $player quaisaq
(21:05:17) Port 31415 is closed!
(21:05:17) Done.
(21:05:22) quaisaq uses /goto quaisaq
(21:05:22) Level initialized
(21:05:22) Level "quaisaq" loaded.
(21:05:31) quaisaq uses /cleanlvl 
(21:05:31) An Error occured! For more information, go to System Logs tab
(21:05:34) quaisaq disconnected.
(21:05:34) quaisaq was unloaded.
(21:05:35) GAH! PHYSICS EXPLODING!
(21:05:35) Process Terminated
(21:06:45) Properties loaded, and saved!
(21:06:45) You should enable "check-update" in server.properties
(21:06:46) Level initialized
(21:06:46) Level "main" loaded.
(21:06:46) Creating listening socket on port 31415... 
(21:06:46) Checking if port is forwarded...
(21:06:48) MJS --> Event ServerStart was triggered with parameters: 
(21:06:50) 127.0.0.1 logging in as quaisaq.
(21:06:51) Properties loaded, and saved!
(21:06:51) You should enable "check-update" in server.properties
(21:06:52) Level initialized
(21:06:52) Level "main" loaded.
(21:06:52) Creating listening socket on port 31415... 
(21:06:52) Checking if port is forwarded...
(21:06:53) MJS --> Event ServerStart was triggered with parameters: 
(21:06:55) Port 31415 is closed!
(21:06:55) Done.
(21:06:56) 127.0.0.1 logging in as quaisaq.
(21:06:57) MJS --> Event PlayerJoin was triggered with parameters: player $player quaisaq
(21:07:03) quaisaq uses /goto quaisaq
(21:07:03) Level initialized
(21:07:03) Level "quaisaq" loaded.
(21:07:09) quaisaq disconnected.
(21:07:09) quaisaq was unloaded.
(21:07:10) GAH! PHYSICS EXPLODING!
(21:07:10) Process Terminated
(21:07:54) Properties loaded, and saved!
(21:07:54) You should enable "check-update" in server.properties
(21:07:55) Level initialized
(21:07:55) Level "main" loaded.
(21:07:55) Creating listening socket on port 31415... 
(21:07:55) Checking if port is forwarded...
(21:07:56) MJS --> Event ServerStart was triggered with parameters: 
(21:07:57) 127.0.0.1 logging in as quaisaq.
(21:07:58) MJS --> Event PlayerJoin was triggered with parameters: player $player quaisaq
(21:07:59) Port 31415 is closed!
(21:07:59) Done.
(21:08:02) quaisaq uses /goto quaisaq
(21:08:02) Level initialized
(21:08:02) Level "quaisaq" loaded.
(21:08:06) quaisaq uses /cleanlvl 
(21:08:30) quaisaq disconnected.
(21:08:30) quaisaq was unloaded.
(21:08:31) GAH! PHYSICS EXPLODING!
(21:08:31) Process Terminated
(21:09:00) Properties loaded, and saved!
(21:09:00) You should enable "check-update" in server.properties
(21:09:00) Level initialized
(21:09:00) Level "main" loaded.
(21:09:00) Creating listening socket on port 31415... 
(21:09:00) Checking if port is forwarded...
(21:09:02) MJS --> Event ServerStart was triggered with parameters: 
(21:09:03) 127.0.0.1 logging in as quaisaq.
(21:09:03) MJS --> Event PlayerJoin was triggered with parameters: player $player quaisaq
(21:09:04) Port 31415 is closed!
(21:09:04) Done.
(21:09:11) quaisaq uses /goto quaisaq
(21:09:11) Level initialized
(21:09:11) Level "quaisaq" loaded.
(21:09:14) quaisaq uses /cleanlvl 
(21:09:20) quaisaq disconnected.
(21:09:20) quaisaq was unloaded.
(21:09:21) GAH! PHYSICS EXPLODING!
(21:09:21) Process Terminated
(21:14:08) Properties loaded, and saved!
(21:14:08) You should enable "check-update" in server.properties
(21:14:09) Level initialized
(21:14:09) Level "main" loaded.
(21:14:09) Creating listening socket on port 31415... 
(21:14:09) Checking if port is forwarded...
(21:14:11) MJS --> Event ServerStart was triggered with parameters: 
(21:14:11) 127.0.0.1 logging in as quaisaq.
(21:14:12) MJS --> Event PlayerJoin was triggered with parameters: player $player quaisaq
(21:14:13) Port 31415 is closed!
(21:14:13) Done.
(21:15:22) quaisaq uses /goto quaisaq
(21:15:22) Level initialized
(21:15:22) Level "quaisaq" loaded.
(21:15:27) quaisaq uses /physics 1
(21:15:27) Physics is now Normal on quaisaq.
(21:15:39) quaisaq uses /map edgewater
(21:15:39) An Error occured! For more information, go to System Logs tab
(21:15:51) quaisaq disconnected.
(21:15:51) SAVED: Level "quaisaq". 1/0/20
(21:15:51) And backed up
(21:15:51) quaisaq was unloaded.
(21:15:53) GAH! PHYSICS EXPLODING!
(21:15:53) Process Terminated
(21:16:34) Properties loaded, and saved!
(21:16:34) You should enable "check-update" in server.properties
(21:16:34) Level initialized
(21:16:35) Level "main" loaded.
(21:16:35) Creating listening socket on port 31415... 
(21:16:35) Checking if port is forwarded...
(21:16:36) MJS --> Event ServerStart was triggered with parameters: 
(21:16:36) 127.0.0.1 logging in as quaisaq.
(21:16:37) MJS --> Event PlayerJoin was triggered with parameters: player $player quaisaq
(21:16:38) Port 31415 is closed!
(21:16:38) Done.
(21:16:45) quaisaq uses /goto quaisaq
(21:16:45) Level initialized
(21:16:45) Level "quaisaq" loaded.
(21:16:48) quaisaq uses /map edgewater
(21:16:48) System.ArgumentOutOfRangeException: startIndex kan ikke være større end strengens længde.
Parameternavn: startIndex
   ved System.String.InternalSubStringWithChecks(Int32 startIndex, Int32 length, Boolean fAlwaysCopy)
   ved System.String.Substring(Int32 startIndex)
   ved MCQuai.CmdMap.Use(Player p, String message) i C:\Users\Lasse\Dropbox\mcquai\Editing\MCQuai\Commands\ModCommands\CmdMap.cs:linje 36
(21:17:54) quaisaq disconnected.
(21:17:54) quaisaq was unloaded.
(21:17:59) GAH! PHYSICS EXPLODING!
(21:17:59) Process Terminated
(21:18:05) Properties loaded, and saved!
(21:18:05) You should enable "check-update" in server.properties
(21:18:06) Properties loaded, and saved!
(21:18:06) You should enable "check-update" in server.properties
(21:18:06) Level initialized
(21:18:06) Level "main" loaded.
(21:18:06) Creating listening socket on port 31415... 
(21:18:06) Checking if port is forwarded...
(21:18:07) Level initialized
(21:18:07) Level "main" loaded.
(21:18:07) Creating listening socket on port 31415... 
(21:18:07) An Error occured! For more information, go to System Logs tab
(21:18:07) Could not create socket connection.  Shutting down.
(21:18:08) MJS --> Event ServerStart was triggered with parameters: 
(21:18:09) 127.0.0.1 logging in as quaisaq.
(21:18:09) MJS --> Event ServerStart was triggered with parameters: 
(21:18:10) MJS --> Event PlayerJoin was triggered with parameters: player $player quaisaq
(21:18:10) Port 31415 is closed!
(21:18:10) Done.
(21:18:10) An Error occured! For more information, go to System Logs tab
(21:18:11) quaisaq kicked (Server restarted! Rejoin!).
(21:18:11) An Error occured! For more information, go to System Logs tab
(21:18:16) Properties loaded, and saved!
(21:18:16) You should enable "check-update" in server.properties
(21:18:17) Level initialized
(21:18:17) Level "main" loaded.
(21:18:17) Creating listening socket on port 31415... 
(21:18:17) Checking if port is forwarded...
(21:18:19) MJS --> Event ServerStart was triggered with parameters: 
(21:18:21) Port 31415 is closed!
(21:18:21) Done.
(21:18:22) 127.0.0.1 logging in as quaisaq.
(21:18:22) MJS --> Event PlayerJoin was triggered with parameters: player $player quaisaq
(21:18:33) quaisaq uses /goto quaisaq
(21:18:33) quaisaq uses /map edgewater
(21:18:33) Level initialized
(21:18:33) Level "quaisaq" loaded.
(21:18:42) quaisaq uses /goto main
(21:18:44) quaisaq uses /map edgewater
(21:18:47) quaisaq uses /goto quaisaq
(21:18:51) quaisaq uses /map edgewater
(21:19:02) quaisaq uses /physics 1
(21:19:02) Physics is now Normal on quaisaq.
(21:19:19) quaisaq uses /map edgewater
(21:19:36) quaisaq uses /map edgewater
(21:19:47) quaisaq disconnected.
(21:19:48) SAVED: Level "quaisaq". 1/0/20
(21:19:48) And backed up
(21:19:48) quaisaq was unloaded.
(21:19:52) 127.0.0.1 logging in as quaisaq.
(21:19:53) MJS --> Event PlayerJoin was triggered with parameters: player $player quaisaq
(21:20:00) quaisaq uses /goto quasiaq
(21:20:03) quaisaq uses /goto quaisaq
(21:20:03) Level initialized
(21:20:03) Level "quaisaq" loaded.
(21:20:14) quaisaq uses /map edgewater
(21:20:21) quaisaq uses /map edgewater
(21:20:23) quaisaq uses /physics 1
(21:20:23) Physics is now Normal on quaisaq.
(21:20:45) quaisaq uses /map edgewater
(21:20:50) quaisaq disconnected.
(21:20:50) SAVED: Level "quaisaq". 1/0/20
(21:20:50) And backed up
(21:20:50) quaisaq was unloaded.
(21:20:52) GAH! PHYSICS EXPLODING!
(21:20:52) Process Terminated
(21:21:29) Properties loaded, and saved!
(21:21:29) You should enable "check-update" in server.properties
(21:21:30) Level initialized
(21:21:30) Level "main" loaded.
(21:21:30) Creating listening socket on port 31415... 
(21:21:30) Checking if port is forwarded...
(21:21:31) MJS --> Event ServerStart was triggered with parameters: 
(21:21:33) 127.0.0.1 logging in as quaisaq.
(21:21:33) MJS --> Event PlayerJoin was triggered with parameters: player $player quaisaq
(21:21:33) Port 31415 is closed!
(21:21:33) Done.
(21:21:42) quaisaq uses /goto quaisaq
(21:21:42) Level initialized
(21:21:42) Level "quaisaq" loaded.
(21:21:44) quaisaq uses /cleanlvl 
(21:21:47) quaisaq disconnected.
(21:21:47) quaisaq was unloaded.
(21:21:50) GAH! PHYSICS EXPLODING!
(21:21:50) Process Terminated
