(20:13:21) Starting Server
(20:13:21) Properties loaded, and saved!
(20:13:21) You should enable "check-update" in server.properties
(20:13:22) Incorrect value given for tree, using default value.
(20:13:22) Level initialized
(20:13:22) Level "main" loaded.
(20:13:22) Creating listening socket on port 31415... 
(20:13:22) Checking if port is forwarded...
(20:13:24) MJS --> Event ServerStart was triggered with parameters: 
(20:13:45) Failed to check portforward.
(20:13:45) Check System Tab for more information.
(20:13:45) An Error occured! For more information, go to System Logs tab
(20:13:45) Done.
(20:14:01) 127.0.0.1 logging in as quaisaq.
(20:14:03) MJS --> Event PlayerJoin was triggered with parameters: player $player quaisaq
(20:19:31) quaisaq disconnected.
(20:19:33) GAH! PHYSICS EXPLODING!
(20:19:33) Process Terminated
