(16:30:19) Properties loaded, and saved!
(16:30:19) You should enable "check-update" in server.properties
(16:30:20) Level initialized
(16:30:20) Level "main" loaded.
(16:30:20) flat
(16:30:20) Creating listening socket on port 25565...
(16:30:20) Checking if port is forwarded...
(16:30:21) Shutting down...
(16:30:21) Closing forwarded ports...
(16:30:22) Process Terminated
